SerieParalelo/ConvertidorSP.vcd
$date
	Sat Jun  1 07:42:39 2019
$end
$version
	Icarus Verilog
$end
$timescale
	100ps
$end
$scope module BUF $end
$var wire 1 ! A $end
$var wire 1 " Y $end
$upscope $end
$scope module BancoPruebasSerial $end
$var wire 4 # BC_counter [3:0] $end
$var wire 4 $ BC_counter_est [3:0] $end
$var wire 1 % active $end
$var wire 1 & active_est $end
$var wire 1 ' clk_8f $end
$var wire 1 ( clk_f $end
$var wire 8 ) data2send [7:0] $end
$var wire 8 * data2send_est [7:0] $end
$var wire 1 + data_in $end
$var wire 1 , reset $end
$var wire 1 - valid_out $end
$var wire 1 . valid_out_est $end
$scope module SerieParalelo_ $end
$var wire 1 ' clk_8f $end
$var wire 1 ( clk_f $end
$var wire 1 + data_in $end
$var wire 1 , reset $end
$var reg 4 / BC_counter [3:0] $end
$var reg 1 0 active $end
$var reg 1 1 activeF $end
$var reg 3 2 contador [2:0] $end
$var reg 3 3 contadorF [2:0] $end
$var reg 8 4 data2send [7:0] $end
$var reg 8 5 pasoInSend [7:0] $end
$var reg 8 6 pasoInSendF [7:0] $end
$var reg 1 7 valid_out $end
$var reg 1 8 valid_outF $end
$upscope $end
$scope module ProbadorSerial_ $end
$var wire 4 9 BC_counter [3:0] $end
$var wire 4 : BC_counter_est [3:0] $end
$var wire 1 % active $end
$var wire 1 & active_est $end
$var wire 8 ; data2send [7:0] $end
$var wire 8 < data2send_est [7:0] $end
$var wire 1 - valid_out $end
$var wire 1 . valid_out_est $end
$var reg 1 = clk_8f $end
$var reg 1 > clk_f $end
$var reg 1 ? data_in $end
$var reg 1 @ reset $end
$upscope $end
$scope module SerieParalelo_Est_ $end
$var wire 4 A BC_counter_est [3:0] $end
$var wire 4 B _000_ [3:0] $end
$var wire 3 C _001_ [2:0] $end
$var wire 1 D _005_ $end
$var wire 1 E _006_ $end
$var wire 1 F _007_ $end
$var wire 1 G _008_ $end
$var wire 1 H _009_ $end
$var wire 1 I _010_ $end
$var wire 1 J _011_ $end
$var wire 1 K _012_ $end
$var wire 1 L _013_ $end
$var wire 1 M _014_ $end
$var wire 1 N _015_ $end
$var wire 1 O _016_ $end
$var wire 1 P _017_ $end
$var wire 1 Q _018_ $end
$var wire 1 R _019_ $end
$var wire 1 S _020_ $end
$var wire 1 T _021_ $end
$var wire 1 U _022_ $end
$var wire 1 V _023_ $end
$var wire 1 W _024_ $end
$var wire 1 X _025_ $end
$var wire 1 Y _026_ $end
$var wire 1 Z _027_ $end
$var wire 1 [ _028_ $end
$var wire 1 \ _029_ $end
$var wire 1 ] _030_ $end
$var wire 1 ^ _031_ $end
$var wire 1 _ _032_ $end
$var wire 1 ` _033_ $end
$var wire 1 a _034_ $end
$var wire 1 b _035_ $end
$var wire 1 c _036_ $end
$var wire 1 d _037_ $end
$var wire 1 e _038_ $end
$var wire 1 f _039_ $end
$var wire 1 g _040_ $end
$var wire 1 h _041_ $end
$var wire 1 i _042_ $end
$var wire 1 j _043_ $end
$var wire 1 k _044_ $end
$var wire 1 l _045_ $end
$var wire 1 m _046_ $end
$var wire 1 n _047_ $end
$var wire 1 o _048_ $end
$var wire 1 p _049_ $end
$var wire 1 q _050_ $end
$var wire 1 r _051_ $end
$var wire 1 s _052_ $end
$var wire 1 t _053_ $end
$var wire 1 u _054_ $end
$var wire 1 v _055_ $end
$var wire 1 w _056_ $end
$var wire 1 x _057_ $end
$var wire 1 y _058_ $end
$var wire 1 z _059_ $end
$var wire 1 { _060_ $end
$var wire 1 | _061_ $end
$var wire 1 } _062_ $end
$var wire 1 ~ _063_ $end
$var wire 1 !" _064_ $end
$var wire 1 "" _065_ $end
$var wire 1 #" _066_ $end
$var wire 1 $" _067_ $end
$var wire 1 %" _068_ $end
$var wire 1 &" _069_ $end
$var wire 1 '" _070_ $end
$var wire 1 (" _071_ $end
$var wire 1 )" _072_ $end
$var wire 1 *" _073_ $end
$var wire 1 +" _074_ $end
$var wire 1 ," _075_ $end
$var wire 1 -" _076_ $end
$var wire 1 ." _077_ $end
$var wire 1 /" _078_ $end
$var wire 1 0" _079_ $end
$var wire 1 1" _080_ $end
$var wire 1 2" _081_ $end
$var wire 1 3" _082_ $end
$var wire 1 4" _083_ $end
$var wire 1 5" _084_ $end
$var wire 1 6" _085_ $end
$var wire 1 7" _086_ $end
$var wire 1 8" _087_ $end
$var wire 1 9" _088_ $end
$var wire 1 :" _089_ $end
$var wire 1 ;" _090_ $end
$var wire 1 <" _091_ $end
$var wire 1 =" _092_ $end
$var wire 1 >" _093_ $end
$var wire 1 ?" _094_ $end
$var wire 1 @" _095_ $end
$var wire 1 A" _096_ $end
$var wire 1 B" _097_ $end
$var wire 1 C" _098_ $end
$var wire 1 D" _099_ $end
$var wire 1 E" _100_ $end
$var wire 1 F" _101_ $end
$var wire 1 G" _102_ $end
$var wire 1 H" _103_ $end
$var wire 1 I" _104_ $end
$var wire 1 J" _105_ $end
$var wire 1 K" _106_ $end
$var wire 1 L" _107_ $end
$var wire 1 M" _108_ $end
$var wire 1 N" _109_ $end
$var wire 1 O" _110_ $end
$var wire 1 P" _111_ $end
$var wire 1 Q" _112_ $end
$var wire 1 R" _113_ $end
$var wire 1 S" _114_ $end
$var wire 1 T" _115_ $end
$var wire 1 U" _116_ $end
$var wire 1 V" _117_ $end
$var wire 1 W" _118_ $end
$var wire 1 X" _119_ $end
$var wire 1 Y" _120_ $end
$var wire 1 Z" _121_ $end
$var wire 1 [" _122_ $end
$var wire 1 \" _123_ $end
$var wire 1 ]" _124_ $end
$var wire 1 ^" _125_ $end
$var wire 1 _" _126_ $end
$var wire 1 `" _127_ $end
$var wire 1 a" _128_ $end
$var wire 1 b" _129_ $end
$var wire 1 c" _130_ $end
$var wire 1 d" _131_ $end
$var wire 1 e" _132_ $end
$var wire 1 f" _133_ $end
$var wire 1 g" _134_ $end
$var wire 1 h" _135_ $end
$var wire 1 i" _136_ $end
$var wire 1 j" _137_ $end
$var wire 1 k" _138_ $end
$var wire 1 l" _139_ $end
$var wire 1 m" _140_ $end
$var wire 1 n" _141_ $end
$var wire 1 o" _142_ $end
$var wire 1 p" _143_ $end
$var wire 1 q" _144_ $end
$var wire 1 r" _145_ $end
$var wire 1 & active_est $end
$var wire 1 s" active_estF $end
$var wire 1 ' clk_8f $end
$var wire 1 ( clk_f $end
$var wire 3 t" contadorF [2:0] $end
$var wire 8 u" data2send_est [7:0] $end
$var wire 1 + data_in $end
$var wire 8 v" pasoInSend [7:0] $end
$var wire 8 w" pasoInSendF [7:0] $end
$var wire 1 , reset $end
$var wire 1 . valid_out_est $end
$var wire 1 x" valid_out_estF $end
$scope module _225_ $end
$var wire 1 R A $end
$var wire 1 ;" Y $end
$upscope $end
$scope module _226_ $end
$var wire 1 &" A $end
$var wire 1 <" Y $end
$upscope $end
$scope module _227_ $end
$var wire 1 R" A $end
$var wire 1 =" Y $end
$upscope $end
$scope module _228_ $end
$var wire 1 X" A $end
$var wire 1 U" B $end
$var wire 1 >" Y $end
$upscope $end
$scope module _229_ $end
$var wire 1 >" A $end
$var wire 1 =" B $end
$var wire 1 ?" Y $end
$upscope $end
$scope module _230_ $end
$var wire 1 ?" A $end
$var wire 1 <" B $end
$var wire 1 @" Y $end
$upscope $end
$scope module _231_ $end
$var wire 1 3" A $end
$var wire 1 A" Y $end
$upscope $end
$scope module _232_ $end
$var wire 1 U" A $end
$var wire 1 B" Y $end
$upscope $end
$scope module _233_ $end
$var wire 1 X" A $end
$var wire 1 C" Y $end
$upscope $end
$scope module _234_ $end
$var wire 1 C" A $end
$var wire 1 B" B $end
$var wire 1 D" Y $end
$upscope $end
$scope module _235_ $end
$var wire 1 D" A $end
$var wire 1 R" B $end
$var wire 1 E" Y $end
$upscope $end
$scope module _236_ $end
$var wire 1 E" A $end
$var wire 1 A" B $end
$var wire 1 F" Y $end
$upscope $end
$scope module _237_ $end
$var wire 1 F" A $end
$var wire 1 @" B $end
$var wire 1 G" Y $end
$upscope $end
$scope module _238_ $end
$var wire 1 G" A $end
$var wire 1 ;" B $end
$var wire 1 x Y $end
$upscope $end
$scope module _239_ $end
$var wire 1 C" A $end
$var wire 1 U" B $end
$var wire 1 H" Y $end
$upscope $end
$scope module _240_ $end
$var wire 1 H" A $end
$var wire 1 R" B $end
$var wire 1 I" Y $end
$upscope $end
$scope module _241_ $end
$var wire 1 I" A $end
$var wire 1 ," B $end
$var wire 1 J" Y $end
$upscope $end
$scope module _242_ $end
$var wire 1 I" A $end
$var wire 1 <" B $end
$var wire 1 K" Y $end
$upscope $end
$scope module _243_ $end
$var wire 1 K" A $end
$var wire 1 R B $end
$var wire 1 L" Y $end
$upscope $end
$scope module _244_ $end
$var wire 1 L" A $end
$var wire 1 J" B $end
$var wire 1 %" Y $end
$upscope $end
$scope module _245_ $end
$var wire 1 X" A $end
$var wire 1 B" B $end
$var wire 1 M" Y $end
$upscope $end
$scope module _246_ $end
$var wire 1 M" A $end
$var wire 1 =" B $end
$var wire 1 N" Y $end
$upscope $end
$scope module _247_ $end
$var wire 1 N" A $end
$var wire 1 (" B $end
$var wire 1 O" Y $end
$upscope $end
$scope module _248_ $end
$var wire 1 N" A $end
$var wire 1 <" B $end
$var wire 1 P" Y $end
$upscope $end
$scope module _249_ $end
$var wire 1 P" A $end
$var wire 1 R B $end
$var wire 1 Q" Y $end
$upscope $end
$scope module _250_ $end
$var wire 1 Q" A $end
$var wire 1 O" B $end
$var wire 1 7" Y $end
$upscope $end
$scope module _251_ $end
$var wire 1 9" A $end
$var wire 1 8" B $end
$var wire 1 S" Y $end
$upscope $end
$scope module _252_ $end
$var wire 1 o A $end
$var wire 1 T" Y $end
$upscope $end
$scope module _253_ $end
$var wire 1 T" A $end
$var wire 1 :" B $end
$var wire 1 V" Y $end
$upscope $end
$scope module _254_ $end
$var wire 1 V" A $end
$var wire 1 S" B $end
$var wire 1 W" Y $end
$upscope $end
$scope module _255_ $end
$var wire 1 W" A $end
$var wire 1 Y" Y $end
$upscope $end
$scope module _256_ $end
$var wire 1 Y" A $end
$var wire 1 O B $end
$var wire 1 Z" Y $end
$upscope $end
$scope module _257_ $end
$var wire 1 Z" A $end
$var wire 1 ;" B $end
$var wire 1 T Y $end
$upscope $end
$scope module _258_ $end
$var wire 1 R A $end
$var wire 1 J B $end
$var wire 1 [" Y $end
$upscope $end
$scope module _259_ $end
$var wire 1 [" A $end
$var wire 1 W" B $end
$var wire 1 V Y $end
$upscope $end
$scope module _260_ $end
$var wire 1 M" A $end
$var wire 1 R" B $end
$var wire 1 \" Y $end
$upscope $end
$scope module _261_ $end
$var wire 1 \" A $end
$var wire 1 /" B $end
$var wire 1 ]" Y $end
$upscope $end
$scope module _262_ $end
$var wire 1 \" A $end
$var wire 1 <" B $end
$var wire 1 ^" Y $end
$upscope $end
$scope module _263_ $end
$var wire 1 ^" A $end
$var wire 1 R B $end
$var wire 1 _" Y $end
$upscope $end
$scope module _264_ $end
$var wire 1 _" A $end
$var wire 1 ]" B $end
$var wire 1 [ Y $end
$upscope $end
$scope module _265_ $end
$var wire 1 X" A $end
$var wire 1 U" B $end
$var wire 1 `" Y $end
$upscope $end
$scope module _266_ $end
$var wire 1 `" A $end
$var wire 1 R" B $end
$var wire 1 a" Y $end
$upscope $end
$scope module _267_ $end
$var wire 1 a" A $end
$var wire 1 +" B $end
$var wire 1 b" Y $end
$upscope $end
$scope module _268_ $end
$var wire 1 a" A $end
$var wire 1 <" B $end
$var wire 1 c" Y $end
$upscope $end
$scope module _269_ $end
$var wire 1 c" A $end
$var wire 1 R B $end
$var wire 1 d" Y $end
$upscope $end
$scope module _270_ $end
$var wire 1 d" A $end
$var wire 1 b" B $end
$var wire 1 ^ Y $end
$upscope $end
$scope module _271_ $end
$var wire 1 >" A $end
$var wire 1 R" B $end
$var wire 1 e" Y $end
$upscope $end
$scope module _272_ $end
$var wire 1 e" A $end
$var wire 1 &" B $end
$var wire 1 f" Y $end
$upscope $end
$scope module _273_ $end
$var wire 1 1" A $end
$var wire 1 g" Y $end
$upscope $end
$scope module _274_ $end
$var wire 1 e" A $end
$var wire 1 g" B $end
$var wire 1 h" Y $end
$upscope $end
$scope module _275_ $end
$var wire 1 h" A $end
$var wire 1 R B $end
$var wire 1 i" Y $end
$upscope $end
$scope module _276_ $end
$var wire 1 i" A $end
$var wire 1 f" B $end
$var wire 1 a Y $end
$upscope $end
$scope module _277_ $end
$var wire 1 H" A $end
$var wire 1 =" B $end
$var wire 1 j" Y $end
$upscope $end
$scope module _278_ $end
$var wire 1 j" A $end
$var wire 1 *" B $end
$var wire 1 k" Y $end
$upscope $end
$scope module _279_ $end
$var wire 1 j" A $end
$var wire 1 <" B $end
$var wire 1 l" Y $end
$upscope $end
$scope module _280_ $end
$var wire 1 l" A $end
$var wire 1 R B $end
$var wire 1 m" Y $end
$upscope $end
$scope module _281_ $end
$var wire 1 m" A $end
$var wire 1 k" B $end
$var wire 1 d Y $end
$upscope $end
$scope module _282_ $end
$var wire 1 `" A $end
$var wire 1 =" B $end
$var wire 1 n" Y $end
$upscope $end
$scope module _283_ $end
$var wire 1 n" A $end
$var wire 1 ." B $end
$var wire 1 o" Y $end
$upscope $end
$scope module _284_ $end
$var wire 1 n" A $end
$var wire 1 <" B $end
$var wire 1 p" Y $end
$upscope $end
$scope module _285_ $end
$var wire 1 p" A $end
$var wire 1 R B $end
$var wire 1 q" Y $end
$upscope $end
$scope module _286_ $end
$var wire 1 q" A $end
$var wire 1 o" B $end
$var wire 1 h Y $end
$upscope $end
$scope module _287_ $end
$var wire 1 b" A $end
$var wire 1 ;" B $end
$var wire 1 r" Y $end
$upscope $end
$scope module _288_ $end
$var wire 1 r" A $end
$var wire 1 c" B $end
$var wire 1 D Y $end
$upscope $end
$scope module _289_ $end
$var wire 1 f" A $end
$var wire 1 ;" B $end
$var wire 1 E Y $end
$upscope $end
$scope module _290_ $end
$var wire 1 E A $end
$var wire 1 h" B $end
$var wire 1 F Y $end
$upscope $end
$scope module _291_ $end
$var wire 1 F A $end
$var wire 1 D B $end
$var wire 1 G Y $end
$upscope $end
$scope module _292_ $end
$var wire 1 k" A $end
$var wire 1 ;" B $end
$var wire 1 H Y $end
$upscope $end
$scope module _293_ $end
$var wire 1 H A $end
$var wire 1 l" B $end
$var wire 1 I Y $end
$upscope $end
$scope module _294_ $end
$var wire 1 o" A $end
$var wire 1 ;" B $end
$var wire 1 K Y $end
$upscope $end
$scope module _295_ $end
$var wire 1 K A $end
$var wire 1 p" B $end
$var wire 1 L Y $end
$upscope $end
$scope module _296_ $end
$var wire 1 L A $end
$var wire 1 I B $end
$var wire 1 M Y $end
$upscope $end
$scope module _297_ $end
$var wire 1 M A $end
$var wire 1 G B $end
$var wire 1 N Y $end
$upscope $end
$scope module _298_ $end
$var wire 1 %" A $end
$var wire 1 x B $end
$var wire 1 P Y $end
$upscope $end
$scope module _299_ $end
$var wire 1 ]" A $end
$var wire 1 ;" B $end
$var wire 1 Q Y $end
$upscope $end
$scope module _300_ $end
$var wire 1 Q A $end
$var wire 1 ^" B $end
$var wire 1 S Y $end
$upscope $end
$scope module _301_ $end
$var wire 1 S A $end
$var wire 1 7" B $end
$var wire 1 U Y $end
$upscope $end
$scope module _302_ $end
$var wire 1 U A $end
$var wire 1 P B $end
$var wire 1 W Y $end
$upscope $end
$scope module _303_ $end
$var wire 1 W A $end
$var wire 1 N B $end
$var wire 1 X Y $end
$upscope $end
$scope module _304_ $end
$var wire 1 8" A $end
$var wire 1 Y Y $end
$upscope $end
$scope module _305_ $end
$var wire 1 ;" A $end
$var wire 1 Y B $end
$var wire 1 Z Y $end
$upscope $end
$scope module _306_ $end
$var wire 1 Z A $end
$var wire 1 X B $end
$var wire 1 \ Y $end
$upscope $end
$scope module _307_ $end
$var wire 1 a A $end
$var wire 1 ^ B $end
$var wire 1 ] Y $end
$upscope $end
$scope module _308_ $end
$var wire 1 h A $end
$var wire 1 d B $end
$var wire 1 _ Y $end
$upscope $end
$scope module _309_ $end
$var wire 1 _ A $end
$var wire 1 ] B $end
$var wire 1 ` Y $end
$upscope $end
$scope module _310_ $end
$var wire 1 ?" A $end
$var wire 1 A" B $end
$var wire 1 b Y $end
$upscope $end
$scope module _311_ $end
$var wire 1 ?" A $end
$var wire 1 &" B $end
$var wire 1 c Y $end
$upscope $end
$scope module _312_ $end
$var wire 1 c A $end
$var wire 1 ;" B $end
$var wire 1 e Y $end
$upscope $end
$scope module _313_ $end
$var wire 1 e A $end
$var wire 1 b B $end
$var wire 1 f Y $end
$upscope $end
$scope module _314_ $end
$var wire 1 J" A $end
$var wire 1 ;" B $end
$var wire 1 g Y $end
$upscope $end
$scope module _315_ $end
$var wire 1 g A $end
$var wire 1 K" B $end
$var wire 1 i Y $end
$upscope $end
$scope module _316_ $end
$var wire 1 i A $end
$var wire 1 f B $end
$var wire 1 j Y $end
$upscope $end
$scope module _317_ $end
$var wire 1 O" A $end
$var wire 1 ;" B $end
$var wire 1 k Y $end
$upscope $end
$scope module _318_ $end
$var wire 1 k A $end
$var wire 1 P" B $end
$var wire 1 l Y $end
$upscope $end
$scope module _319_ $end
$var wire 1 [ A $end
$var wire 1 l B $end
$var wire 1 m Y $end
$upscope $end
$scope module _320_ $end
$var wire 1 m A $end
$var wire 1 j B $end
$var wire 1 n Y $end
$upscope $end
$scope module _321_ $end
$var wire 1 n A $end
$var wire 1 ` B $end
$var wire 1 p Y $end
$upscope $end
$scope module _322_ $end
$var wire 1 p A $end
$var wire 1 Y B $end
$var wire 1 q Y $end
$upscope $end
$scope module _323_ $end
$var wire 1 q A $end
$var wire 1 \ B $end
$var wire 1 s Y $end
$upscope $end
$scope module _324_ $end
$var wire 1 9" A $end
$var wire 1 r Y $end
$upscope $end
$scope module _325_ $end
$var wire 1 ;" A $end
$var wire 1 r B $end
$var wire 1 t Y $end
$upscope $end
$scope module _326_ $end
$var wire 1 t A $end
$var wire 1 q B $end
$var wire 1 u Y $end
$upscope $end
$scope module _327_ $end
$var wire 1 X A $end
$var wire 1 8" B $end
$var wire 1 w Y $end
$upscope $end
$scope module _328_ $end
$var wire 1 w A $end
$var wire 1 r B $end
$var wire 1 y Y $end
$upscope $end
$scope module _329_ $end
$var wire 1 y A $end
$var wire 1 u B $end
$var wire 1 v Y $end
$upscope $end
$scope module _330_ $end
$var wire 1 q A $end
$var wire 1 9" B $end
$var wire 1 { Y $end
$upscope $end
$scope module _331_ $end
$var wire 1 { A $end
$var wire 1 T" B $end
$var wire 1 } Y $end
$upscope $end
$scope module _332_ $end
$var wire 1 T" A $end
$var wire 1 ;" B $end
$var wire 1 ~ Y $end
$upscope $end
$scope module _333_ $end
$var wire 1 ~ A $end
$var wire 1 y B $end
$var wire 1 !" Y $end
$upscope $end
$scope module _334_ $end
$var wire 1 !" A $end
$var wire 1 } B $end
$var wire 1 z Y $end
$upscope $end
$scope module _335_ $end
$var wire 1 :" A $end
$var wire 1 "" Y $end
$upscope $end
$scope module _336_ $end
$var wire 1 ;" A $end
$var wire 1 "" B $end
$var wire 1 #" Y $end
$upscope $end
$scope module _337_ $end
$var wire 1 #" A $end
$var wire 1 } B $end
$var wire 1 $" Y $end
$upscope $end
$scope module _338_ $end
$var wire 1 y A $end
$var wire 1 o B $end
$var wire 1 '" Y $end
$upscope $end
$scope module _339_ $end
$var wire 1 '" A $end
$var wire 1 "" B $end
$var wire 1 )" Y $end
$upscope $end
$scope module _340_ $end
$var wire 1 )" A $end
$var wire 1 $" B $end
$var wire 1 | Y $end
$upscope $end
$scope module _341_ $end
$var wire 1 R A $end
$var wire 1 U" B $end
$var wire 1 4" Y $end
$upscope $end
$scope module _342_ $end
$var wire 1 >" A $end
$var wire 1 ;" B $end
$var wire 1 -" Y $end
$upscope $end
$scope module _343_ $end
$var wire 1 -" A $end
$var wire 1 `" B $end
$var wire 1 5" Y $end
$upscope $end
$scope module _344_ $end
$var wire 1 >" A $end
$var wire 1 =" B $end
$var wire 1 0" Y $end
$upscope $end
$scope module _345_ $end
$var wire 1 0" A $end
$var wire 1 ;" B $end
$var wire 1 2" Y $end
$upscope $end
$scope module _346_ $end
$var wire 1 2" A $end
$var wire 1 ?" B $end
$var wire 1 6" Y $end
$upscope $end
$scope module _347_ $end
$var wire 1 ( C $end
$var wire 1 y" D $end
$var reg 1 z" Q $end
$upscope $end
$scope module _348_ $end
$var wire 1 ( C $end
$var wire 1 {" D $end
$var reg 1 |" Q $end
$upscope $end
$scope module _349_ $end
$var wire 1 ( C $end
$var wire 1 }" D $end
$var reg 1 ~" Q $end
$upscope $end
$scope module _350_ $end
$var wire 1 ( C $end
$var wire 1 !# D $end
$var reg 1 "# Q $end
$upscope $end
$scope module _351_ $end
$var wire 1 ( C $end
$var wire 1 ## D $end
$var reg 1 $# Q $end
$upscope $end
$scope module _352_ $end
$var wire 1 ( C $end
$var wire 1 %# D $end
$var reg 1 &# Q $end
$upscope $end
$scope module _353_ $end
$var wire 1 ( C $end
$var wire 1 '# D $end
$var reg 1 (# Q $end
$upscope $end
$scope module _354_ $end
$var wire 1 ( C $end
$var wire 1 )# D $end
$var reg 1 *# Q $end
$upscope $end
$scope module _355_ $end
$var wire 1 ( C $end
$var wire 1 +# D $end
$var reg 1 ,# Q $end
$upscope $end
$scope module _356_ $end
$var wire 1 ( C $end
$var wire 1 -# D $end
$var reg 1 .# Q $end
$upscope $end
$scope module _357_ $end
$var wire 1 ( C $end
$var wire 1 /# D $end
$var reg 1 0# Q $end
$upscope $end
$scope module _358_ $end
$var wire 1 ( C $end
$var wire 1 1# D $end
$var reg 1 2# Q $end
$upscope $end
$scope module _359_ $end
$var wire 1 ( C $end
$var wire 1 & D $end
$var reg 1 3# Q $end
$upscope $end
$scope module _360_ $end
$var wire 1 ' C $end
$var wire 1 4# D $end
$var reg 1 5# Q $end
$upscope $end
$scope module _361_ $end
$var wire 1 ' C $end
$var wire 1 6# D $end
$var reg 1 7# Q $end
$upscope $end
$scope module _362_ $end
$var wire 1 ' C $end
$var wire 1 8# D $end
$var reg 1 9# Q $end
$upscope $end
$scope module _363_ $end
$var wire 1 ' C $end
$var wire 1 :# D $end
$var reg 1 ;# Q $end
$upscope $end
$scope module _364_ $end
$var wire 1 ' C $end
$var wire 1 <# D $end
$var reg 1 =# Q $end
$upscope $end
$scope module _365_ $end
$var wire 1 ' C $end
$var wire 1 ># D $end
$var reg 1 ?# Q $end
$upscope $end
$scope module _366_ $end
$var wire 1 ' C $end
$var wire 1 @# D $end
$var reg 1 A# Q $end
$upscope $end
$scope module _367_ $end
$var wire 1 ' C $end
$var wire 1 B# D $end
$var reg 1 C# Q $end
$upscope $end
$scope module _368_ $end
$var wire 1 ' C $end
$var wire 1 D# D $end
$var reg 1 E# Q $end
$upscope $end
$scope module _369_ $end
$var wire 1 ' C $end
$var wire 1 F# D $end
$var reg 1 G# Q $end
$upscope $end
$scope module _370_ $end
$var wire 1 ' C $end
$var wire 1 H# D $end
$var reg 1 I# Q $end
$upscope $end
$scope module _371_ $end
$var wire 1 ' C $end
$var wire 1 & D $end
$var reg 1 J# Q $end
$upscope $end
$upscope $end
$upscope $end
$scope module DFFSR $end
$var wire 1 K# C $end
$var wire 1 L# D $end
$var wire 1 M# R $end
$var wire 1 N# S $end
$var reg 1 O# Q $end
$upscope $end
$enddefinitions $end
#0
$dumpvars
xO#
zN#
zM#
zL#
zK#
xJ#
xI#
0H#
xG#
0F#
xE#
0D#
xC#
0B#
xA#
0@#
x?#
0>#
x=#
0<#
x;#
0:#
x9#
18#
x7#
16#
x5#
14#
x3#
x2#
01#
x0#
0/#
x.#
0-#
x,#
0+#
x*#
0)#
x(#
0'#
x&#
0%#
x$#
0##
x"#
0!#
x~"
0}"
x|"
0{"
xz"
0y"
xx"
bx w"
b0 v"
bx u"
bx t"
xs"
0r"
1q"
xp"
xo"
xn"
1m"
xl"
xk"
xj"
1i"
xh"
xg"
xf"
xe"
1d"
xc"
xb"
xa"
x`"
1_"
x^"
x]"
x\"
1["
xZ"
xY"
xX"
xW"
xV"
xU"
xT"
xS"
xR"
1Q"
xP"
xO"
xN"
xM"
1L"
xK"
xJ"
xI"
xH"
xG"
xF"
xE"
xD"
xC"
xB"
xA"
0@"
x?"
x>"
x="
1<"
1;"
x:"
x9"
x8"
07"
16"
15"
14"
x3"
02"
x1"
x0"
x/"
x."
0-"
x,"
x+"
x*"
0)"
x("
1'"
0&"
0%"
1$"
0#"
x""
1!"
0~
0}
0|
1{
0z
0y
0x
1w
0v
1u
0t
0s
xr
0q
1p
xo
0n
1m
1l
0k
0j
1i
0h
0g
1f
0e
0d
xc
xb
0a
0`
1_
0^
1]
1\
0[
0Z
xY
0X
1W
0V
0U
0T
1S
0R
0Q
1P
xO
1N
0M
1L
0K
xJ
1I
0H
0G
1F
0E
1D
b111 C
b0 B
bx A
0@
0?
0>
1=
bx <
bx ;
bx :
bx 9
x8
07
b0 6
b0 5
bx 4
b111 3
b0 2
01
00
bx /
0.
0-
0,
0+
bx *
bx )
0(
1'
0&
0%
bx $
bx #
z"
z!
$end
#10
0=
0'
#20
1k"
1l"
0f"
0h"
1G"
0b
0c
1O"
1P"
0o"
0p"
0j"
1J"
1K"
1]"
1^"
1b"
1c"
1e"
0F"
1?"
0N"
1n"
10"
1H"
1D"
0E"
0I"
0\"
0a"
1M"
0>"
0`"
1g"
1A"
0="
0C"
0B"
0."
0("
0*"
01"
0+"
0/"
0,"
03"
1R"
1X"
1U"
0J#
0s"
0O
0I#
0G#
0E#
0C#
0A#
0?#
0=#
0;#
b0 w"
19#
17#
15#
b111 t"
1=
1'
#30
0=
0'
#40
1=
1'
#50
0=
0'
#60
1=
1'
#70
0=
0'
#80
1)#
1H#
1Z"
1h
b10000000 v"
0Y"
0q"
0L
1W"
0V"
0T
0&
1E
1K
1e
1-"
04#
1p"
1S"
0L"
0Q"
0_"
0d"
0m"
04"
b110 C
1Y
1r
1T"
1""
0;"
0<"
b10000000 5
b111 2
08"
09"
0o
0:"
1@
1R
1,
1?
1&"
1+
b0 /
b0 #
b0 9
b0 4
b0 )
b0 ;
08
0z"
0|"
0~"
0"#
0$#
0&#
0(#
0*#
b0 *
b0 <
b0 u"
0,#
0.#
00#
02#
b0 $
b0 :
b0 A
03#
0x"
0J
1=
1'
1>
1(
#90
0=
0'
#100
0'#
0F#
07"
1k
1Q"
0O"
0P"
1)#
1H#
1h
b10000000 v"
1N"
06#
0n"
05"
0q"
0L
0M"
14#
1`"
14"
b101 C
1p"
1B"
1."
0U"
1<"
b10000000 5
b110 2
1I#
b10000000 w"
05#
b110 t"
0?
0&"
0+
b10000000 6
b110 3
1=
1'
#110
0=
0'
#120
1M
0_
0I
1%#
1D#
1d
1H
0k
0'#
0F#
07"
b10100000 v"
0k"
1O"
0Q"
1l
1j"
0N"
04#
1P"
0H"
04"
b100 C
1M"
0B"
1C"
0<"
b10100000 5
b101 2
1U"
0X"
b101 3
1?
1&"
1+
15#
07#
b101 t"
1=
1'
#130
0=
0'
#140
1##
1B#
1a
b10110000 v"
08#
0i"
0F
06"
16#
1h"
15"
12"
0e"
0-"
00"
0j"
0D"
14#
1>"
1H"
14"
b11 C
1B"
1*"
0U"
b10110000 5
b100 2
1E#
b10100000 w"
05#
b100 t"
b10100000 6
b100 3
1=
1'
#150
0=
0'
#160
0+#
0s
b0 B
1\
0X
1W
1p
0N
0n
0U
1`
1G
1P
1m
1S
0]
0D
0y"
0:#
0}"
0>#
1!#
1@#
0x
0j
0[
0Q
1^
b10111000 v"
1r"
1G"
1f
1]"
0b"
08#
0@"
0b
06"
1-"
0\"
1a"
04#
1D"
1?"
04"
b10 C
0>"
1M"
0`"
0E"
1e"
0B"
0C"
1="
0g"
b10111000 5
b11 2
1U"
1X"
0R"
11"
b10110000 6
b11 3
15#
17#
09#
b11 t"
1C#
b10110000 w"
1=
1'
0>
0(
#170
0=
0'
#180
1+#
1s
b1 B
0\
1X
0p
0W
1n
1U
0m
0S
1}"
1>#
1[
b10111100 v"
1Q
0]"
1\"
06#
0a"
05"
0M"
14#
1`"
14"
b1 C
1B"
1+"
0U"
b10111100 5
b10 2
1A#
b10111000 w"
05#
b10 t"
b10111000 6
b10 3
1=
1'
#190
0=
0'
#200
1+#
1s
b1 B
0p
0\
1n
1X
1P
0{"
0<#
0m
0W
0%"
1g
1L"
1}"
1>#
1[
b10111100 v"
1U
0J"
0K"
0_"
0S
1I"
0\"
04#
1^"
0H"
04"
b0 C
1M"
0B"
1C"
1<"
b10111100 5
b1 2
1U"
0X"
1/"
b10111100 6
b1 3
0?
0&"
0+
15#
07#
b1 t"
1?#
b10111100 w"
1=
1'
#210
0=
0'
#220
0p
1n
0j
1f
0e
0g
0L"
1i
18#
16#
1b
1c
16"
15"
1J"
1K"
1E"
0?"
0-"
0I"
0D"
14#
1>"
1H"
14"
b111 C
1B"
0U"
b10111100 5
b0 2
05#
b0 t"
b0 3
1=
1'
#230
0=
0'
#240
1X
0m
0p
0W
1U
1l
1n
0'#
0F#
1P
07"
0k
1-#
0y"
0:#
0j
1v
0x
b10111100 v"
02"
1O"
18#
0+#
1f
0b
16"
0s
b10 B
0u
1G"
1-"
10"
0N"
1n"
1e
04#
1D"
1?"
1Z
1q
0@"
04"
b110 C
0>"
1M"
0`"
0E"
1e"
0S"
0w
0c
0B"
0C"
0="
0Y
0<"
1U"
1X"
1R"
18"
b10111100 5
b111 2
b111 3
1?
1&"
1+
15#
17#
19#
b111 t"
1,#
b1 $
b1 :
b1 A
1*#
1&#
1$#
1"#
1~"
b10111100 *
b10111100 <
b10111100 u"
b1 /
b1 #
b1 9
b10111100 4
b10111100 )
b10111100 ;
1=
1'
1>
1(
#250
0=
0'
