phy-final/phy_rx/SerieParalelo/ConvertidorSP.vcd
$date
	Wed May 22 19:25:23 2019
$end
$version
	Icarus Verilog
$end
$timescale
	100ps
$end
$scope module BUF $end
$var wire 1 ! A $end
$var wire 1 " Y $end
$upscope $end
$scope module BancoPruebasSerial $end
$var wire 1 # valid_out_est $end
$var wire 1 $ valid_out $end
$var wire 1 % reset $end
$var wire 1 & data_in $end
$var wire 8 ' data2send_est [7:0] $end
$var wire 8 ( data2send [7:0] $end
$var wire 1 ) clk_f $end
$var wire 1 * clk_8f $end
$var wire 1 + active_est $end
$var wire 1 , active $end
$var wire 4 - BC_counter_est [3:0] $end
$var wire 4 . BC_counter [3:0] $end
$scope module ProbadorSerial_ $end
$var wire 1 # valid_out_est $end
$var wire 1 $ valid_out $end
$var wire 8 / data2send_est [7:0] $end
$var wire 8 0 data2send [7:0] $end
$var wire 1 + active_est $end
$var wire 1 , active $end
$var wire 4 1 BC_counter_est [3:0] $end
$var wire 4 2 BC_counter [3:0] $end
$var reg 1 * clk_8f $end
$var reg 1 ) clk_f $end
$var reg 1 & data_in $end
$var reg 1 % reset $end
$upscope $end
$scope module SerieParalelo_ $end
$var wire 1 * clk_8f $end
$var wire 1 ) clk_f $end
$var wire 1 & data_in $end
$var wire 1 % reset $end
$var reg 4 3 BC_counter [3:0] $end
$var reg 1 , active $end
$var reg 1 4 activeF $end
$var reg 3 5 contador [2:0] $end
$var reg 3 6 contadorF [2:0] $end
$var reg 8 7 data2send [7:0] $end
$var reg 8 8 pasoInSend [7:0] $end
$var reg 8 9 pasoInSendF [7:0] $end
$var reg 1 $ valid_out $end
$var reg 1 : valid_outF $end
$upscope $end
$scope module SerieParalelo_Est_ $end
$var wire 1 ; _017_ $end
$var wire 1 < _021_ $end
$var wire 1 = _140_ $end
$var wire 1 > _142_ $end
$var wire 1 + active_est $end
$var wire 1 * clk_8f $end
$var wire 1 ) clk_f $end
$var wire 1 & data_in $end
$var wire 1 % reset $end
$var wire 1 # valid_out_est $end
$var wire 1 ? valid_out_estF $end
$var wire 8 @ pasoInSendF [7:0] $end
$var wire 8 A pasoInSend [7:0] $end
$var wire 8 B data2send_est [7:0] $end
$var wire 3 C contadorF [2:0] $end
$var wire 1 D active_estF $end
$var wire 1 E _141_ $end
$var wire 1 F _139_ $end
$var wire 1 G _138_ $end
$var wire 1 H _137_ $end
$var wire 1 I _136_ $end
$var wire 1 J _135_ $end
$var wire 1 K _134_ $end
$var wire 1 L _133_ $end
$var wire 1 M _132_ $end
$var wire 1 N _131_ $end
$var wire 1 O _130_ $end
$var wire 1 P _129_ $end
$var wire 1 Q _128_ $end
$var wire 1 R _127_ $end
$var wire 1 S _126_ $end
$var wire 1 T _125_ $end
$var wire 1 U _124_ $end
$var wire 1 V _123_ $end
$var wire 1 W _122_ $end
$var wire 1 X _121_ $end
$var wire 1 Y _120_ $end
$var wire 1 Z _119_ $end
$var wire 1 [ _118_ $end
$var wire 1 \ _117_ $end
$var wire 1 ] _116_ $end
$var wire 1 ^ _115_ $end
$var wire 1 _ _114_ $end
$var wire 1 ` _113_ $end
$var wire 1 a _112_ $end
$var wire 1 b _111_ $end
$var wire 1 c _110_ $end
$var wire 1 d _109_ $end
$var wire 1 e _108_ $end
$var wire 1 f _107_ $end
$var wire 1 g _106_ $end
$var wire 1 h _105_ $end
$var wire 1 i _104_ $end
$var wire 1 j _103_ $end
$var wire 1 k _102_ $end
$var wire 1 l _101_ $end
$var wire 1 m _100_ $end
$var wire 1 n _099_ $end
$var wire 1 o _098_ $end
$var wire 1 p _097_ $end
$var wire 1 q _096_ $end
$var wire 1 r _095_ $end
$var wire 1 s _094_ $end
$var wire 1 t _093_ $end
$var wire 1 u _092_ $end
$var wire 1 v _091_ $end
$var wire 1 w _090_ $end
$var wire 1 x _089_ $end
$var wire 1 y _088_ $end
$var wire 1 z _087_ $end
$var wire 1 { _086_ $end
$var wire 1 | _085_ $end
$var wire 1 } _084_ $end
$var wire 1 ~ _083_ $end
$var wire 1 !" _082_ $end
$var wire 1 "" _081_ $end
$var wire 1 #" _080_ $end
$var wire 1 $" _079_ $end
$var wire 1 %" _078_ $end
$var wire 1 &" _077_ $end
$var wire 1 '" _076_ $end
$var wire 1 (" _075_ $end
$var wire 1 )" _074_ $end
$var wire 1 *" _073_ $end
$var wire 1 +" _072_ $end
$var wire 1 ," _071_ $end
$var wire 1 -" _070_ $end
$var wire 1 ." _069_ $end
$var wire 1 /" _068_ $end
$var wire 1 0" _067_ $end
$var wire 1 1" _066_ $end
$var wire 1 2" _065_ $end
$var wire 1 3" _064_ $end
$var wire 1 4" _063_ $end
$var wire 1 5" _062_ $end
$var wire 1 6" _061_ $end
$var wire 1 7" _060_ $end
$var wire 1 8" _059_ $end
$var wire 1 9" _058_ $end
$var wire 1 :" _057_ $end
$var wire 1 ;" _056_ $end
$var wire 1 <" _055_ $end
$var wire 1 =" _054_ $end
$var wire 1 >" _053_ $end
$var wire 1 ?" _052_ $end
$var wire 1 @" _051_ $end
$var wire 1 A" _050_ $end
$var wire 1 B" _049_ $end
$var wire 1 C" _048_ $end
$var wire 1 D" _047_ $end
$var wire 1 E" _046_ $end
$var wire 1 F" _045_ $end
$var wire 1 G" _044_ $end
$var wire 1 H" _043_ $end
$var wire 1 I" _042_ $end
$var wire 1 J" _041_ $end
$var wire 1 K" _040_ $end
$var wire 1 L" _039_ $end
$var wire 1 M" _038_ $end
$var wire 1 N" _037_ $end
$var wire 1 O" _036_ $end
$var wire 1 P" _035_ $end
$var wire 1 Q" _034_ $end
$var wire 1 R" _033_ $end
$var wire 1 S" _032_ $end
$var wire 1 T" _031_ $end
$var wire 1 U" _030_ $end
$var wire 1 V" _029_ $end
$var wire 1 W" _028_ $end
$var wire 1 X" _027_ $end
$var wire 1 Y" _026_ $end
$var wire 1 Z" _025_ $end
$var wire 1 [" _024_ $end
$var wire 1 \" _023_ $end
$var wire 1 ]" _022_ $end
$var wire 1 ^" _020_ $end
$var wire 1 _" _019_ $end
$var wire 1 `" _018_ $end
$var wire 1 a" _016_ $end
$var wire 1 b" _015_ $end
$var wire 1 c" _014_ $end
$var wire 1 d" _013_ $end
$var wire 1 e" _012_ $end
$var wire 1 f" _011_ $end
$var wire 1 g" _010_ $end
$var wire 1 h" _009_ $end
$var wire 1 i" _008_ $end
$var wire 1 j" _007_ $end
$var wire 1 k" _006_ $end
$var wire 1 l" _005_ $end
$var wire 3 m" _001_ [2:0] $end
$var wire 4 n" _000_ [3:0] $end
$var wire 4 o" BC_counter_est [3:0] $end
$scope module _222_ $end
$var wire 1 e" A $end
$var wire 1 /" Y $end
$upscope $end
$scope module _223_ $end
$var wire 1 d" A $end
$var wire 1 ." Y $end
$upscope $end
$scope module _224_ $end
$var wire 1 b" A $end
$var wire 1 -" Y $end
$upscope $end
$scope module _225_ $end
$var wire 1 ^" A $end
$var wire 1 ," Y $end
$upscope $end
$scope module _226_ $end
$var wire 1 `" A $end
$var wire 1 +" Y $end
$upscope $end
$scope module _227_ $end
$var wire 1 _" A $end
$var wire 1 *" Y $end
$upscope $end
$scope module _228_ $end
$var wire 1 = A $end
$var wire 1 )" Y $end
$upscope $end
$scope module _229_ $end
$var wire 1 c" A $end
$var wire 1 (" Y $end
$upscope $end
$scope module _230_ $end
$var wire 1 O A $end
$var wire 1 '" Y $end
$upscope $end
$scope module _231_ $end
$var wire 1 < A $end
$var wire 1 &" Y $end
$upscope $end
$scope module _232_ $end
$var wire 1 P A $end
$var wire 1 %" Y $end
$upscope $end
$scope module _233_ $end
$var wire 1 N A $end
$var wire 1 $" Y $end
$upscope $end
$scope module _234_ $end
$var wire 1 Q A $end
$var wire 1 #" Y $end
$upscope $end
$scope module _235_ $end
$var wire 1 `" A $end
$var wire 1 _" B $end
$var wire 1 "" Y $end
$upscope $end
$scope module _236_ $end
$var wire 1 "" A $end
$var wire 1 !" Y $end
$upscope $end
$scope module _237_ $end
$var wire 1 ^" A $end
$var wire 1 !" B $end
$var wire 1 ~ Y $end
$upscope $end
$scope module _238_ $end
$var wire 1 ," A $end
$var wire 1 "" B $end
$var wire 1 } Y $end
$upscope $end
$scope module _239_ $end
$var wire 1 < A $end
$var wire 1 ~ B $end
$var wire 1 | Y $end
$upscope $end
$scope module _240_ $end
$var wire 1 U A $end
$var wire 1 } B $end
$var wire 1 { Y $end
$upscope $end
$scope module _241_ $end
$var wire 1 | A $end
$var wire 1 { B $end
$var wire 1 z Y $end
$upscope $end
$scope module _242_ $end
$var wire 1 = A $end
$var wire 1 z B $end
$var wire 1 y Y $end
$upscope $end
$scope module _243_ $end
$var wire 1 y A $end
$var wire 1 M Y $end
$upscope $end
$scope module _244_ $end
$var wire 1 +" A $end
$var wire 1 _" B $end
$var wire 1 x Y $end
$upscope $end
$scope module _245_ $end
$var wire 1 `" A $end
$var wire 1 *" B $end
$var wire 1 w Y $end
$upscope $end
$scope module _246_ $end
$var wire 1 ^" A $end
$var wire 1 w B $end
$var wire 1 v Y $end
$upscope $end
$scope module _247_ $end
$var wire 1 T A $end
$var wire 1 v B $end
$var wire 1 u Y $end
$upscope $end
$scope module _248_ $end
$var wire 1 &" A $end
$var wire 1 v B $end
$var wire 1 t Y $end
$upscope $end
$scope module _249_ $end
$var wire 1 )" A $end
$var wire 1 u B $end
$var wire 1 s Y $end
$upscope $end
$scope module _250_ $end
$var wire 1 t A $end
$var wire 1 s B $end
$var wire 1 r Y $end
$upscope $end
$scope module _251_ $end
$var wire 1 r A $end
$var wire 1 L Y $end
$upscope $end
$scope module _252_ $end
$var wire 1 `" A $end
$var wire 1 *" B $end
$var wire 1 q Y $end
$upscope $end
$scope module _253_ $end
$var wire 1 +" A $end
$var wire 1 _" B $end
$var wire 1 p Y $end
$upscope $end
$scope module _254_ $end
$var wire 1 ^" A $end
$var wire 1 q B $end
$var wire 1 o Y $end
$upscope $end
$scope module _255_ $end
$var wire 1 '" A $end
$var wire 1 o B $end
$var wire 1 n Y $end
$upscope $end
$scope module _256_ $end
$var wire 1 < A $end
$var wire 1 o B $end
$var wire 1 m Y $end
$upscope $end
$scope module _257_ $end
$var wire 1 )" A $end
$var wire 1 m B $end
$var wire 1 l Y $end
$upscope $end
$scope module _258_ $end
$var wire 1 n A $end
$var wire 1 l B $end
$var wire 1 k Y $end
$upscope $end
$scope module _259_ $end
$var wire 1 k A $end
$var wire 1 G Y $end
$upscope $end
$scope module _260_ $end
$var wire 1 ^" A $end
$var wire 1 p B $end
$var wire 1 j Y $end
$upscope $end
$scope module _261_ $end
$var wire 1 S A $end
$var wire 1 j B $end
$var wire 1 i Y $end
$upscope $end
$scope module _262_ $end
$var wire 1 &" A $end
$var wire 1 j B $end
$var wire 1 h Y $end
$upscope $end
$scope module _263_ $end
$var wire 1 )" A $end
$var wire 1 i B $end
$var wire 1 g Y $end
$upscope $end
$scope module _264_ $end
$var wire 1 h A $end
$var wire 1 g B $end
$var wire 1 f Y $end
$upscope $end
$scope module _265_ $end
$var wire 1 f A $end
$var wire 1 K Y $end
$upscope $end
$scope module _266_ $end
$var wire 1 `" A $end
$var wire 1 _" B $end
$var wire 1 e Y $end
$upscope $end
$scope module _267_ $end
$var wire 1 e A $end
$var wire 1 d Y $end
$upscope $end
$scope module _268_ $end
$var wire 1 ^" A $end
$var wire 1 e B $end
$var wire 1 c Y $end
$upscope $end
$scope module _269_ $end
$var wire 1 R A $end
$var wire 1 c B $end
$var wire 1 b Y $end
$upscope $end
$scope module _270_ $end
$var wire 1 &" A $end
$var wire 1 c B $end
$var wire 1 a Y $end
$upscope $end
$scope module _271_ $end
$var wire 1 = A $end
$var wire 1 a B $end
$var wire 1 ` Y $end
$upscope $end
$scope module _272_ $end
$var wire 1 b A $end
$var wire 1 ` B $end
$var wire 1 J Y $end
$upscope $end
$scope module _273_ $end
$var wire 1 ^" A $end
$var wire 1 "" B $end
$var wire 1 _ Y $end
$upscope $end
$scope module _274_ $end
$var wire 1 #" A $end
$var wire 1 _ B $end
$var wire 1 ^ Y $end
$upscope $end
$scope module _275_ $end
$var wire 1 < A $end
$var wire 1 _ B $end
$var wire 1 ] Y $end
$upscope $end
$scope module _276_ $end
$var wire 1 = A $end
$var wire 1 ^ B $end
$var wire 1 \ Y $end
$upscope $end
$scope module _277_ $end
$var wire 1 ] A $end
$var wire 1 \ B $end
$var wire 1 I Y $end
$upscope $end
$scope module _278_ $end
$var wire 1 ^" A $end
$var wire 1 x B $end
$var wire 1 [ Y $end
$upscope $end
$scope module _279_ $end
$var wire 1 %" A $end
$var wire 1 [ B $end
$var wire 1 Z Y $end
$upscope $end
$scope module _280_ $end
$var wire 1 < A $end
$var wire 1 [ B $end
$var wire 1 Y Y $end
$upscope $end
$scope module _281_ $end
$var wire 1 )" A $end
$var wire 1 Y B $end
$var wire 1 X Y $end
$upscope $end
$scope module _282_ $end
$var wire 1 Z A $end
$var wire 1 X B $end
$var wire 1 W Y $end
$upscope $end
$scope module _283_ $end
$var wire 1 W A $end
$var wire 1 H Y $end
$upscope $end
$scope module _284_ $end
$var wire 1 ^" A $end
$var wire 1 d B $end
$var wire 1 V Y $end
$upscope $end
$scope module _285_ $end
$var wire 1 $" A $end
$var wire 1 V B $end
$var wire 1 ]" Y $end
$upscope $end
$scope module _286_ $end
$var wire 1 < A $end
$var wire 1 V B $end
$var wire 1 \" Y $end
$upscope $end
$scope module _287_ $end
$var wire 1 )" A $end
$var wire 1 \" B $end
$var wire 1 [" Y $end
$upscope $end
$scope module _288_ $end
$var wire 1 ]" A $end
$var wire 1 [" B $end
$var wire 1 Z" Y $end
$upscope $end
$scope module _289_ $end
$var wire 1 Z" A $end
$var wire 1 F Y $end
$upscope $end
$scope module _290_ $end
$var wire 1 e" A $end
$var wire 1 d" B $end
$var wire 1 Y" Y $end
$upscope $end
$scope module _291_ $end
$var wire 1 c" A $end
$var wire 1 Y" B $end
$var wire 1 X" Y $end
$upscope $end
$scope module _292_ $end
$var wire 1 b" A $end
$var wire 1 X" B $end
$var wire 1 W" Y $end
$upscope $end
$scope module _293_ $end
$var wire 1 > A $end
$var wire 1 W" B $end
$var wire 1 V" Y $end
$upscope $end
$scope module _294_ $end
$var wire 1 )" A $end
$var wire 1 V" B $end
$var wire 1 E Y $end
$upscope $end
$scope module _295_ $end
$var wire 1 ; A $end
$var wire 1 W" B $end
$var wire 1 U" Y $end
$upscope $end
$scope module _296_ $end
$var wire 1 )" A $end
$var wire 1 U" B $end
$var wire 1 a" Y $end
$upscope $end
$scope module _297_ $end
$var wire 1 J A $end
$var wire 1 I B $end
$var wire 1 T" Y $end
$upscope $end
$scope module _298_ $end
$var wire 1 T" A $end
$var wire 1 S" Y $end
$upscope $end
$scope module _299_ $end
$var wire 1 W A $end
$var wire 1 Z" B $end
$var wire 1 R" Y $end
$upscope $end
$scope module _300_ $end
$var wire 1 H A $end
$var wire 1 F B $end
$var wire 1 Q" Y $end
$upscope $end
$scope module _301_ $end
$var wire 1 T" A $end
$var wire 1 Q" B $end
$var wire 1 P" Y $end
$upscope $end
$scope module _302_ $end
$var wire 1 S" A $end
$var wire 1 R" B $end
$var wire 1 O" Y $end
$upscope $end
$scope module _303_ $end
$var wire 1 M A $end
$var wire 1 L B $end
$var wire 1 N" Y $end
$upscope $end
$scope module _304_ $end
$var wire 1 y A $end
$var wire 1 r B $end
$var wire 1 M" Y $end
$upscope $end
$scope module _305_ $end
$var wire 1 G A $end
$var wire 1 f B $end
$var wire 1 L" Y $end
$upscope $end
$scope module _306_ $end
$var wire 1 k A $end
$var wire 1 K B $end
$var wire 1 K" Y $end
$upscope $end
$scope module _307_ $end
$var wire 1 M" A $end
$var wire 1 K" B $end
$var wire 1 J" Y $end
$upscope $end
$scope module _308_ $end
$var wire 1 N" A $end
$var wire 1 L" B $end
$var wire 1 I" Y $end
$upscope $end
$scope module _309_ $end
$var wire 1 O" A $end
$var wire 1 I" B $end
$var wire 1 H" Y $end
$upscope $end
$scope module _310_ $end
$var wire 1 P" A $end
$var wire 1 J" B $end
$var wire 1 G" Y $end
$upscope $end
$scope module _311_ $end
$var wire 1 /" A $end
$var wire 1 G" B $end
$var wire 1 F" Y $end
$upscope $end
$scope module _312_ $end
$var wire 1 e" A $end
$var wire 1 H" B $end
$var wire 1 E" Y $end
$upscope $end
$scope module _313_ $end
$var wire 1 e" A $end
$var wire 1 = B $end
$var wire 1 D" Y $end
$upscope $end
$scope module _314_ $end
$var wire 1 D" A $end
$var wire 1 C" Y $end
$upscope $end
$scope module _315_ $end
$var wire 1 H" A $end
$var wire 1 C" B $end
$var wire 1 B" Y $end
$upscope $end
$scope module _316_ $end
$var wire 1 B" A $end
$var wire 1 A" Y $end
$upscope $end
$scope module _317_ $end
$var wire 1 E" A $end
$var wire 1 A" B $end
$var wire 1 @" Y $end
$upscope $end
$scope module _318_ $end
$var wire 1 @" A $end
$var wire 1 l" Y $end
$upscope $end
$scope module _319_ $end
$var wire 1 ." A $end
$var wire 1 E" B $end
$var wire 1 ?" Y $end
$upscope $end
$scope module _320_ $end
$var wire 1 d" A $end
$var wire 1 F" B $end
$var wire 1 >" Y $end
$upscope $end
$scope module _321_ $end
$var wire 1 ." A $end
$var wire 1 )" B $end
$var wire 1 =" Y $end
$upscope $end
$scope module _322_ $end
$var wire 1 F" A $end
$var wire 1 =" B $end
$var wire 1 <" Y $end
$upscope $end
$scope module _323_ $end
$var wire 1 ?" A $end
$var wire 1 <" B $end
$var wire 1 k" Y $end
$upscope $end
$scope module _324_ $end
$var wire 1 (" A $end
$var wire 1 >" B $end
$var wire 1 ;" Y $end
$upscope $end
$scope module _325_ $end
$var wire 1 c" A $end
$var wire 1 ?" B $end
$var wire 1 :" Y $end
$upscope $end
$scope module _326_ $end
$var wire 1 = A $end
$var wire 1 c" B $end
$var wire 1 9" Y $end
$upscope $end
$scope module _327_ $end
$var wire 1 9" A $end
$var wire 1 8" Y $end
$upscope $end
$scope module _328_ $end
$var wire 1 ?" A $end
$var wire 1 8" B $end
$var wire 1 7" Y $end
$upscope $end
$scope module _329_ $end
$var wire 1 ;" A $end
$var wire 1 7" B $end
$var wire 1 j" Y $end
$upscope $end
$scope module _330_ $end
$var wire 1 -" A $end
$var wire 1 ;" B $end
$var wire 1 6" Y $end
$upscope $end
$scope module _331_ $end
$var wire 1 b" A $end
$var wire 1 = B $end
$var wire 1 5" Y $end
$upscope $end
$scope module _332_ $end
$var wire 1 5" A $end
$var wire 1 4" Y $end
$upscope $end
$scope module _333_ $end
$var wire 1 :" A $end
$var wire 1 4" B $end
$var wire 1 3" Y $end
$upscope $end
$scope module _334_ $end
$var wire 1 6" A $end
$var wire 1 3" B $end
$var wire 1 i" Y $end
$upscope $end
$scope module _335_ $end
$var wire 1 `" A $end
$var wire 1 = B $end
$var wire 1 h" Y $end
$upscope $end
$scope module _336_ $end
$var wire 1 )" A $end
$var wire 1 "" B $end
$var wire 1 2" Y $end
$upscope $end
$scope module _337_ $end
$var wire 1 e A $end
$var wire 1 2" B $end
$var wire 1 g" Y $end
$upscope $end
$scope module _338_ $end
$var wire 1 ," A $end
$var wire 1 "" B $end
$var wire 1 1" Y $end
$upscope $end
$scope module _339_ $end
$var wire 1 )" A $end
$var wire 1 1" B $end
$var wire 1 0" Y $end
$upscope $end
$scope module _340_ $end
$var wire 1 } A $end
$var wire 1 0" B $end
$var wire 1 f" Y $end
$upscope $end
$scope module _341_ $end
$var wire 1 ) C $end
$var wire 1 p" D $end
$var reg 1 q" Q $end
$upscope $end
$scope module _342_ $end
$var wire 1 ) C $end
$var wire 1 r" D $end
$var reg 1 s" Q $end
$upscope $end
$scope module _343_ $end
$var wire 1 ) C $end
$var wire 1 t" D $end
$var reg 1 u" Q $end
$upscope $end
$scope module _344_ $end
$var wire 1 ) C $end
$var wire 1 v" D $end
$var reg 1 w" Q $end
$upscope $end
$scope module _345_ $end
$var wire 1 ) C $end
$var wire 1 x" D $end
$var reg 1 y" Q $end
$upscope $end
$scope module _346_ $end
$var wire 1 ) C $end
$var wire 1 z" D $end
$var reg 1 {" Q $end
$upscope $end
$scope module _347_ $end
$var wire 1 ) C $end
$var wire 1 |" D $end
$var reg 1 }" Q $end
$upscope $end
$scope module _348_ $end
$var wire 1 ) C $end
$var wire 1 ~" D $end
$var reg 1 !# Q $end
$upscope $end
$scope module _349_ $end
$var wire 1 ) C $end
$var wire 1 "# D $end
$var reg 1 ## Q $end
$upscope $end
$scope module _350_ $end
$var wire 1 ) C $end
$var wire 1 $# D $end
$var reg 1 %# Q $end
$upscope $end
$scope module _351_ $end
$var wire 1 ) C $end
$var wire 1 &# D $end
$var reg 1 '# Q $end
$upscope $end
$scope module _352_ $end
$var wire 1 ) C $end
$var wire 1 (# D $end
$var reg 1 )# Q $end
$upscope $end
$scope module _353_ $end
$var wire 1 ) C $end
$var wire 1 + D $end
$var reg 1 ? Q $end
$upscope $end
$scope module _354_ $end
$var wire 1 * C $end
$var wire 1 *# D $end
$var reg 1 +# Q $end
$upscope $end
$scope module _355_ $end
$var wire 1 * C $end
$var wire 1 ,# D $end
$var reg 1 -# Q $end
$upscope $end
$scope module _356_ $end
$var wire 1 * C $end
$var wire 1 .# D $end
$var reg 1 /# Q $end
$upscope $end
$scope module _357_ $end
$var wire 1 * C $end
$var wire 1 0# D $end
$var reg 1 1# Q $end
$upscope $end
$scope module _358_ $end
$var wire 1 * C $end
$var wire 1 2# D $end
$var reg 1 3# Q $end
$upscope $end
$scope module _359_ $end
$var wire 1 * C $end
$var wire 1 4# D $end
$var reg 1 5# Q $end
$upscope $end
$scope module _360_ $end
$var wire 1 * C $end
$var wire 1 6# D $end
$var reg 1 7# Q $end
$upscope $end
$scope module _361_ $end
$var wire 1 * C $end
$var wire 1 8# D $end
$var reg 1 9# Q $end
$upscope $end
$scope module _362_ $end
$var wire 1 * C $end
$var wire 1 :# D $end
$var reg 1 ;# Q $end
$upscope $end
$scope module _363_ $end
$var wire 1 * C $end
$var wire 1 <# D $end
$var reg 1 =# Q $end
$upscope $end
$scope module _364_ $end
$var wire 1 * C $end
$var wire 1 ># D $end
$var reg 1 ?# Q $end
$upscope $end
$scope module _365_ $end
$var wire 1 * C $end
$var wire 1 + D $end
$var reg 1 D Q $end
$upscope $end
$upscope $end
$upscope $end
$scope module DFFSR $end
$var wire 1 @# C $end
$var wire 1 A# D $end
$var wire 1 B# R $end
$var wire 1 C# S $end
$var reg 1 D# Q $end
$upscope $end
$enddefinitions $end
#0
$dumpvars
xD#
zC#
zB#
zA#
z@#
x?#
0>#
x=#
0<#
x;#
0:#
x9#
08#
x7#
06#
x5#
04#
x3#
02#
x1#
00#
x/#
1.#
x-#
1,#
x+#
1*#
x)#
0(#
x'#
0&#
x%#
0$#
x##
0"#
x!#
0~"
x}"
0|"
x{"
0z"
xy"
0x"
xw"
0v"
xu"
0t"
xs"
0r"
xq"
0p"
bx o"
b0 n"
b111 m"
0l"
0k"
0j"
0i"
1h"
1g"
1f"
xe"
xd"
xc"
xb"
0a"
x`"
x_"
x^"
x]"
x\"
0["
1Z"
xY"
xX"
xW"
xV"
xU"
1T"
0S"
0R"
1Q"
0P"
1O"
1N"
0M"
0L"
1K"
0J"
1I"
0H"
1G"
0F"
1E"
1D"
0C"
1B"
0A"
1@"
0?"
1>"
0="
1<"
0;"
1:"
19"
08"
17"
16"
15"
04"
13"
02"
x1"
00"
x/"
x."
x-"
x,"
x+"
x*"
1)"
x("
x'"
1&"
x%"
x$"
x#"
x""
x!"
x~
x}
1|
x{
xz
1y
xx
xw
xv
xu
xt
0s
1r
xq
xp
xo
xn
xm
0l
1k
xj
xi
xh
0g
1f
xe
xd
xc
xb
xa
1`
x_
x^
x]
1\
x[
xZ
xY
0X
1W
xV
xU
xT
xS
xR
xQ
xP
xO
xN
0M
0L
0K
0J
0I
0H
0G
0F
0E
xD
bx C
bx B
b0 A
bx @
x?
x>
0=
0<
x;
x:
b0 9
b0 8
bx 7
b111 6
b0 5
04
bx 3
bx 2
bx 1
bx 0
bx /
bx .
bx -
0,
0+
1*
0)
bx (
bx '
0&
0%
0$
0#
z"
z!
$end
#10
0*
#20
1]"
1\"
0Z
0Y
0^
0]
0n
0m
0V
0z
1u
1t
1i
1h
1b
1a
1[
1_
1o
1}
11"
1w
1!"
1d
1{
0~
0v
0j
0c
0x
1p
0""
0q
0e
1$"
1'"
1%"
1#"
0,"
0*"
0+"
0N
0O
0P
0Q
0R
0S
0T
0U
1^"
1_"
1`"
0;
0D
0?#
0=#
0;#
09#
07#
05#
03#
b0 @
01#
1/#
1-#
b111 C
1+#
1*
#30
0*
#40
1*
#50
0*
#60
1*
#70
0*
#80
1>#
1~"
1U"
b10000000 A
1F
0Z"
0W"
1l
1X
1["
0+
0a"
12"
0*#
1Y"
1X"
0`
b110 m"
0h"
0\"
1/"
1."
1("
1-"
1V"
0)"
0&"
b10000000 8
b111 5
0e"
0d"
0c"
0b"
1=
1%
1<
1&
b0 .
b0 2
b0 3
b0 (
b0 0
b0 7
0:
0q"
0s"
0u"
0w"
0y"
0{"
0}"
b0 '
b0 /
b0 B
0!#
0##
0%#
0'#
b0 -
b0 1
b0 o"
0)#
0>
0?
1*
1)
#90
0*
#100
0<#
0|"
0G
1k
0l
1>#
1~"
1n
1m
b10000000 A
1F
1V
0,#
0Z"
0o
0g"
0p
0d
1*#
1["
1q
1e
b101 m"
1h"
0$"
1+"
0\"
1N
0`"
1&"
b110 5
b10000000 @
1?#
b110 C
0+#
0<
0&
b10000000 9
b110 6
1*
#110
0*
#120
0Q"
1:#
1z"
1R"
1H
0W
0<#
0|"
1Z
b10100000 A
0G
0n
1k
0[
1o
1l
1x
0*#
0w
0q
b100 m"
0h"
1p
0m
0+"
1*"
b10100000 8
b101 5
0&"
1`"
0_"
b101 6
1<
1&
1+#
b101 C
0-#
1*
#130
0*
#140
18#
1x"
b10110000 A
1I
0.#
0\
0f"
1,#
1^
1g"
10"
1[
0_
02"
01"
0x
0!"
1*#
1""
1w
b11 m"
1h"
0%"
1+"
1P
0`"
b10110000 8
b100 5
b10100000 @
1;#
b100 C
0+#
b10100000 9
b100 6
1*
#150
0*
#160
1G"
0J"
1K"
0O"
04#
0t"
0L"
1P"
0K
1S"
1N"
1f
0T"
00#
0p"
0M"
16#
1v"
0M
0g
b10111000 A
1J
1y
1i
0b
0.#
0z
0f"
12"
0j
1c
1|
0*#
1!"
1d
1}
b10 m"
0h"
0""
1p
0e
0~
1_
0+"
0*"
1,"
0#"
b10111000 8
b11 5
1`"
1_"
0^"
1Q
b10110000 9
b11 6
1+#
1-#
b11 C
0/#
b10110000 @
19#
1*
0)
#170
0*
#180
1"#
b1 n"
1l"
0@"
1A"
0B"
0G"
1H"
1J"
0I"
0K"
14#
1t"
1L"
b10111100 A
1K
0f
1g
0i
1j
0,#
0c
0g"
0p
0d
1*#
1q
1e
b1 m"
1h"
1+"
1R
0`"
b10111100 8
b10 5
b10111000 @
17#
b10 C
0+#
b10111000 9
b10 6
1*
#190
0*
#200
1"#
b1 n"
1l"
0@"
1A"
0B"
0G"
1H"
1J"
0I"
1s
0K"
14#
1t"
1L"
0u
0t
b10111100 A
1K
0f
1v
0j
1x
0*#
1h
0w
0q
b0 m"
0h"
1p
0+"
1*"
b1 5
1&"
1`"
0_"
1S
b10111100 9
b1 6
0<
0&
1+#
b1 C
0-#
b10111100 @
15#
1*
#210
0*
#220
1"#
b1 n"
1l"
0@"
1A"
0B"
1H"
0G"
0I"
1J"
1N"
02#
0r"
0M"
b10111100 A
0L
0s
1r
1.#
1,#
1f"
1g"
1u
1t
1~
0}
02"
0v
0x
0!"
1*#
1""
1w
b111 m"
1h"
1+"
0`"
b0 5
b0 C
0+#
b0 6
1*
#230
0*
#240
1H"
0G"
0I"
1J"
1N"
1$#
00#
0p"
0M"
1k"
b10111100 A
0M
00"
1.#
0"#
1y
0V
1f"
0<"
b10 n"
0l"
12"
11"
1@"
0z
0*#
1!"
1d
1}
1F"
1C"
b110 m"
0h"
0""
1p
0e
0~
1_
0Y"
0E"
0D"
1|
0+"
0*"
0,"
0/"
0&"
1`"
1_"
1^"
1e"
b111 5
b111 6
1<
1&
1+#
1-#
b111 C
1/#
b1 -
b1 1
b1 o"
1##
1!#
1{"
1y"
1w"
b10111100 '
b10111100 /
b10111100 B
1u"
b1 .
b1 2
b1 3
b10111100 (
b10111100 0
b10111100 7
1*
1)
#250
0*
#260
1$#
1k"
0"#
0<"
b10 n"
0l"
1@"
1F"
0I"
0E"
1J"
0G"
1L"
1H"
0<#
0|"
0K"
1P"
0G
0O"
1k
0l
0Q"
1>#
1~"
1R"
1n
1m
b10111100 A
1F
1V
0,#
0Z"
0o
0g"
0p
0d
1*#
1["
1q
1e
b101 m"
1h"
1+"
0\"
0`"
1&"
b110 5
b110 C
0+#
0<
0&
b110 6
1*
#270
0*
#280
0"#
1$#
0l"
b10 n"
1k"
1@"
0<"
0E"
1F"
1H"
0G"
0I"
1J"
1L"
0<#
0|"
0K"
b10111100 A
0G
0n
1k
0[
1o
1l
1x
0*#
0w
0q
b100 m"
0h"
1p
0m
0+"
1*"
b101 5
0&"
1`"
0_"
b101 6
1<
1&
1+#
b101 C
0-#
1*
#290
0*
#300
0.#
0f"
1,#
1g"
10"
1[
0_
02"
01"
0x
0!"
1*#
1""
1w
b11 m"
1h"
1+"
0`"
b100 5
b100 C
0+#
b100 6
1*
#310
0*
