Documents/digitales_2/proyecto/byte_striping/byte_striping.vcd
$date
	Wed May 15 20:48:22 2019
$end
$version
	Icarus Verilog
$end
$timescale
	100ps
$end
$scope module BUF $end
$var wire 1 ! A $end
$var wire 1 " Y $end
$upscope $end
$scope module DFFSR $end
$var wire 1 # C $end
$var wire 1 $ D $end
$var wire 1 % R $end
$var wire 1 & S $end
$var reg 1 ' Q $end
$upscope $end
$scope module bancoprueba $end
$var wire 1 ( valid_in $end
$var wire 1 ) valid_1_synth $end
$var wire 1 * valid_1 $end
$var wire 1 + valid_0_synth $end
$var wire 1 , valid_0 $end
$var wire 1 - reset $end
$var wire 8 . lane_1_synth [7:0] $end
$var wire 8 / lane_1 [7:0] $end
$var wire 8 0 lane_0_synth [7:0] $end
$var wire 8 1 lane_0 [7:0] $end
$var wire 8 2 data_in [7:0] $end
$var wire 1 3 clk_2f $end
$scope module cond $end
$var wire 1 ( valid_in $end
$var wire 1 - reset $end
$var wire 8 4 data_in [7:0] $end
$var wire 1 3 clk_2f $end
$var reg 1 5 contador0 $end
$var reg 1 6 contador1 $end
$var reg 8 7 lane_0 [7:0] $end
$var reg 8 8 lane_1 [7:0] $end
$var reg 1 , valid_0 $end
$var reg 1 * valid_1 $end
$upscope $end
$scope module est $end
$var wire 1 9 _006_ $end
$var wire 1 : _007_ $end
$var wire 1 ; _024_ $end
$var wire 1 < _025_ $end
$var wire 1 ( valid_in $end
$var wire 1 ) valid_1_synth $end
$var wire 1 + valid_0_synth $end
$var wire 1 - reset $end
$var wire 8 = lane_1_synth [7:0] $end
$var wire 8 > lane_0_synth [7:0] $end
$var wire 8 ? data_in [7:0] $end
$var wire 1 @ contador1 $end
$var wire 1 A contador0 $end
$var wire 1 3 clk_2f $end
$var wire 32 B _106_ [31:0] $end
$var wire 32 C _105_ [31:0] $end
$var wire 1 D _104_ $end
$var wire 1 E _103_ $end
$var wire 1 F _102_ $end
$var wire 1 G _101_ $end
$var wire 1 H _100_ $end
$var wire 1 I _099_ $end
$var wire 1 J _098_ $end
$var wire 1 K _097_ $end
$var wire 1 L _096_ $end
$var wire 1 M _095_ $end
$var wire 1 N _094_ $end
$var wire 1 O _093_ $end
$var wire 1 P _092_ $end
$var wire 1 Q _091_ $end
$var wire 1 R _090_ $end
$var wire 1 S _089_ $end
$var wire 1 T _088_ $end
$var wire 1 U _087_ $end
$var wire 1 V _086_ $end
$var wire 1 W _085_ $end
$var wire 1 X _084_ $end
$var wire 1 Y _083_ $end
$var wire 1 Z _082_ $end
$var wire 1 [ _081_ $end
$var wire 1 \ _080_ $end
$var wire 1 ] _079_ $end
$var wire 1 ^ _078_ $end
$var wire 1 _ _077_ $end
$var wire 1 ` _076_ $end
$var wire 1 a _075_ $end
$var wire 1 b _074_ $end
$var wire 1 c _073_ $end
$var wire 1 d _072_ $end
$var wire 1 e _071_ $end
$var wire 1 f _070_ $end
$var wire 1 g _069_ $end
$var wire 1 h _068_ $end
$var wire 1 i _067_ $end
$var wire 1 j _066_ $end
$var wire 1 k _065_ $end
$var wire 1 l _064_ $end
$var wire 1 m _063_ $end
$var wire 1 n _062_ $end
$var wire 1 o _061_ $end
$var wire 1 p _060_ $end
$var wire 1 q _059_ $end
$var wire 1 r _058_ $end
$var wire 1 s _057_ $end
$var wire 1 t _056_ $end
$var wire 1 u _055_ $end
$var wire 1 v _054_ $end
$var wire 1 w _053_ $end
$var wire 1 x _052_ $end
$var wire 1 y _051_ $end
$var wire 1 z _050_ $end
$var wire 1 { _049_ $end
$var wire 1 | _048_ $end
$var wire 1 } _047_ $end
$var wire 1 ~ _046_ $end
$var wire 1 !" _045_ $end
$var wire 1 "" _044_ $end
$var wire 1 #" _043_ $end
$var wire 1 $" _042_ $end
$var wire 1 %" _041_ $end
$var wire 1 &" _040_ $end
$var wire 1 '" _039_ $end
$var wire 1 (" _038_ $end
$var wire 1 )" _037_ $end
$var wire 1 *" _036_ $end
$var wire 1 +" _035_ $end
$var wire 1 ," _034_ $end
$var wire 1 -" _033_ $end
$var wire 1 ." _032_ $end
$var wire 1 /" _031_ $end
$var wire 1 0" _030_ $end
$var wire 1 1" _029_ $end
$var wire 1 2" _028_ $end
$var wire 1 3" _027_ $end
$var wire 1 4" _026_ $end
$var wire 1 5" _023_ $end
$var wire 1 6" _022_ $end
$var wire 1 7" _021_ $end
$var wire 1 8" _020_ $end
$var wire 1 9" _019_ $end
$var wire 1 :" _018_ $end
$var wire 1 ;" _017_ $end
$var wire 1 <" _016_ $end
$var wire 1 =" _015_ $end
$var wire 1 >" _014_ $end
$var wire 1 ?" _013_ $end
$var wire 1 @" _012_ $end
$var wire 1 A" _011_ $end
$var wire 1 B" _010_ $end
$var wire 1 C" _009_ $end
$var wire 1 D" _008_ $end
$var wire 1 E" _005_ $end
$var wire 1 F" _004_ $end
$var wire 8 G" _003_ [7:0] $end
$var wire 8 H" _002_ [7:0] $end
$var wire 1 I" _001_ $end
$var wire 1 J" _000_ $end
$scope module _107_ $end
$var wire 1 p Y $end
$var wire 1 ( A $end
$upscope $end
$scope module _108_ $end
$var wire 1 o Y $end
$var wire 1 A A $end
$upscope $end
$scope module _109_ $end
$var wire 1 n Y $end
$var wire 1 - A $end
$upscope $end
$scope module _110_ $end
$var wire 1 K" A $end
$var wire 1 m Y $end
$upscope $end
$scope module _111_ $end
$var wire 1 L" A $end
$var wire 1 l Y $end
$upscope $end
$scope module _112_ $end
$var wire 1 M" A $end
$var wire 1 k Y $end
$upscope $end
$scope module _113_ $end
$var wire 1 N" A $end
$var wire 1 j Y $end
$upscope $end
$scope module _114_ $end
$var wire 1 O" A $end
$var wire 1 i Y $end
$upscope $end
$scope module _115_ $end
$var wire 1 P" A $end
$var wire 1 h Y $end
$upscope $end
$scope module _116_ $end
$var wire 1 Q" A $end
$var wire 1 g Y $end
$upscope $end
$scope module _117_ $end
$var wire 1 R" A $end
$var wire 1 f Y $end
$upscope $end
$scope module _118_ $end
$var wire 1 S" A $end
$var wire 1 e Y $end
$upscope $end
$scope module _119_ $end
$var wire 1 T" A $end
$var wire 1 d Y $end
$upscope $end
$scope module _120_ $end
$var wire 1 U" A $end
$var wire 1 c Y $end
$upscope $end
$scope module _121_ $end
$var wire 1 V" A $end
$var wire 1 b Y $end
$upscope $end
$scope module _122_ $end
$var wire 1 W" A $end
$var wire 1 a Y $end
$upscope $end
$scope module _123_ $end
$var wire 1 X" A $end
$var wire 1 ` Y $end
$upscope $end
$scope module _124_ $end
$var wire 1 Y" A $end
$var wire 1 _ Y $end
$upscope $end
$scope module _125_ $end
$var wire 1 Z" A $end
$var wire 1 ^ Y $end
$upscope $end
$scope module _126_ $end
$var wire 1 ] Y $end
$var wire 1 @ A $end
$upscope $end
$scope module _127_ $end
$var wire 1 p A $end
$var wire 1 o B $end
$var wire 1 \ Y $end
$upscope $end
$scope module _128_ $end
$var wire 1 [ Y $end
$var wire 1 A B $end
$var wire 1 ( A $end
$upscope $end
$scope module _129_ $end
$var wire 1 [ A $end
$var wire 1 Z Y $end
$upscope $end
$scope module _130_ $end
$var wire 1 Z B $end
$var wire 1 Y Y $end
$var wire 1 - A $end
$upscope $end
$scope module _131_ $end
$var wire 1 \ A $end
$var wire 1 Y B $end
$var wire 1 J" Y $end
$upscope $end
$scope module _132_ $end
$var wire 1 p A $end
$var wire 1 X Y $end
$var wire 1 @ B $end
$upscope $end
$scope module _133_ $end
$var wire 1 ] B $end
$var wire 1 W Y $end
$var wire 1 ( A $end
$upscope $end
$scope module _134_ $end
$var wire 1 \ A $end
$var wire 1 X B $end
$var wire 1 V Y $end
$upscope $end
$scope module _135_ $end
$var wire 1 [" A $end
$var wire 1 V B $end
$var wire 1 U Y $end
$upscope $end
$scope module _136_ $end
$var wire 1 m A $end
$var wire 1 V B $end
$var wire 1 T Y $end
$upscope $end
$scope module _137_ $end
$var wire 1 T B $end
$var wire 1 S Y $end
$var wire 1 - A $end
$upscope $end
$scope module _138_ $end
$var wire 1 U A $end
$var wire 1 S B $end
$var wire 1 \" Y $end
$upscope $end
$scope module _139_ $end
$var wire 1 ]" A $end
$var wire 1 V B $end
$var wire 1 R Y $end
$upscope $end
$scope module _140_ $end
$var wire 1 l A $end
$var wire 1 V B $end
$var wire 1 Q Y $end
$upscope $end
$scope module _141_ $end
$var wire 1 Q B $end
$var wire 1 P Y $end
$var wire 1 - A $end
$upscope $end
$scope module _142_ $end
$var wire 1 R A $end
$var wire 1 P B $end
$var wire 1 ^" Y $end
$upscope $end
$scope module _143_ $end
$var wire 1 _" A $end
$var wire 1 V B $end
$var wire 1 O Y $end
$upscope $end
$scope module _144_ $end
$var wire 1 k A $end
$var wire 1 V B $end
$var wire 1 N Y $end
$upscope $end
$scope module _145_ $end
$var wire 1 N B $end
$var wire 1 M Y $end
$var wire 1 - A $end
$upscope $end
$scope module _146_ $end
$var wire 1 O A $end
$var wire 1 M B $end
$var wire 1 `" Y $end
$upscope $end
$scope module _147_ $end
$var wire 1 a" A $end
$var wire 1 V B $end
$var wire 1 L Y $end
$upscope $end
$scope module _148_ $end
$var wire 1 j A $end
$var wire 1 V B $end
$var wire 1 K Y $end
$upscope $end
$scope module _149_ $end
$var wire 1 K B $end
$var wire 1 J Y $end
$var wire 1 - A $end
$upscope $end
$scope module _150_ $end
$var wire 1 L A $end
$var wire 1 J B $end
$var wire 1 b" Y $end
$upscope $end
$scope module _151_ $end
$var wire 1 c" A $end
$var wire 1 V B $end
$var wire 1 I Y $end
$upscope $end
$scope module _152_ $end
$var wire 1 i A $end
$var wire 1 V B $end
$var wire 1 H Y $end
$upscope $end
$scope module _153_ $end
$var wire 1 H B $end
$var wire 1 G Y $end
$var wire 1 - A $end
$upscope $end
$scope module _154_ $end
$var wire 1 I A $end
$var wire 1 G B $end
$var wire 1 d" Y $end
$upscope $end
$scope module _155_ $end
$var wire 1 e" A $end
$var wire 1 V B $end
$var wire 1 F Y $end
$upscope $end
$scope module _156_ $end
$var wire 1 h A $end
$var wire 1 V B $end
$var wire 1 E Y $end
$upscope $end
$scope module _157_ $end
$var wire 1 E B $end
$var wire 1 D Y $end
$var wire 1 - A $end
$upscope $end
$scope module _158_ $end
$var wire 1 F A $end
$var wire 1 D B $end
$var wire 1 f" Y $end
$upscope $end
$scope module _159_ $end
$var wire 1 g" A $end
$var wire 1 V B $end
$var wire 1 4" Y $end
$upscope $end
$scope module _160_ $end
$var wire 1 g A $end
$var wire 1 V B $end
$var wire 1 3" Y $end
$upscope $end
$scope module _161_ $end
$var wire 1 3" B $end
$var wire 1 2" Y $end
$var wire 1 - A $end
$upscope $end
$scope module _162_ $end
$var wire 1 4" A $end
$var wire 1 2" B $end
$var wire 1 h" Y $end
$upscope $end
$scope module _163_ $end
$var wire 1 i" A $end
$var wire 1 V B $end
$var wire 1 1" Y $end
$upscope $end
$scope module _164_ $end
$var wire 1 f A $end
$var wire 1 V B $end
$var wire 1 0" Y $end
$upscope $end
$scope module _165_ $end
$var wire 1 0" B $end
$var wire 1 /" Y $end
$var wire 1 - A $end
$upscope $end
$scope module _166_ $end
$var wire 1 1" A $end
$var wire 1 /" B $end
$var wire 1 j" Y $end
$upscope $end
$scope module _167_ $end
$var wire 1 o A $end
$var wire 1 ." Y $end
$var wire 1 @ B $end
$upscope $end
$scope module _168_ $end
$var wire 1 p A $end
$var wire 1 ." B $end
$var wire 1 -" Y $end
$upscope $end
$scope module _169_ $end
$var wire 1 k" A $end
$var wire 1 -" B $end
$var wire 1 ," Y $end
$upscope $end
$scope module _170_ $end
$var wire 1 e A $end
$var wire 1 -" B $end
$var wire 1 +" Y $end
$upscope $end
$scope module _171_ $end
$var wire 1 +" B $end
$var wire 1 *" Y $end
$var wire 1 - A $end
$upscope $end
$scope module _172_ $end
$var wire 1 ," A $end
$var wire 1 *" B $end
$var wire 1 l" Y $end
$upscope $end
$scope module _173_ $end
$var wire 1 m" A $end
$var wire 1 -" B $end
$var wire 1 )" Y $end
$upscope $end
$scope module _174_ $end
$var wire 1 d A $end
$var wire 1 -" B $end
$var wire 1 (" Y $end
$upscope $end
$scope module _175_ $end
$var wire 1 (" B $end
$var wire 1 '" Y $end
$var wire 1 - A $end
$upscope $end
$scope module _176_ $end
$var wire 1 )" A $end
$var wire 1 '" B $end
$var wire 1 n" Y $end
$upscope $end
$scope module _177_ $end
$var wire 1 o" A $end
$var wire 1 -" B $end
$var wire 1 &" Y $end
$upscope $end
$scope module _178_ $end
$var wire 1 c A $end
$var wire 1 -" B $end
$var wire 1 %" Y $end
$upscope $end
$scope module _179_ $end
$var wire 1 %" B $end
$var wire 1 $" Y $end
$var wire 1 - A $end
$upscope $end
$scope module _180_ $end
$var wire 1 &" A $end
$var wire 1 $" B $end
$var wire 1 p" Y $end
$upscope $end
$scope module _181_ $end
$var wire 1 q" A $end
$var wire 1 -" B $end
$var wire 1 #" Y $end
$upscope $end
$scope module _182_ $end
$var wire 1 b A $end
$var wire 1 -" B $end
$var wire 1 "" Y $end
$upscope $end
$scope module _183_ $end
$var wire 1 "" B $end
$var wire 1 !" Y $end
$var wire 1 - A $end
$upscope $end
$scope module _184_ $end
$var wire 1 #" A $end
$var wire 1 !" B $end
$var wire 1 r" Y $end
$upscope $end
$scope module _185_ $end
$var wire 1 s" A $end
$var wire 1 -" B $end
$var wire 1 ~ Y $end
$upscope $end
$scope module _186_ $end
$var wire 1 a A $end
$var wire 1 -" B $end
$var wire 1 } Y $end
$upscope $end
$scope module _187_ $end
$var wire 1 } B $end
$var wire 1 | Y $end
$var wire 1 - A $end
$upscope $end
$scope module _188_ $end
$var wire 1 ~ A $end
$var wire 1 | B $end
$var wire 1 t" Y $end
$upscope $end
$scope module _189_ $end
$var wire 1 u" A $end
$var wire 1 -" B $end
$var wire 1 { Y $end
$upscope $end
$scope module _190_ $end
$var wire 1 ` A $end
$var wire 1 -" B $end
$var wire 1 z Y $end
$upscope $end
$scope module _191_ $end
$var wire 1 z B $end
$var wire 1 y Y $end
$var wire 1 - A $end
$upscope $end
$scope module _192_ $end
$var wire 1 { A $end
$var wire 1 y B $end
$var wire 1 v" Y $end
$upscope $end
$scope module _193_ $end
$var wire 1 w" A $end
$var wire 1 -" B $end
$var wire 1 x Y $end
$upscope $end
$scope module _194_ $end
$var wire 1 _ A $end
$var wire 1 -" B $end
$var wire 1 w Y $end
$upscope $end
$scope module _195_ $end
$var wire 1 w B $end
$var wire 1 v Y $end
$var wire 1 - A $end
$upscope $end
$scope module _196_ $end
$var wire 1 x A $end
$var wire 1 v B $end
$var wire 1 x" Y $end
$upscope $end
$scope module _197_ $end
$var wire 1 y" A $end
$var wire 1 -" B $end
$var wire 1 u Y $end
$upscope $end
$scope module _198_ $end
$var wire 1 ^ A $end
$var wire 1 -" B $end
$var wire 1 t Y $end
$upscope $end
$scope module _199_ $end
$var wire 1 t B $end
$var wire 1 s Y $end
$var wire 1 - A $end
$upscope $end
$scope module _200_ $end
$var wire 1 u A $end
$var wire 1 s B $end
$var wire 1 z" Y $end
$upscope $end
$scope module _201_ $end
$var wire 1 W B $end
$var wire 1 r Y $end
$var wire 1 - A $end
$upscope $end
$scope module _202_ $end
$var wire 1 p A $end
$var wire 1 r B $end
$var wire 1 F" Y $end
$upscope $end
$scope module _203_ $end
$var wire 1 r B $end
$var wire 1 q Y $end
$var wire 1 @ A $end
$upscope $end
$scope module _204_ $end
$var wire 1 F" A $end
$var wire 1 q B $end
$var wire 1 I" Y $end
$upscope $end
$scope module _205_ $end
$var wire 1 n A $end
$var wire 1 W B $end
$var wire 1 E" Y $end
$upscope $end
$scope module _206_ $end
$var wire 1 F" D $end
$var wire 1 3 C $end
$var reg 1 + Q $end
$upscope $end
$scope module _207_ $end
$var wire 1 E" D $end
$var wire 1 3 C $end
$var reg 1 ) Q $end
$upscope $end
$scope module _208_ $end
$var wire 1 I" D $end
$var wire 1 3 C $end
$var reg 1 @ Q $end
$upscope $end
$scope module _209_ $end
$var wire 1 {" D $end
$var wire 1 3 C $end
$var reg 1 |" Q $end
$upscope $end
$scope module _210_ $end
$var wire 1 }" D $end
$var wire 1 3 C $end
$var reg 1 ~" Q $end
$upscope $end
$scope module _211_ $end
$var wire 1 !# D $end
$var wire 1 3 C $end
$var reg 1 "# Q $end
$upscope $end
$scope module _212_ $end
$var wire 1 ## D $end
$var wire 1 3 C $end
$var reg 1 $# Q $end
$upscope $end
$scope module _213_ $end
$var wire 1 %# D $end
$var wire 1 3 C $end
$var reg 1 &# Q $end
$upscope $end
$scope module _214_ $end
$var wire 1 '# D $end
$var wire 1 3 C $end
$var reg 1 (# Q $end
$upscope $end
$scope module _215_ $end
$var wire 1 )# D $end
$var wire 1 3 C $end
$var reg 1 *# Q $end
$upscope $end
$scope module _216_ $end
$var wire 1 +# D $end
$var wire 1 3 C $end
$var reg 1 ,# Q $end
$upscope $end
$scope module _217_ $end
$var wire 1 -# D $end
$var wire 1 3 C $end
$var reg 1 .# Q $end
$upscope $end
$scope module _218_ $end
$var wire 1 /# D $end
$var wire 1 3 C $end
$var reg 1 0# Q $end
$upscope $end
$scope module _219_ $end
$var wire 1 1# D $end
$var wire 1 3 C $end
$var reg 1 2# Q $end
$upscope $end
$scope module _220_ $end
$var wire 1 3# D $end
$var wire 1 3 C $end
$var reg 1 4# Q $end
$upscope $end
$scope module _221_ $end
$var wire 1 5# D $end
$var wire 1 3 C $end
$var reg 1 6# Q $end
$upscope $end
$scope module _222_ $end
$var wire 1 7# D $end
$var wire 1 3 C $end
$var reg 1 8# Q $end
$upscope $end
$scope module _223_ $end
$var wire 1 9# D $end
$var wire 1 3 C $end
$var reg 1 :# Q $end
$upscope $end
$scope module _224_ $end
$var wire 1 ;# D $end
$var wire 1 3 C $end
$var reg 1 <# Q $end
$upscope $end
$scope module _225_ $end
$var wire 1 J" D $end
$var wire 1 3 C $end
$var reg 1 A Q $end
$upscope $end
$upscope $end
$scope module prob $end
$var wire 8 =# lane_0 [7:0] $end
$var wire 8 ># lane_0_synth [7:0] $end
$var wire 8 ?# lane_1 [7:0] $end
$var wire 8 @# lane_1_synth [7:0] $end
$var wire 1 , valid_0 $end
$var wire 1 + valid_0_synth $end
$var wire 1 * valid_1 $end
$var wire 1 ) valid_1_synth $end
$var reg 1 3 clk_2f $end
$var reg 8 A# data_in [7:0] $end
$var reg 1 - reset $end
$var reg 1 ( valid_in $end
$upscope $end
$upscope $end
$enddefinitions $end
#0
$dumpvars
bx A#
bx @#
bx ?#
bx >#
bx =#
x<#
x;#
x:#
x9#
x8#
x7#
x6#
x5#
x4#
x3#
x2#
x1#
x0#
x/#
x.#
x-#
x,#
x+#
x*#
x)#
x(#
x'#
x&#
x%#
x$#
x##
x"#
x!#
x~"
x}"
x|"
x{"
xz"
xy"
xx"
xw"
xv"
xu"
xt"
xs"
xr"
xq"
xp"
xo"
xn"
xm"
xl"
xk"
xj"
xi"
xh"
xg"
xf"
xe"
xd"
xc"
xb"
xa"
x`"
x_"
x^"
x]"
x\"
x["
xZ"
xY"
xX"
xW"
xV"
xU"
xT"
xS"
xR"
xQ"
xP"
xO"
xN"
xM"
xL"
xK"
xJ"
xI"
bx H"
bx G"
xF"
xE"
xD"
xC"
xB"
xA"
x@"
x?"
x>"
x="
x<"
x;"
x:"
x9"
x8"
x7"
x6"
x5"
x4"
x3"
x2"
x1"
x0"
x/"
x."
x-"
x,"
x+"
x*"
x)"
x("
x'"
x&"
x%"
x$"
x#"
x""
x!"
x~
x}
x|
x{
xz
xy
xx
xw
xv
xu
xt
xs
xr
xq
xp
xo
xn
xm
xl
xk
xj
xi
xh
xg
xf
xe
xd
xc
xb
xa
x`
x_
x^
x]
x\
x[
xZ
xY
xX
xW
xV
xU
xT
xS
xR
xQ
xP
xO
xN
xM
xL
xK
xJ
xI
xH
xG
xF
xE
xD
b0xz C
b0xz B
xA
x@
bx ?
bx >
bx =
x<
x;
x:
x9
bx 8
bx 7
x6
x5
bx 4
03
bx 2
bx 1
bx 0
bx /
bx .
x-
x,
x+
x*
x)
x(
x'
z&
z%
z$
z#
z"
z!
$end
#20
1:
1I"
0+#
0="
0)#
0>"
0'#
0?"
0%#
0@"
0##
0A"
0!#
0B"
0}"
0C"
0{"
0D"
0;#
05"
09#
06"
07#
07"
05#
08"
03#
09"
01#
0:"
0/#
0;"
0-#
0<"
0;
0F"
0q
0z"
0x"
0v"
0t"
0r"
0p"
0n"
b0 H"
0l"
0j"
0h"
0f"
0d"
0b"
0`"
0^"
b0 G"
0\"
09
0J"
0<
0E"
1^
1_
1`
1a
1b
1c
1d
1e
1r
1s
1v
1y
1|
1!"
1$"
1'"
1*"
1/"
12"
1D
1G
1J
1M
1P
1S
1Y
0i"
0g"
0e"
0c"
0a"
0_"
0]"
0["
0Z"
0Y"
0X"
0W"
0V"
0U"
0T"
0S"
1n
0*
0,
b0 2
b0 4
b0 ?
b0 A#
0-
13
#40
03
#60
0U
0T
0R
0Q
0O
0N
0L
0K
0I
0H
0F
0E
04"
03"
01"
00"
1,"
1+"
1)"
1("
1&"
1%"
1#"
1""
1~
1}
1{
1z
1x
1w
1u
1t
0+#
0="
0)#
0>"
0'#
0?"
0%#
0@"
0##
0A"
0!#
0B"
0}"
0C"
0{"
0D"
0;#
05"
09#
06"
07#
07"
05#
08"
03#
09"
01#
0:"
0/#
0;"
0-#
0<"
1V
0z"
0x"
0v"
0t"
0r"
0p"
0n"
b0 H"
0l"
0j"
0h"
0f"
0d"
0b"
0`"
0^"
b0 G"
0\"
09
0J"
0Z
0\
0-"
0<
0E"
1f
1g
1h
1i
1j
1k
1l
1m
0."
0X
1W
1[
0r
0s
0v
0y
0|
0!"
0$"
0'"
0*"
1/"
12"
1D
1G
1J
1M
1P
1S
1Y
1o
0R"
0Q"
0P"
0O"
0N"
0M"
0L"
0K"
0y"
0w"
0u"
0s"
0q"
0o"
0m"
0k"
0]
1p
0n
b0z C
0A
0<#
0:#
08#
06#
04#
02#
00#
b0 .
b0 =
b0 @#
0.#
0,#
0*#
0(#
0&#
0$#
0"#
0~"
b0 0
b0 >
b0 >#
0|"
b1z B
1@
0)
0+
0(
1-
b0 /
b0 8
b0 ?#
b0 1
b0 7
b0 =#
16
05
13
#80
03
#100
1{"
1D"
1}"
1C"
1!#
1B"
1##
1A"
1%#
1@"
1'#
1?"
1)#
1>"
1+#
1="
19
1J"
1l"
1n"
1p"
1r"
1t"
1v"
1x"
b11111111 H"
1z"
0Y
0,"
0)"
0&"
0#"
0~
0{
0x
0u
0:
0I"
1Z
1-"
1;
1F"
0^
0_
0`
0a
0b
0c
0d
0e
0[
1i"
1g"
1e"
1c"
1a"
1_"
1]"
1["
1Z"
1Y"
1X"
1W"
1V"
1U"
1T"
1S"
0p
b11111111 2
b11111111 4
b11111111 ?
b11111111 A#
1(
13
#120
03
#140
1/#
1;"
11#
1:"
13#
19"
17#
17"
19#
16"
1;#
15"
1^"
1`"
1b"
1f"
1h"
b11101110 G"
1j"
1:
1I"
1%#
1@"
1{"
1D"
0S
0P
0M
0J
0G
0D
02"
0/"
1t"
b11111111 H"
1l"
0;
0F"
1U
1T
1Q
1N
1K
1I
1H
1E
13"
10"
0|
0*"
09
0J"
0-"
1r
1<
1E"
0V
1}
1+"
1\
1."
0W
0q
1X
1a
1e
0o
1y"
1w"
1u"
1s"
1q"
1o"
1m"
1k"
1]
0c"
0["
0W"
0S"
b1z C
1A
1,#
1*#
1(#
1&#
1$#
1"#
1~"
b11111111 0
b11111111 >
b11111111 >#
1|"
b0z B
0@
1+
b11101110 2
b11101110 4
b11101110 ?
b11101110 A#
1,
06
15
b11111111 1
b11111111 7
b11111111 =#
13
#160
03
#180
0}"
0C"
0'#
0?"
0n"
b11011101 H"
0v"
0:
0I"
1'"
1y
1S
1G
1;
1F"
17#
17"
05#
08"
1/#
1;"
0-#
0<"
0("
0z
0T
0H
1f"
0d"
1^"
b11101110 G"
0\"
0r
0<
0E"
19
1J"
1-"
1V
0F
0I
0R
0U
1W
0\
1`
0a
1d
0e
0."
0X
0l
0k
0j
0h
0g
0f
0e"
1c"
0]"
1["
0X"
1W"
0T"
1S"
0]
1L"
1M"
1N"
1P"
1Q"
1R"
1o
1*
0,
05
16
b11101110 /
b11101110 8
b11101110 ?#
b11011101 2
b11011101 4
b11011101 ?
b11011101 A#
0+
1)
b1z B
1@
10#
12#
14#
18#
1:#
b11101110 .
b11101110 =
b11101110 @#
1<#
b0z C
0A
13
#200
03
#220
0'"
0y
0/#
0;"
07#
07"
1:
1I"
1%#
1@"
1{"
1D"
0S
0^"
0G
b11001100 G"
0f"
1t"
b11011101 H"
1l"
1)"
1("
1{
1z
0;
0F"
1U
1T
1R
1I
1H
1F
0|
0*"
09
0J"
0-"
1r
1<
1E"
0V
1}
1+"
1\
1."
0W
0q
1X
1a
1e
0o
0u"
0m"
1]
0c"
0["
0W"
0S"
b1z C
1A
0(#
b11011101 0
b11011101 >
b11011101 >#
0~"
b0z B
0@
0)
1+
b11001100 2
b11001100 4
b11001100 ?
b11001100 A#
0*
1,
06
15
b11011101 1
b11011101 7
b11011101 =#
13
#240
03
#260
0-#
0<"
0/#
0;"
05#
08"
0\"
1S
0^"
1P
0d"
1G
1D
1;#
15"
19#
16"
07#
07"
13#
19"
0U
0T
0R
0Q
0I
0H
0E
1j"
1h"
0f"
b11001100 G"
1b"
1Y
09
0J"
0r
0<
0E"
1V
01"
04"
0F
0L
0Z
0\
1^
1_
0`
1b
1W
0."
0X
1l
1h
1[
0i"
0g"
1e"
0a"
0Z"
0Y"
1X"
0V"
1p
0]
0L"
0P"
1o
1*
0,
05
16
b11001100 /
b11001100 8
b11001100 ?#
b100100 2
b100100 4
b100100 ?
b100100 A#
0(
0+
1)
b1z B
1@
00#
b11001100 .
b11001100 =
b11001100 @#
08#
b0z C
0A
13
#280
03
#300
0^
1`
1c
0e
1i"
0e"
0_"
1["
1Z"
0X"
0U"
1S"
0)
b10000001 2
b10000001 4
b10000001 ?
b10000001 A#
0*
13
#320
03
#340
0!#
0B"
0##
0A"
0%#
0@"
0)#
0>"
0+#
0="
0p"
0r"
0t"
0x"
0z"
1}"
1C"
0'#
0?"
19
1J"
1n"
1$"
1!"
1|
b11 H"
0v"
1y
1v
1s
0Y
0)"
0%"
0""
0}
0{
0z
0w
0t
0:
0I"
1Z
1-"
1;
1F"
0[
0p
1(
1^
0d
0i"
1]"
0Z"
1T"
b11 2
b11 4
b11 ?
b11 A#
13
#360
03
#380
0!"
0|
0y
0v
0s
03#
09"
09#
06"
0;#
05"
1:
1I"
0!#
0B"
1}"
1C"
1{"
1D"
0S
0P
0b"
0G
0D
0h"
b100 G"
0j"
0p"
1n"
b11 H"
1l"
1&"
1#"
1""
1~
1}
1{
1z
1x
1w
1u
1t
0;
0F"
1U
1T
1R
1Q
1L
1I
1H
1F
1E
14"
11"
0$"
0'"
0*"
09
0J"
0-"
1r
1<
1E"
0V
1%"
1("
1+"
1\
1."
0W
0q
1X
0c
1d
1e
0o
0y"
0w"
0s"
0q"
0o"
1m"
1]
1_"
0]"
0["
1U"
0T"
0S"
b1z C
1A
0,#
0*#
0&#
0$#
0"#
b11 0
b11 >
b11 >#
1~"
b0z B
0@
1+
b100 2
b100 4
b100 ?
b100 A#
1,
06
15
b11 1
b11 7
b11 =#
13
#400
03
#420
0/#
0;"
05#
08"
07#
07"
09#
06"
0;#
05"
1S
0^"
1P
1J
0d"
1G
0f"
1D
0h"
12"
0j"
1/"
03#
09"
11#
1:"
0-#
0<"
0T
0R
0Q
0K
0I
0H
0F
0E
04"
03"
01"
00"
0b"
1`"
b100 G"
0\"
1Y
09
0J"
0r
0<
0E"
1V
0L
0O
0U
0Z
0\
0b
1c
0e
1W
0."
0X
1j
1g
1f
1[
1a"
0_"
1["
1V"
0U"
1S"
1p
0]
0N"
0Q"
0R"
1o
1*
0,
05
16
b100 /
b100 8
b100 ?#
b1001 2
b1001 4
b1001 ?
b1001 A#
0(
0+
1)
b1z B
1@
04#
0:#
b100 .
b100 =
b100 @#
0<#
b0z C
0A
13
#440
03
#460
0_
0`
1b
0d
1g"
1e"
0a"
1]"
1Y"
1X"
0V"
1T"
0)
b1100011 2
b1100011 4
b1100011 ?
b1100011 A#
0*
13
#480
03
#500
1!#
1B"
0##
0A"
0%#
0@"
0'#
0?"
0)#
0>"
0+#
0="
19
1J"
1p"
0r"
1!"
0t"
1|
0v"
1y
0x"
1v
b111 H"
0z"
1s
0Y
0&"
0#"
0""
0~
0}
0{
0z
0x
0w
0u
0t
0:
0I"
1Z
1-"
1;
1F"
0[
0p
1(
1_
1`
0c
0g"
0e"
1_"
0Y"
0X"
1U"
b111 2
b111 4
b111 ?
b111 A#
13
#520
03
#540
13#
19"
1b"
0|
0y
0v
0s
01#
0:"
1:
1I"
0##
0A"
1!#
1B"
1}"
1C"
1{"
1D"
0S
0P
b1000 G"
0`"
0J
0G
0D
02"
0/"
0r"
1p"
1n"
b111 H"
1l"
1#"
1~
1}
1{
1z
1x
1w
1u
1t
0;
0F"
1U
1T
1R
1Q
1O
1K
1I
1H
1F
1E
14"
13"
11"
10"
0!"
0$"
0'"
0*"
09
0J"
0-"
1r
1<
1E"
0V
1""
1%"
1("
1+"
1\
1."
0W
0q
1X
0b
1c
1d
1e
0o
1o"
1]
1a"
0_"
0]"
0["
1V"
0U"
0T"
0S"
b1z C
1A
b111 0
b111 >
b111 >#
1"#
b0z B
0@
1+
b1000 2
b1000 4
b1000 ?
b1000 A#
1,
06
15
b111 1
b111 7
b111 =#
13
#560
03
