demux2/demux.vcd
$date
	Mon May 27 09:55:34 2019
$end
$version
	Icarus Verilog
$end
$timescale
	100ps
$end
$scope module BUF $end
$var wire 1 ! A $end
$var wire 1 " Y $end
$upscope $end
$scope module BancoPruebas $end
$var wire 1 # clk_2f $end
$var wire 8 $ data_in [7:0] $end
$var wire 8 % data_out_0 [7:0] $end
$var wire 8 & data_out_1 [7:0] $end
$var wire 8 ' out_synth0 [7:0] $end
$var wire 8 ( out_synth1 [7:0] $end
$var wire 1 ) reset $end
$var wire 1 * valid_in $end
$var wire 1 + valid_out0_synth $end
$var wire 1 , valid_out1_synth $end
$var wire 1 - valid_out_0 $end
$var wire 1 . valid_out_1 $end
$scope module demux $end
$var wire 1 # clk_2f $end
$var wire 8 / data_in [7:0] $end
$var wire 1 ) reset $end
$var wire 1 * valid_in $end
$var reg 8 0 data_out_0 [7:0] $end
$var reg 8 1 data_out_1 [7:0] $end
$var reg 1 2 flag $end
$var reg 1 3 selector $end
$var reg 1 4 valid_out_0 $end
$var reg 1 5 valid_out_1 $end
$upscope $end
$scope module synth $end
$var wire 8 6 _000_ [7:0] $end
$var wire 8 7 _001_ [7:0] $end
$var wire 1 8 _002_ $end
$var wire 1 9 _003_ $end
$var wire 1 : _004_ $end
$var wire 1 ; _005_ $end
$var wire 1 < _006_ $end
$var wire 1 = _007_ $end
$var wire 1 > _008_ $end
$var wire 1 ? _009_ $end
$var wire 1 @ _010_ $end
$var wire 1 A _011_ $end
$var wire 1 B _012_ $end
$var wire 1 C _013_ $end
$var wire 1 D _014_ $end
$var wire 1 E _015_ $end
$var wire 1 F _016_ $end
$var wire 1 G _017_ $end
$var wire 1 H _018_ $end
$var wire 1 I _019_ $end
$var wire 1 J _020_ $end
$var wire 1 K _021_ $end
$var wire 1 L _022_ $end
$var wire 1 M _023_ $end
$var wire 1 N _024_ $end
$var wire 1 O _025_ $end
$var wire 1 P _026_ $end
$var wire 1 Q _027_ $end
$var wire 1 R _028_ $end
$var wire 1 S _029_ $end
$var wire 1 T _030_ $end
$var wire 1 U _031_ $end
$var wire 1 V _032_ $end
$var wire 1 W _033_ $end
$var wire 1 X _034_ $end
$var wire 1 Y _035_ $end
$var wire 1 Z _036_ $end
$var wire 1 [ _037_ $end
$var wire 1 \ _038_ $end
$var wire 1 ] _039_ $end
$var wire 1 ^ _040_ $end
$var wire 1 _ _041_ $end
$var wire 1 ` _042_ $end
$var wire 1 a _043_ $end
$var wire 1 b _044_ $end
$var wire 1 c _045_ $end
$var wire 1 d _046_ $end
$var wire 1 e _047_ $end
$var wire 1 f _048_ $end
$var wire 1 g _049_ $end
$var wire 1 h _050_ $end
$var wire 1 i _051_ $end
$var wire 1 j _052_ $end
$var wire 1 k _053_ $end
$var wire 1 l _054_ $end
$var wire 1 m _055_ $end
$var wire 1 n _056_ $end
$var wire 1 o _057_ $end
$var wire 1 p _058_ $end
$var wire 1 q _059_ $end
$var wire 1 r _060_ $end
$var wire 1 s _061_ $end
$var wire 1 t _062_ $end
$var wire 1 u _063_ $end
$var wire 1 v _064_ $end
$var wire 1 w _065_ $end
$var wire 1 x _066_ $end
$var wire 1 y _067_ $end
$var wire 1 z _068_ $end
$var wire 1 { _069_ $end
$var wire 1 | _070_ $end
$var wire 1 } _071_ $end
$var wire 1 ~ _072_ $end
$var wire 1 !" _073_ $end
$var wire 1 "" _074_ $end
$var wire 1 #" _075_ $end
$var wire 1 $" _076_ $end
$var wire 1 %" _077_ $end
$var wire 1 &" _078_ $end
$var wire 1 '" _079_ $end
$var wire 1 (" _080_ $end
$var wire 1 )" _081_ $end
$var wire 1 *" _082_ $end
$var wire 1 +" _083_ $end
$var wire 1 ," _084_ $end
$var wire 1 -" _085_ $end
$var wire 1 ." _086_ $end
$var wire 1 /" _087_ $end
$var wire 1 0" _088_ $end
$var wire 1 1" _089_ $end
$var wire 1 2" _090_ $end
$var wire 1 3" _091_ $end
$var wire 1 4" _092_ $end
$var wire 1 # clk_2f $end
$var wire 8 5" data_in [7:0] $end
$var wire 1 6" flag $end
$var wire 8 7" out_synth0 [7:0] $end
$var wire 8 8" out_synth1 [7:0] $end
$var wire 1 ) reset $end
$var wire 1 9" selector $end
$var wire 1 * valid_in $end
$var wire 1 + valid_out0_synth $end
$var wire 1 , valid_out1_synth $end
$scope module _093_ $end
$var wire 1 * A $end
$var wire 1 j Y $end
$upscope $end
$scope module _094_ $end
$var wire 1 ) A $end
$var wire 1 k Y $end
$upscope $end
$scope module _095_ $end
$var wire 1 k A $end
$var wire 1 j B $end
$var wire 1 8 Y $end
$upscope $end
$scope module _096_ $end
$var wire 1 9" A $end
$var wire 1 l Y $end
$upscope $end
$scope module _097_ $end
$var wire 1 l A $end
$var wire 1 * B $end
$var wire 1 m Y $end
$upscope $end
$scope module _098_ $end
$var wire 1 m A $end
$var wire 1 6" B $end
$var wire 1 n Y $end
$upscope $end
$scope module _099_ $end
$var wire 1 6" A $end
$var wire 1 j B $end
$var wire 1 o Y $end
$upscope $end
$scope module _100_ $end
$var wire 1 o A $end
$var wire 1 l B $end
$var wire 1 p Y $end
$upscope $end
$scope module _101_ $end
$var wire 1 p A $end
$var wire 1 n B $end
$var wire 1 q Y $end
$upscope $end
$scope module _102_ $end
$var wire 1 q A $end
$var wire 1 k B $end
$var wire 1 9 Y $end
$upscope $end
$scope module _103_ $end
$var wire 1 9" A $end
$var wire 1 j B $end
$var wire 1 r Y $end
$upscope $end
$scope module _104_ $end
$var wire 1 r A $end
$var wire 1 6" B $end
$var wire 1 s Y $end
$upscope $end
$scope module _105_ $end
$var wire 1 s A $end
$var wire 1 t Y $end
$upscope $end
$scope module _106_ $end
$var wire 1 9" A $end
$var wire 1 * B $end
$var wire 1 u Y $end
$upscope $end
$scope module _107_ $end
$var wire 1 6" A $end
$var wire 1 v Y $end
$upscope $end
$scope module _108_ $end
$var wire 1 , A $end
$var wire 1 v B $end
$var wire 1 w Y $end
$upscope $end
$scope module _109_ $end
$var wire 1 w A $end
$var wire 1 u B $end
$var wire 1 x Y $end
$upscope $end
$scope module _110_ $end
$var wire 1 x A $end
$var wire 1 t B $end
$var wire 1 y Y $end
$upscope $end
$scope module _111_ $end
$var wire 1 y A $end
$var wire 1 k B $end
$var wire 1 ; Y $end
$upscope $end
$scope module _112_ $end
$var wire 1 u A $end
$var wire 1 v B $end
$var wire 1 z Y $end
$upscope $end
$scope module _113_ $end
$var wire 1 + A $end
$var wire 1 v B $end
$var wire 1 { Y $end
$upscope $end
$scope module _114_ $end
$var wire 1 { A $end
$var wire 1 m B $end
$var wire 1 | Y $end
$upscope $end
$scope module _115_ $end
$var wire 1 | A $end
$var wire 1 z B $end
$var wire 1 } Y $end
$upscope $end
$scope module _116_ $end
$var wire 1 } A $end
$var wire 1 k B $end
$var wire 1 : Y $end
$upscope $end
$scope module _117_ $end
$var wire 1 o A $end
$var wire 1 9" B $end
$var wire 1 ~ Y $end
$upscope $end
$scope module _118_ $end
$var wire 1 s A $end
$var wire 1 ~ B $end
$var wire 1 !" Y $end
$upscope $end
$scope module _119_ $end
$var wire 1 !" A $end
$var wire 1 :" B $end
$var wire 1 "" Y $end
$upscope $end
$scope module _120_ $end
$var wire 1 ;" A $end
$var wire 1 #" Y $end
$upscope $end
$scope module _121_ $end
$var wire 1 !" A $end
$var wire 1 #" B $end
$var wire 1 $" Y $end
$upscope $end
$scope module _122_ $end
$var wire 1 $" A $end
$var wire 1 ) B $end
$var wire 1 %" Y $end
$upscope $end
$scope module _123_ $end
$var wire 1 %" A $end
$var wire 1 "" B $end
$var wire 1 <" Y $end
$upscope $end
$scope module _124_ $end
$var wire 1 !" A $end
$var wire 1 =" B $end
$var wire 1 &" Y $end
$upscope $end
$scope module _125_ $end
$var wire 1 >" A $end
$var wire 1 '" Y $end
$upscope $end
$scope module _126_ $end
$var wire 1 !" A $end
$var wire 1 '" B $end
$var wire 1 (" Y $end
$upscope $end
$scope module _127_ $end
$var wire 1 (" A $end
$var wire 1 ) B $end
$var wire 1 )" Y $end
$upscope $end
$scope module _128_ $end
$var wire 1 )" A $end
$var wire 1 &" B $end
$var wire 1 ?" Y $end
$upscope $end
$scope module _129_ $end
$var wire 1 !" A $end
$var wire 1 @" B $end
$var wire 1 *" Y $end
$upscope $end
$scope module _130_ $end
$var wire 1 A" A $end
$var wire 1 +" Y $end
$upscope $end
$scope module _131_ $end
$var wire 1 !" A $end
$var wire 1 +" B $end
$var wire 1 ," Y $end
$upscope $end
$scope module _132_ $end
$var wire 1 ," A $end
$var wire 1 ) B $end
$var wire 1 -" Y $end
$upscope $end
$scope module _133_ $end
$var wire 1 -" A $end
$var wire 1 *" B $end
$var wire 1 B" Y $end
$upscope $end
$scope module _134_ $end
$var wire 1 !" A $end
$var wire 1 C" B $end
$var wire 1 ." Y $end
$upscope $end
$scope module _135_ $end
$var wire 1 D" A $end
$var wire 1 /" Y $end
$upscope $end
$scope module _136_ $end
$var wire 1 !" A $end
$var wire 1 /" B $end
$var wire 1 0" Y $end
$upscope $end
$scope module _137_ $end
$var wire 1 0" A $end
$var wire 1 ) B $end
$var wire 1 1" Y $end
$upscope $end
$scope module _138_ $end
$var wire 1 1" A $end
$var wire 1 ." B $end
$var wire 1 E" Y $end
$upscope $end
$scope module _139_ $end
$var wire 1 !" A $end
$var wire 1 F" B $end
$var wire 1 2" Y $end
$upscope $end
$scope module _140_ $end
$var wire 1 G" A $end
$var wire 1 3" Y $end
$upscope $end
$scope module _141_ $end
$var wire 1 !" A $end
$var wire 1 3" B $end
$var wire 1 4" Y $end
$upscope $end
$scope module _142_ $end
$var wire 1 4" A $end
$var wire 1 ) B $end
$var wire 1 < Y $end
$upscope $end
$scope module _143_ $end
$var wire 1 < A $end
$var wire 1 2" B $end
$var wire 1 H" Y $end
$upscope $end
$scope module _144_ $end
$var wire 1 !" A $end
$var wire 1 I" B $end
$var wire 1 = Y $end
$upscope $end
$scope module _145_ $end
$var wire 1 J" A $end
$var wire 1 > Y $end
$upscope $end
$scope module _146_ $end
$var wire 1 !" A $end
$var wire 1 > B $end
$var wire 1 ? Y $end
$upscope $end
$scope module _147_ $end
$var wire 1 ? A $end
$var wire 1 ) B $end
$var wire 1 @ Y $end
$upscope $end
$scope module _148_ $end
$var wire 1 @ A $end
$var wire 1 = B $end
$var wire 1 K" Y $end
$upscope $end
$scope module _149_ $end
$var wire 1 !" A $end
$var wire 1 L" B $end
$var wire 1 A Y $end
$upscope $end
$scope module _150_ $end
$var wire 1 M" A $end
$var wire 1 B Y $end
$upscope $end
$scope module _151_ $end
$var wire 1 !" A $end
$var wire 1 B B $end
$var wire 1 C Y $end
$upscope $end
$scope module _152_ $end
$var wire 1 C A $end
$var wire 1 ) B $end
$var wire 1 D Y $end
$upscope $end
$scope module _153_ $end
$var wire 1 D A $end
$var wire 1 A B $end
$var wire 1 N" Y $end
$upscope $end
$scope module _154_ $end
$var wire 1 !" A $end
$var wire 1 O" B $end
$var wire 1 E Y $end
$upscope $end
$scope module _155_ $end
$var wire 1 P" A $end
$var wire 1 F Y $end
$upscope $end
$scope module _156_ $end
$var wire 1 !" A $end
$var wire 1 F B $end
$var wire 1 G Y $end
$upscope $end
$scope module _157_ $end
$var wire 1 G A $end
$var wire 1 ) B $end
$var wire 1 H Y $end
$upscope $end
$scope module _158_ $end
$var wire 1 H A $end
$var wire 1 E B $end
$var wire 1 Q" Y $end
$upscope $end
$scope module _159_ $end
$var wire 1 z A $end
$var wire 1 n B $end
$var wire 1 I Y $end
$upscope $end
$scope module _160_ $end
$var wire 1 I A $end
$var wire 1 R" B $end
$var wire 1 J Y $end
$upscope $end
$scope module _161_ $end
$var wire 1 S" A $end
$var wire 1 K Y $end
$upscope $end
$scope module _162_ $end
$var wire 1 I A $end
$var wire 1 K B $end
$var wire 1 L Y $end
$upscope $end
$scope module _163_ $end
$var wire 1 L A $end
$var wire 1 ) B $end
$var wire 1 M Y $end
$upscope $end
$scope module _164_ $end
$var wire 1 M A $end
$var wire 1 J B $end
$var wire 1 T" Y $end
$upscope $end
$scope module _165_ $end
$var wire 1 I A $end
$var wire 1 U" B $end
$var wire 1 N Y $end
$upscope $end
$scope module _166_ $end
$var wire 1 V" A $end
$var wire 1 O Y $end
$upscope $end
$scope module _167_ $end
$var wire 1 I A $end
$var wire 1 O B $end
$var wire 1 P Y $end
$upscope $end
$scope module _168_ $end
$var wire 1 P A $end
$var wire 1 ) B $end
$var wire 1 Q Y $end
$upscope $end
$scope module _169_ $end
$var wire 1 Q A $end
$var wire 1 N B $end
$var wire 1 W" Y $end
$upscope $end
$scope module _170_ $end
$var wire 1 I A $end
$var wire 1 X" B $end
$var wire 1 R Y $end
$upscope $end
$scope module _171_ $end
$var wire 1 Y" A $end
$var wire 1 S Y $end
$upscope $end
$scope module _172_ $end
$var wire 1 I A $end
$var wire 1 S B $end
$var wire 1 T Y $end
$upscope $end
$scope module _173_ $end
$var wire 1 T A $end
$var wire 1 ) B $end
$var wire 1 U Y $end
$upscope $end
$scope module _174_ $end
$var wire 1 U A $end
$var wire 1 R B $end
$var wire 1 Z" Y $end
$upscope $end
$scope module _175_ $end
$var wire 1 I A $end
$var wire 1 [" B $end
$var wire 1 V Y $end
$upscope $end
$scope module _176_ $end
$var wire 1 \" A $end
$var wire 1 W Y $end
$upscope $end
$scope module _177_ $end
$var wire 1 I A $end
$var wire 1 W B $end
$var wire 1 X Y $end
$upscope $end
$scope module _178_ $end
$var wire 1 X A $end
$var wire 1 ) B $end
$var wire 1 Y Y $end
$upscope $end
$scope module _179_ $end
$var wire 1 Y A $end
$var wire 1 V B $end
$var wire 1 ]" Y $end
$upscope $end
$scope module _180_ $end
$var wire 1 I A $end
$var wire 1 ^" B $end
$var wire 1 Z Y $end
$upscope $end
$scope module _181_ $end
$var wire 1 _" A $end
$var wire 1 [ Y $end
$upscope $end
$scope module _182_ $end
$var wire 1 I A $end
$var wire 1 [ B $end
$var wire 1 \ Y $end
$upscope $end
$scope module _183_ $end
$var wire 1 \ A $end
$var wire 1 ) B $end
$var wire 1 ] Y $end
$upscope $end
$scope module _184_ $end
$var wire 1 ] A $end
$var wire 1 Z B $end
$var wire 1 `" Y $end
$upscope $end
$scope module _185_ $end
$var wire 1 I A $end
$var wire 1 a" B $end
$var wire 1 ^ Y $end
$upscope $end
$scope module _186_ $end
$var wire 1 b" A $end
$var wire 1 _ Y $end
$upscope $end
$scope module _187_ $end
$var wire 1 I A $end
$var wire 1 _ B $end
$var wire 1 ` Y $end
$upscope $end
$scope module _188_ $end
$var wire 1 ` A $end
$var wire 1 ) B $end
$var wire 1 a Y $end
$upscope $end
$scope module _189_ $end
$var wire 1 a A $end
$var wire 1 ^ B $end
$var wire 1 c" Y $end
$upscope $end
$scope module _190_ $end
$var wire 1 I A $end
$var wire 1 d" B $end
$var wire 1 b Y $end
$upscope $end
$scope module _191_ $end
$var wire 1 e" A $end
$var wire 1 c Y $end
$upscope $end
$scope module _192_ $end
$var wire 1 I A $end
$var wire 1 c B $end
$var wire 1 d Y $end
$upscope $end
$scope module _193_ $end
$var wire 1 d A $end
$var wire 1 ) B $end
$var wire 1 e Y $end
$upscope $end
$scope module _194_ $end
$var wire 1 e A $end
$var wire 1 b B $end
$var wire 1 f" Y $end
$upscope $end
$scope module _195_ $end
$var wire 1 I A $end
$var wire 1 g" B $end
$var wire 1 f Y $end
$upscope $end
$scope module _196_ $end
$var wire 1 h" A $end
$var wire 1 g Y $end
$upscope $end
$scope module _197_ $end
$var wire 1 I A $end
$var wire 1 g B $end
$var wire 1 h Y $end
$upscope $end
$scope module _198_ $end
$var wire 1 h A $end
$var wire 1 ) B $end
$var wire 1 i Y $end
$upscope $end
$scope module _199_ $end
$var wire 1 i A $end
$var wire 1 f B $end
$var wire 1 i" Y $end
$upscope $end
$scope module _200_ $end
$var wire 1 # C $end
$var wire 1 j" D $end
$var reg 1 k" Q $end
$upscope $end
$scope module _201_ $end
$var wire 1 # C $end
$var wire 1 l" D $end
$var reg 1 m" Q $end
$upscope $end
$scope module _202_ $end
$var wire 1 # C $end
$var wire 1 n" D $end
$var reg 1 o" Q $end
$upscope $end
$scope module _203_ $end
$var wire 1 # C $end
$var wire 1 p" D $end
$var reg 1 q" Q $end
$upscope $end
$scope module _204_ $end
$var wire 1 # C $end
$var wire 1 r" D $end
$var reg 1 s" Q $end
$upscope $end
$scope module _205_ $end
$var wire 1 # C $end
$var wire 1 t" D $end
$var reg 1 u" Q $end
$upscope $end
$scope module _206_ $end
$var wire 1 # C $end
$var wire 1 v" D $end
$var reg 1 w" Q $end
$upscope $end
$scope module _207_ $end
$var wire 1 # C $end
$var wire 1 x" D $end
$var reg 1 y" Q $end
$upscope $end
$scope module _208_ $end
$var wire 1 # C $end
$var wire 1 z" D $end
$var reg 1 {" Q $end
$upscope $end
$scope module _209_ $end
$var wire 1 # C $end
$var wire 1 |" D $end
$var reg 1 }" Q $end
$upscope $end
$scope module _210_ $end
$var wire 1 # C $end
$var wire 1 ~" D $end
$var reg 1 !# Q $end
$upscope $end
$scope module _211_ $end
$var wire 1 # C $end
$var wire 1 "# D $end
$var reg 1 ## Q $end
$upscope $end
$scope module _212_ $end
$var wire 1 # C $end
$var wire 1 $# D $end
$var reg 1 %# Q $end
$upscope $end
$scope module _213_ $end
$var wire 1 # C $end
$var wire 1 &# D $end
$var reg 1 '# Q $end
$upscope $end
$scope module _214_ $end
$var wire 1 # C $end
$var wire 1 (# D $end
$var reg 1 )# Q $end
$upscope $end
$scope module _215_ $end
$var wire 1 # C $end
$var wire 1 *# D $end
$var reg 1 +# Q $end
$upscope $end
$scope module _216_ $end
$var wire 1 # C $end
$var wire 1 : D $end
$var reg 1 ,# Q $end
$upscope $end
$scope module _217_ $end
$var wire 1 # C $end
$var wire 1 ; D $end
$var reg 1 -# Q $end
$upscope $end
$scope module _218_ $end
$var wire 1 # C $end
$var wire 1 9 D $end
$var reg 1 .# Q $end
$upscope $end
$scope module _219_ $end
$var wire 1 # C $end
$var wire 1 8 D $end
$var reg 1 /# Q $end
$upscope $end
$upscope $end
$scope module probador_ $end
$var wire 8 0# data_out_0 [7:0] $end
$var wire 8 1# data_out_1 [7:0] $end
$var wire 8 2# out_synth0 [7:0] $end
$var wire 8 3# out_synth1 [7:0] $end
$var wire 1 + valid_out0_synth $end
$var wire 1 , valid_out1_synth $end
$var wire 1 - valid_out_0 $end
$var wire 1 . valid_out_1 $end
$var reg 1 4# clk_2f $end
$var reg 8 5# data_in [7:0] $end
$var reg 1 6# reset $end
$var reg 1 7# valid_in $end
$upscope $end
$upscope $end
$scope module DFFSR $end
$var wire 1 8# C $end
$var wire 1 9# D $end
$var wire 1 :# R $end
$var wire 1 ;# S $end
$var reg 1 <# Q $end
$upscope $end
$enddefinitions $end
#0
$dumpvars
x<#
z;#
z:#
z9#
z8#
x7#
x6#
bx 5#
04#
bx 3#
bx 2#
bx 1#
bx 0#
x/#
x.#
x-#
x,#
x+#
x*#
x)#
x(#
x'#
x&#
x%#
x$#
x##
x"#
x!#
x~"
x}"
x|"
x{"
xz"
xy"
xx"
xw"
xv"
xu"
xt"
xs"
xr"
xq"
xp"
xo"
xn"
xm"
xl"
xk"
xj"
xi"
xh"
xg"
xf"
xe"
xd"
xc"
xb"
xa"
x`"
x_"
x^"
x]"
x\"
x["
xZ"
xY"
xX"
xW"
xV"
xU"
xT"
xS"
xR"
xQ"
xP"
xO"
xN"
xM"
xL"
xK"
xJ"
xI"
xH"
xG"
xF"
xE"
xD"
xC"
xB"
xA"
x@"
x?"
x>"
x="
x<"
x;"
x:"
x9"
bx 8"
bx 7"
x6"
bx 5"
x4"
x3"
x2"
x1"
x0"
x/"
x."
x-"
x,"
x+"
x*"
x)"
x("
x'"
x&"
x%"
x$"
x#"
x""
x!"
x~
x}
x|
x{
xz
xy
xx
xw
xv
xu
xt
xs
xr
xq
xp
xo
xn
xm
xl
xk
xj
xi
xh
xg
xf
xe
xd
xc
xb
xa
x`
x_
x^
x]
x\
x[
xZ
xY
xX
xW
xV
xU
xT
xS
xR
xQ
xP
xO
xN
xM
xL
xK
xJ
xI
xH
xG
xF
xE
xD
xC
xB
xA
x@
x?
x>
x=
x<
x;
x:
x9
x8
bx 7
bx 6
x5
x4
x3
x2
bx 1
bx 0
bx /
x.
x-
x,
x+
x*
x)
bx (
bx '
bx &
bx %
bx $
0#
z"
z!
$end
#250
1?
1,"
0^
0R
1F
1B
0>
13"
1/"
0+"
1'"
1#"
0j
0g"
0d"
1a"
0^"
0["
1X"
0U"
0R"
0P"
0M"
1J"
0G"
0D"
1A"
0>"
0;"
b0 1
b0 &
b0 1#
b0 0
b0 %
b0 0#
05
0.
04
0-
02
03
17#
1*
b100100 5#
b100100 $
b100100 /
b100100 5"
0x"
0v"
0t"
0r"
0p"
0n"
0l"
0j"
0*#
0(#
0&#
0$#
0"#
0~"
0|"
0z"
0i"
0f"
0c"
0`"
0]"
0Z"
0W"
0T"
b0 6
0Q"
0N"
0K"
0H"
0E"
0B"
0?"
0<"
b0 7
08
09
0;
0:
1i
1e
1a
1]
1Y
1U
1Q
1M
1H
1D
1@
1<
11"
1-"
1)"
1%"
1k
06#
0)
14#
1#
#500
04#
0#
#750
1L
1N
1P
1T
1V
1X
1Z
1\
1`
1b
1d
1h
0q
0I
0}
1""
1&"
1("
1*"
1."
10"
12"
14"
1=
1A
1C
1E
1x"
0v"
0t"
0r"
0p"
0n"
0l"
1j"
0*#
0(#
0&#
0$#
0"#
0~"
0|"
0z"
1y
1n
1|
1i"
0f"
0c"
0`"
0]"
0Z"
0W"
1T"
b10000001 6
0Q"
0N"
0K"
0H"
0E"
0B"
0?"
0<"
b0 7
1G
1?
1,"
1$"
0!"
0x
18
19
0;
1:
0f
1^
1R
0J
0w
0z
0{
0t
0m
0p
0i
0e
0a
0]
0Y
0U
0Q
0M
0H
0D
0@
0<
01"
0-"
0)"
0%"
0F
1>
1+"
0#"
1s
1o
1~
1u
1r
1g
1c
1_
1[
1W
1S
1O
1K
0k
1g"
0a"
0X"
1R"
1P"
0J"
0A"
1;"
1v
1l
0O"
0L"
0I"
0F"
0C"
0@"
0="
0:"
0h"
0e"
0b"
0_"
0\"
0Y"
0V"
0S"
16#
1)
b10000001 5#
b10000001 $
b10000001 /
b10000001 5"
0/#
06"
0.#
09"
0-#
0,
0,#
0+
0+#
0)#
0'#
0%#
0##
0!#
0}"
0{"
b0 (
b0 8"
b0 3#
0y"
0w"
0u"
0s"
0q"
0o"
0m"
0k"
b0 '
b0 7"
b0 2#
14#
1#
#1000
04#
0#
#1250
0z"
0|"
0~"
0"#
0$#
0&#
0(#
0*#
0l"
0n"
0r"
0t"
0v"
0<"
0?"
0)"
0B"
0-"
0E"
0H"
0<
0K"
0@
0N"
0D
0Q"
b0 7
0H
0W"
0Q
0Z"
0U
0Y
0`"
0]
0c"
0a
0f"
0e
0;
1""
1&"
1("
1*"
1,"
1."
12"
14"
1=
1?
1A
1C
1E
1G
19
1N
1P
1R
1T
1X
1Z
1\
1^
1`
1b
1d
0x"
1p"
0|
1y
0i"
1]"
b1001 6
1z
0!"
0q
0I
1m
1p
1w
0t
1f
0V
0K
0g
1~
0u
0r
1s
0o
0n
1F
0/"
1S"
1h"
0l
0v
0g"
1["
0P"
1D"
13
12
14
1-
b10000001 0
b10000001 %
b10000001 0#
1k"
1y"
b10000001 '
b10000001 7"
b10000001 2#
1,#
1+
1.#
19"
1/#
16"
b1001 5#
b1001 $
b1001 /
b1001 5"
14#
1#
#1500
04#
0#
#1750
1v"
1t"
0p"
1l"
1f"
1c"
0]"
1W"
b1100011 6
0b
0^
1V
0N
0B
0>
1/"
0'"
1g
0W
1d"
1a"
0["
1U"
1M"
1J"
0D"
1>"
0h"
1\"
b1100011 5#
b1100011 $
b1100011 /
b1100011 5"
0y"
1q"
b1001 '
b1001 7"
b1001 2#
b1001 0
b1001 %
b1001 0#
14#
1#
#2000
04#
0#
#2250
0v"
0t"
1p"
1n"
0l"
0f"
0c"
1]"
1Z"
0W"
b1101 6
1b
1^
0V
0R
1N
0O
1W
0_
0c
1B
1>
0/"
0+"
1'"
1V"
0\"
1b"
1e"
0d"
0a"
1["
1X"
0U"
0M"
0J"
1D"
1A"
0>"
b1100011 0
b1100011 %
b1100011 0#
1m"
0q"
1u"
1w"
b1100011 '
b1100011 7"
b1100011 2#
b1101 5#
b1101 $
b1101 /
b1101 5"
14#
1#
#2500
04#
0#
#2750
0l"
0r"
0t"
0v"
0W"
1Q
0`"
1]
0c"
1a
0f"
1e
1i
0:
0N
0P
0Z
0\
0^
0`
0b
0d
0h
1}
1I
0x"
0i"
b1101 6
0z
08
0f
1u
0F
1c
1_
0W
0S
1O
1j
1g"
1P"
0e"
0b"
1\"
1Y"
0V"
07#
0*
b10001101 5#
b10001101 $
b10001101 /
b10001101 5"
0w"
0u"
1q"
1o"
0m"
b1101 '
b1101 7"
b1101 2#
b1101 0
b1101 %
b1101 0#
14#
1#
#3000
04#
0#
#3250
0w
1F
0B
0>
1/"
1v
0g"
1d"
1a"
0["
0P"
1M"
1J"
0D"
04
0-
02
0,#
0+
0/#
06"
b1100101 5#
b1100101 $
b1100101 /
b1100101 5"
14#
1#
#3500
04#
0#
#3750
1B
1>
03"
1+"
0'"
1#"
0d"
0a"
1^"
0X"
1U"
0R"
0M"
0J"
1G"
0A"
1>"
0;"
b10010 5#
b10010 $
b10010 /
b10010 5"
14#
1#
#4000
04#
0#
#4250
1z"
0|"
0~"
0"#
0$#
0&#
0(#
0*#
1<"
0?"
1)"
0B"
1-"
0E"
11"
0H"
1<
0K"
1@
0N"
1D
0Q"
b1 7
1H
09
0""
0&"
0("
0*"
0,"
0."
00"
02"
04"
0=
0?
0A
0C
0E
0G
1;
1q
1!"
0y
0p
0~
1x
18
1o
0u
13"
1'"
0#"
0j
0^"
0U"
1R"
0G"
0>"
1;"
17#
1*
b1 5#
b1 $
b1 /
b1 5"
14#
1#
#4500
04#
0#
#4750
0|"
1~"
1"#
0$#
0&#
0(#
0*#
0?"
1B"
1E"
0H"
0K"
0N"
0Q"
b1101 7
1)"
1<
1@
1D
1H
01"
0-"
0&"
0("
0*"
0."
02"
04"
0=
0?
0A
0C
0E
0G
1t
10"
1,"
1!"
0x
0s
1{
0m
0/"
0+"
0o
1~
1u
1r
1["
1X"
1D"
1A"
0v
1l
1:"
b1101 5#
b1101 $
b1101 /
b1101 5"
1/#
16"
0.#
09"
1-#
1,
1{"
b1 (
b1 8"
b1 3#
12
03
15
1.
b1 1
b1 &
b1 1#
14#
1#
#5000
04#
0#
#5250
1(#
1&#
1$#
0"#
1|"
0z"
1N"
1K"
1H"
0E"
1?"
0<"
b1110110 7
0D
0@
0<
11"
0)"
1%"
1C
1?
14"
00"
1("
0$"
0B
0>
03"
1/"
0'"
1#"
1@"
1C"
1d"
1a"
1^"
0["
1U"
0R"
1M"
1J"
1G"
0D"
1>"
0;"
b1101 1
b1101 &
b1101 1#
1!#
1##
b1101 (
b1101 8"
b1101 3#
b1110110 5#
b1110110 $
b1110110 /
b1110110 5"
14#
1#
#5500
04#
0#
#5750
0H
0;
1""
1."
1E
1G
1(#
0"#
1|"
0z"
1y
1N"
0E"
1?"
0<"
b1110110 7
0!"
0t
0D
01"
0)"
0%"
1s
1C
10"
1("
1$"
08
0r
1m
1B
0/"
1'"
0#"
1j
0d"
1["
0U"
1R"
0M"
1D"
0>"
1;"
1L"
1I"
1F"
0C"
1="
0:"
07#
0*
b111101 5#
b111101 $
b111101 /
b111101 5"
1)#
1'#
1%#
0##
1}"
0{"
b1110110 (
b1110110 8"
b1110110 3#
b1110110 1
b1110110 &
b1110110 1#
14#
1#
#6000
04#
0#
#6250
0{
0F
0B
13"
1v
1g"
1d"
0^"
1P"
1M"
0G"
05
0.
02
0-#
0,
0/#
06"
b11101101 5#
b11101101 $
b11101101 /
b11101101 5"
14#
1#
#6500
04#
0#
#6750
1x"
1i"
0j"
0T"
b10001100 6
0Q
0]
0a
0e
0i
19
1J
1N
1P
1Z
1\
1^
1`
1b
1d
1h
1:
0q
0I
0}
1n
1|
18
1o
1r
0m
1B
1>
1#"
0j
0d"
0a"
0R"
0M"
0J"
0;"
17#
1*
b10001100 5#
b10001100 $
b10001100 /
b10001100 5"
14#
1#
#7000
04#
0#
#7250
1|"
1~"
1?"
1B"
0z"
0"#
0*#
0l"
0<"
0)"
0-"
0E"
0Q"
b1110110 7
0M
0W"
0Q
0]
0a
0e
0;
1""
1("
1,"
1."
1E
19
1L
1N
1P
1\
1`
1d
1v"
1t"
1r"
0n"
1j"
0|
1y
1f"
1c"
1`"
0Z"
1T"
b11111001 6
1z
0!"
0q
0I
1m
1p
1w
0t
0b
0^
0Z
1R
0J
1K
0g
1~
0u
0r
1s
0o
0n
0B
0>
03"
1+"
0#"
0S"
1h"
0l
0v
1d"
1a"
1^"
0X"
1R"
1M"
1J"
1G"
0A"
1;"
13
12
14
1-
b10001100 0
b10001100 %
b10001100 0#
0k"
1y"
b10001100 '
b10001100 7"
b10001100 2#
1,#
1+
1.#
19"
1/#
16"
b11111001 5#
b11111001 $
b11111001 /
b11111001 5"
14#
1#
#7500
04#
0#
