Documents/digitales_2/proyecto/demux2/demux.vcd
$date
	Wed May 22 16:50:20 2019
$end
$version
	Icarus Verilog
$end
$timescale
	100ps
$end
$scope module BUF $end
$var wire 1 ! A $end
$var wire 1 " Y $end
$upscope $end
$scope module BancoPruebas $end
$var wire 1 # valid_out_1 $end
$var wire 1 $ valid_out_0 $end
$var wire 1 % valid_out1_synth $end
$var wire 1 & valid_out0_synth $end
$var wire 1 ' valid_in $end
$var wire 1 ( reset $end
$var wire 8 ) out_synth1 [7:0] $end
$var wire 8 * out_synth0 [7:0] $end
$var wire 8 + data_out_1 [7:0] $end
$var wire 8 , data_out_0 [7:0] $end
$var wire 8 - data_in [7:0] $end
$var wire 1 . clk_2f $end
$scope module demux $end
$var wire 1 ' valid_in $end
$var wire 1 ( reset $end
$var wire 8 / data_in [7:0] $end
$var wire 1 . clk_2f $end
$var reg 8 0 data_out_0 [7:0] $end
$var reg 8 1 data_out_1 [7:0] $end
$var reg 1 2 flag $end
$var reg 1 3 selector $end
$var reg 1 $ valid_out_0 $end
$var reg 1 # valid_out_1 $end
$upscope $end
$scope module probador_ $end
$var wire 8 4 data_out_0 [7:0] $end
$var wire 8 5 data_out_1 [7:0] $end
$var wire 1 $ valid_out_0 $end
$var wire 1 # valid_out_1 $end
$var wire 1 % valid_out1_synth $end
$var wire 1 & valid_out0_synth $end
$var wire 8 6 out_synth1 [7:0] $end
$var wire 8 7 out_synth0 [7:0] $end
$var reg 1 . clk_2f $end
$var reg 8 8 data_in [7:0] $end
$var reg 1 ( reset $end
$var reg 1 ' valid_in $end
$upscope $end
$scope module synth $end
$var wire 1 9 _022_ $end
$var wire 1 : _023_ $end
$var wire 1 ; _024_ $end
$var wire 1 < _025_ $end
$var wire 1 . clk_2f $end
$var wire 8 = data_in [7:0] $end
$var wire 1 ( reset $end
$var wire 1 ' valid_in $end
$var wire 1 % valid_out1_synth $end
$var wire 1 & valid_out0_synth $end
$var wire 1 > selector $end
$var wire 8 ? out_synth1 [7:0] $end
$var wire 8 @ out_synth0 [7:0] $end
$var wire 1 A flag $end
$var wire 1 B _120_ $end
$var wire 1 C _119_ $end
$var wire 1 D _118_ $end
$var wire 1 E _117_ $end
$var wire 1 F _116_ $end
$var wire 1 G _115_ $end
$var wire 1 H _114_ $end
$var wire 1 I _113_ $end
$var wire 1 J _112_ $end
$var wire 1 K _111_ $end
$var wire 1 L _110_ $end
$var wire 1 M _109_ $end
$var wire 1 N _108_ $end
$var wire 1 O _107_ $end
$var wire 1 P _106_ $end
$var wire 1 Q _105_ $end
$var wire 1 R _104_ $end
$var wire 1 S _103_ $end
$var wire 1 T _102_ $end
$var wire 1 U _101_ $end
$var wire 1 V _100_ $end
$var wire 1 W _099_ $end
$var wire 1 X _098_ $end
$var wire 1 Y _097_ $end
$var wire 1 Z _096_ $end
$var wire 1 [ _095_ $end
$var wire 1 \ _094_ $end
$var wire 1 ] _093_ $end
$var wire 1 ^ _092_ $end
$var wire 1 _ _091_ $end
$var wire 1 ` _090_ $end
$var wire 1 a _089_ $end
$var wire 1 b _088_ $end
$var wire 1 c _087_ $end
$var wire 1 d _086_ $end
$var wire 1 e _085_ $end
$var wire 1 f _084_ $end
$var wire 1 g _083_ $end
$var wire 1 h _082_ $end
$var wire 1 i _081_ $end
$var wire 1 j _080_ $end
$var wire 1 k _079_ $end
$var wire 1 l _078_ $end
$var wire 1 m _077_ $end
$var wire 1 n _076_ $end
$var wire 1 o _075_ $end
$var wire 1 p _074_ $end
$var wire 1 q _073_ $end
$var wire 1 r _072_ $end
$var wire 1 s _071_ $end
$var wire 1 t _070_ $end
$var wire 1 u _069_ $end
$var wire 1 v _068_ $end
$var wire 1 w _067_ $end
$var wire 1 x _066_ $end
$var wire 1 y _065_ $end
$var wire 1 z _064_ $end
$var wire 1 { _063_ $end
$var wire 1 | _062_ $end
$var wire 1 } _061_ $end
$var wire 1 ~ _060_ $end
$var wire 1 !" _059_ $end
$var wire 1 "" _058_ $end
$var wire 1 #" _057_ $end
$var wire 1 $" _056_ $end
$var wire 1 %" _055_ $end
$var wire 1 &" _054_ $end
$var wire 1 '" _053_ $end
$var wire 1 (" _052_ $end
$var wire 1 )" _051_ $end
$var wire 1 *" _050_ $end
$var wire 1 +" _049_ $end
$var wire 1 ," _048_ $end
$var wire 1 -" _047_ $end
$var wire 1 ." _046_ $end
$var wire 1 /" _045_ $end
$var wire 1 0" _044_ $end
$var wire 1 1" _043_ $end
$var wire 1 2" _042_ $end
$var wire 1 3" _041_ $end
$var wire 1 4" _040_ $end
$var wire 1 5" _039_ $end
$var wire 1 6" _038_ $end
$var wire 1 7" _037_ $end
$var wire 1 8" _036_ $end
$var wire 1 9" _035_ $end
$var wire 1 :" _034_ $end
$var wire 1 ;" _033_ $end
$var wire 1 <" _032_ $end
$var wire 1 =" _031_ $end
$var wire 1 >" _030_ $end
$var wire 1 ?" _029_ $end
$var wire 1 @" _028_ $end
$var wire 1 A" _027_ $end
$var wire 1 B" _026_ $end
$var wire 1 C" _021_ $end
$var wire 1 D" _020_ $end
$var wire 1 E" _019_ $end
$var wire 1 F" _018_ $end
$var wire 1 G" _017_ $end
$var wire 1 H" _016_ $end
$var wire 1 I" _015_ $end
$var wire 1 J" _014_ $end
$var wire 1 K" _013_ $end
$var wire 1 L" _012_ $end
$var wire 1 M" _011_ $end
$var wire 1 N" _010_ $end
$var wire 1 O" _009_ $end
$var wire 1 P" _008_ $end
$var wire 1 Q" _007_ $end
$var wire 1 R" _006_ $end
$var wire 1 S" _005_ $end
$var wire 1 T" _004_ $end
$var wire 1 U" _003_ $end
$var wire 1 V" _002_ $end
$var wire 8 W" _001_ [7:0] $end
$var wire 8 X" _000_ [7:0] $end
$scope module _121_ $end
$var wire 1 ' A $end
$var wire 1 m Y $end
$upscope $end
$scope module _122_ $end
$var wire 1 ( A $end
$var wire 1 l Y $end
$upscope $end
$scope module _123_ $end
$var wire 1 Y" A $end
$var wire 1 k Y $end
$upscope $end
$scope module _124_ $end
$var wire 1 Z" A $end
$var wire 1 j Y $end
$upscope $end
$scope module _125_ $end
$var wire 1 i Y $end
$var wire 1 A A $end
$upscope $end
$scope module _126_ $end
$var wire 1 [" A $end
$var wire 1 h Y $end
$upscope $end
$scope module _127_ $end
$var wire 1 \" A $end
$var wire 1 g Y $end
$upscope $end
$scope module _128_ $end
$var wire 1 ]" A $end
$var wire 1 f Y $end
$upscope $end
$scope module _129_ $end
$var wire 1 ^" A $end
$var wire 1 e Y $end
$upscope $end
$scope module _130_ $end
$var wire 1 _" A $end
$var wire 1 d Y $end
$upscope $end
$scope module _131_ $end
$var wire 1 `" A $end
$var wire 1 c Y $end
$upscope $end
$scope module _132_ $end
$var wire 1 a" A $end
$var wire 1 b Y $end
$upscope $end
$scope module _133_ $end
$var wire 1 b" A $end
$var wire 1 a Y $end
$upscope $end
$scope module _134_ $end
$var wire 1 c" A $end
$var wire 1 ` Y $end
$upscope $end
$scope module _135_ $end
$var wire 1 d" A $end
$var wire 1 _ Y $end
$upscope $end
$scope module _136_ $end
$var wire 1 e" A $end
$var wire 1 ^ Y $end
$upscope $end
$scope module _137_ $end
$var wire 1 f" A $end
$var wire 1 ] Y $end
$upscope $end
$scope module _138_ $end
$var wire 1 g" A $end
$var wire 1 \ Y $end
$upscope $end
$scope module _139_ $end
$var wire 1 h" A $end
$var wire 1 [ Y $end
$upscope $end
$scope module _140_ $end
$var wire 1 Z Y $end
$var wire 1 > A $end
$upscope $end
$scope module _141_ $end
$var wire 1 Y Y $end
$var wire 1 & A $end
$upscope $end
$scope module _142_ $end
$var wire 1 ' A $end
$var wire 1 ( B $end
$var wire 1 X Y $end
$upscope $end
$scope module _143_ $end
$var wire 1 X A $end
$var wire 1 V" Y $end
$upscope $end
$scope module _144_ $end
$var wire 1 ' A $end
$var wire 1 W Y $end
$var wire 1 > B $end
$upscope $end
$scope module _145_ $end
$var wire 1 W A $end
$var wire 1 V Y $end
$upscope $end
$scope module _146_ $end
$var wire 1 ' A $end
$var wire 1 Z B $end
$var wire 1 U Y $end
$upscope $end
$scope module _147_ $end
$var wire 1 i A $end
$var wire 1 U B $end
$var wire 1 T Y $end
$upscope $end
$scope module _148_ $end
$var wire 1 V A $end
$var wire 1 T B $end
$var wire 1 S Y $end
$upscope $end
$scope module _149_ $end
$var wire 1 m A $end
$var wire 1 R Y $end
$var wire 1 A B $end
$upscope $end
$scope module _150_ $end
$var wire 1 W B $end
$var wire 1 Q Y $end
$var wire 1 A A $end
$upscope $end
$scope module _151_ $end
$var wire 1 T A $end
$var wire 1 Q B $end
$var wire 1 P Y $end
$upscope $end
$scope module _152_ $end
$var wire 1 j A $end
$var wire 1 P B $end
$var wire 1 O Y $end
$upscope $end
$scope module _153_ $end
$var wire 1 i" A $end
$var wire 1 P B $end
$var wire 1 N Y $end
$upscope $end
$scope module _154_ $end
$var wire 1 ( A $end
$var wire 1 O B $end
$var wire 1 M Y $end
$upscope $end
$scope module _155_ $end
$var wire 1 N A $end
$var wire 1 M B $end
$var wire 1 j" Y $end
$upscope $end
$scope module _156_ $end
$var wire 1 g A $end
$var wire 1 P B $end
$var wire 1 L Y $end
$upscope $end
$scope module _157_ $end
$var wire 1 k" A $end
$var wire 1 P B $end
$var wire 1 K Y $end
$upscope $end
$scope module _158_ $end
$var wire 1 ( A $end
$var wire 1 L B $end
$var wire 1 J Y $end
$upscope $end
$scope module _159_ $end
$var wire 1 K A $end
$var wire 1 J B $end
$var wire 1 l" Y $end
$upscope $end
$scope module _160_ $end
$var wire 1 e A $end
$var wire 1 P B $end
$var wire 1 I Y $end
$upscope $end
$scope module _161_ $end
$var wire 1 m" A $end
$var wire 1 P B $end
$var wire 1 H Y $end
$upscope $end
$scope module _162_ $end
$var wire 1 ( A $end
$var wire 1 I B $end
$var wire 1 G Y $end
$upscope $end
$scope module _163_ $end
$var wire 1 H A $end
$var wire 1 G B $end
$var wire 1 n" Y $end
$upscope $end
$scope module _164_ $end
$var wire 1 c A $end
$var wire 1 P B $end
$var wire 1 F Y $end
$upscope $end
$scope module _165_ $end
$var wire 1 o" A $end
$var wire 1 P B $end
$var wire 1 E Y $end
$upscope $end
$scope module _166_ $end
$var wire 1 ( A $end
$var wire 1 F B $end
$var wire 1 D Y $end
$upscope $end
$scope module _167_ $end
$var wire 1 E A $end
$var wire 1 D B $end
$var wire 1 p" Y $end
$upscope $end
$scope module _168_ $end
$var wire 1 a A $end
$var wire 1 P B $end
$var wire 1 C Y $end
$upscope $end
$scope module _169_ $end
$var wire 1 q" A $end
$var wire 1 P B $end
$var wire 1 B Y $end
$upscope $end
$scope module _170_ $end
$var wire 1 ( A $end
$var wire 1 C B $end
$var wire 1 B" Y $end
$upscope $end
$scope module _171_ $end
$var wire 1 B A $end
$var wire 1 B" B $end
$var wire 1 r" Y $end
$upscope $end
$scope module _172_ $end
$var wire 1 _ A $end
$var wire 1 P B $end
$var wire 1 A" Y $end
$upscope $end
$scope module _173_ $end
$var wire 1 s" A $end
$var wire 1 P B $end
$var wire 1 @" Y $end
$upscope $end
$scope module _174_ $end
$var wire 1 ( A $end
$var wire 1 A" B $end
$var wire 1 ?" Y $end
$upscope $end
$scope module _175_ $end
$var wire 1 @" A $end
$var wire 1 ?" B $end
$var wire 1 t" Y $end
$upscope $end
$scope module _176_ $end
$var wire 1 ] A $end
$var wire 1 P B $end
$var wire 1 >" Y $end
$upscope $end
$scope module _177_ $end
$var wire 1 u" A $end
$var wire 1 P B $end
$var wire 1 =" Y $end
$upscope $end
$scope module _178_ $end
$var wire 1 ( A $end
$var wire 1 >" B $end
$var wire 1 <" Y $end
$upscope $end
$scope module _179_ $end
$var wire 1 =" A $end
$var wire 1 <" B $end
$var wire 1 v" Y $end
$upscope $end
$scope module _180_ $end
$var wire 1 [ A $end
$var wire 1 T B $end
$var wire 1 ;" Y $end
$upscope $end
$scope module _181_ $end
$var wire 1 w" A $end
$var wire 1 V B $end
$var wire 1 :" Y $end
$upscope $end
$scope module _182_ $end
$var wire 1 S A $end
$var wire 1 :" B $end
$var wire 1 9" Y $end
$upscope $end
$scope module _183_ $end
$var wire 1 ;" A $end
$var wire 1 9" B $end
$var wire 1 8" Y $end
$upscope $end
$scope module _184_ $end
$var wire 1 \ B $end
$var wire 1 7" Y $end
$var wire 1 A A $end
$upscope $end
$scope module _185_ $end
$var wire 1 x" B $end
$var wire 1 6" Y $end
$var wire 1 A A $end
$upscope $end
$scope module _186_ $end
$var wire 1 6" A $end
$var wire 1 5" Y $end
$upscope $end
$scope module _187_ $end
$var wire 1 7" A $end
$var wire 1 5" B $end
$var wire 1 4" Y $end
$upscope $end
$scope module _188_ $end
$var wire 1 V A $end
$var wire 1 4" B $end
$var wire 1 3" Y $end
$upscope $end
$scope module _189_ $end
$var wire 1 ( A $end
$var wire 1 3" B $end
$var wire 1 2" Y $end
$upscope $end
$scope module _190_ $end
$var wire 1 8" A $end
$var wire 1 2" B $end
$var wire 1 y" Y $end
$upscope $end
$scope module _191_ $end
$var wire 1 U B $end
$var wire 1 1" Y $end
$var wire 1 A A $end
$upscope $end
$scope module _192_ $end
$var wire 1 V A $end
$var wire 1 R B $end
$var wire 1 0" Y $end
$upscope $end
$scope module _193_ $end
$var wire 1 Q A $end
$var wire 1 0" B $end
$var wire 1 /" Y $end
$upscope $end
$scope module _194_ $end
$var wire 1 k A $end
$var wire 1 /" B $end
$var wire 1 ." Y $end
$upscope $end
$scope module _195_ $end
$var wire 1 z" A $end
$var wire 1 /" B $end
$var wire 1 -" Y $end
$upscope $end
$scope module _196_ $end
$var wire 1 ( A $end
$var wire 1 ." B $end
$var wire 1 ," Y $end
$upscope $end
$scope module _197_ $end
$var wire 1 -" A $end
$var wire 1 ," B $end
$var wire 1 {" Y $end
$upscope $end
$scope module _198_ $end
$var wire 1 h A $end
$var wire 1 /" B $end
$var wire 1 +" Y $end
$upscope $end
$scope module _199_ $end
$var wire 1 |" A $end
$var wire 1 /" B $end
$var wire 1 *" Y $end
$upscope $end
$scope module _200_ $end
$var wire 1 ( A $end
$var wire 1 +" B $end
$var wire 1 )" Y $end
$upscope $end
$scope module _201_ $end
$var wire 1 *" A $end
$var wire 1 )" B $end
$var wire 1 }" Y $end
$upscope $end
$scope module _202_ $end
$var wire 1 f A $end
$var wire 1 /" B $end
$var wire 1 (" Y $end
$upscope $end
$scope module _203_ $end
$var wire 1 ~" A $end
$var wire 1 /" B $end
$var wire 1 '" Y $end
$upscope $end
$scope module _204_ $end
$var wire 1 ( A $end
$var wire 1 (" B $end
$var wire 1 &" Y $end
$upscope $end
$scope module _205_ $end
$var wire 1 '" A $end
$var wire 1 &" B $end
$var wire 1 !# Y $end
$upscope $end
$scope module _206_ $end
$var wire 1 d A $end
$var wire 1 /" B $end
$var wire 1 %" Y $end
$upscope $end
$scope module _207_ $end
$var wire 1 "# A $end
$var wire 1 /" B $end
$var wire 1 $" Y $end
$upscope $end
$scope module _208_ $end
$var wire 1 ( A $end
$var wire 1 %" B $end
$var wire 1 #" Y $end
$upscope $end
$scope module _209_ $end
$var wire 1 $" A $end
$var wire 1 #" B $end
$var wire 1 ## Y $end
$upscope $end
$scope module _210_ $end
$var wire 1 b A $end
$var wire 1 /" B $end
$var wire 1 "" Y $end
$upscope $end
$scope module _211_ $end
$var wire 1 $# A $end
$var wire 1 /" B $end
$var wire 1 !" Y $end
$upscope $end
$scope module _212_ $end
$var wire 1 ( A $end
$var wire 1 "" B $end
$var wire 1 ~ Y $end
$upscope $end
$scope module _213_ $end
$var wire 1 !" A $end
$var wire 1 ~ B $end
$var wire 1 %# Y $end
$upscope $end
$scope module _214_ $end
$var wire 1 ` A $end
$var wire 1 /" B $end
$var wire 1 } Y $end
$upscope $end
$scope module _215_ $end
$var wire 1 &# A $end
$var wire 1 /" B $end
$var wire 1 | Y $end
$upscope $end
$scope module _216_ $end
$var wire 1 ( A $end
$var wire 1 } B $end
$var wire 1 { Y $end
$upscope $end
$scope module _217_ $end
$var wire 1 | A $end
$var wire 1 { B $end
$var wire 1 '# Y $end
$upscope $end
$scope module _218_ $end
$var wire 1 ^ A $end
$var wire 1 /" B $end
$var wire 1 z Y $end
$upscope $end
$scope module _219_ $end
$var wire 1 (# A $end
$var wire 1 /" B $end
$var wire 1 y Y $end
$upscope $end
$scope module _220_ $end
$var wire 1 ( A $end
$var wire 1 z B $end
$var wire 1 x Y $end
$upscope $end
$scope module _221_ $end
$var wire 1 y A $end
$var wire 1 x B $end
$var wire 1 )# Y $end
$upscope $end
$scope module _222_ $end
$var wire 1 \ A $end
$var wire 1 /" B $end
$var wire 1 w Y $end
$upscope $end
$scope module _223_ $end
$var wire 1 *# A $end
$var wire 1 /" B $end
$var wire 1 v Y $end
$upscope $end
$scope module _224_ $end
$var wire 1 ( A $end
$var wire 1 w B $end
$var wire 1 u Y $end
$upscope $end
$scope module _225_ $end
$var wire 1 v A $end
$var wire 1 u B $end
$var wire 1 +# Y $end
$upscope $end
$scope module _226_ $end
$var wire 1 Z A $end
$var wire 1 R B $end
$var wire 1 t Y $end
$upscope $end
$scope module _227_ $end
$var wire 1 1" A $end
$var wire 1 t B $end
$var wire 1 s Y $end
$upscope $end
$scope module _228_ $end
$var wire 1 l A $end
$var wire 1 s B $end
$var wire 1 U" Y $end
$upscope $end
$scope module _229_ $end
$var wire 1 i A $end
$var wire 1 r Y $end
$var wire 1 % B $end
$upscope $end
$scope module _230_ $end
$var wire 1 W A $end
$var wire 1 r B $end
$var wire 1 q Y $end
$upscope $end
$scope module _231_ $end
$var wire 1 T A $end
$var wire 1 q B $end
$var wire 1 p Y $end
$upscope $end
$scope module _232_ $end
$var wire 1 l A $end
$var wire 1 p B $end
$var wire 1 S" Y $end
$upscope $end
$scope module _233_ $end
$var wire 1 Y A $end
$var wire 1 U B $end
$var wire 1 o Y $end
$upscope $end
$scope module _234_ $end
$var wire 1 /" A $end
$var wire 1 o B $end
$var wire 1 n Y $end
$upscope $end
$scope module _235_ $end
$var wire 1 l A $end
$var wire 1 n B $end
$var wire 1 T" Y $end
$upscope $end
$scope module _236_ $end
$var wire 1 . C $end
$var wire 1 T" D $end
$var reg 1 & Q $end
$upscope $end
$scope module _237_ $end
$var wire 1 . C $end
$var wire 1 S" D $end
$var reg 1 % Q $end
$upscope $end
$scope module _238_ $end
$var wire 1 . C $end
$var wire 1 U" D $end
$var reg 1 > Q $end
$upscope $end
$scope module _239_ $end
$var wire 1 . C $end
$var wire 1 ,# D $end
$var reg 1 -# Q $end
$upscope $end
$scope module _240_ $end
$var wire 1 . C $end
$var wire 1 .# D $end
$var reg 1 /# Q $end
$upscope $end
$scope module _241_ $end
$var wire 1 . C $end
$var wire 1 0# D $end
$var reg 1 1# Q $end
$upscope $end
$scope module _242_ $end
$var wire 1 . C $end
$var wire 1 2# D $end
$var reg 1 3# Q $end
$upscope $end
$scope module _243_ $end
$var wire 1 . C $end
$var wire 1 4# D $end
$var reg 1 5# Q $end
$upscope $end
$scope module _244_ $end
$var wire 1 . C $end
$var wire 1 6# D $end
$var reg 1 7# Q $end
$upscope $end
$scope module _245_ $end
$var wire 1 . C $end
$var wire 1 8# D $end
$var reg 1 9# Q $end
$upscope $end
$scope module _246_ $end
$var wire 1 . C $end
$var wire 1 :# D $end
$var reg 1 ;# Q $end
$upscope $end
$scope module _247_ $end
$var wire 1 . C $end
$var wire 1 <# D $end
$var reg 1 =# Q $end
$upscope $end
$scope module _248_ $end
$var wire 1 . C $end
$var wire 1 ># D $end
$var reg 1 ?# Q $end
$upscope $end
$scope module _249_ $end
$var wire 1 . C $end
$var wire 1 @# D $end
$var reg 1 A# Q $end
$upscope $end
$scope module _250_ $end
$var wire 1 . C $end
$var wire 1 B# D $end
$var reg 1 C# Q $end
$upscope $end
$scope module _251_ $end
$var wire 1 . C $end
$var wire 1 D# D $end
$var reg 1 E# Q $end
$upscope $end
$scope module _252_ $end
$var wire 1 . C $end
$var wire 1 F# D $end
$var reg 1 G# Q $end
$upscope $end
$scope module _253_ $end
$var wire 1 . C $end
$var wire 1 H# D $end
$var reg 1 I# Q $end
$upscope $end
$scope module _254_ $end
$var wire 1 . C $end
$var wire 1 J# D $end
$var reg 1 K# Q $end
$upscope $end
$scope module _255_ $end
$var wire 1 . C $end
$var wire 1 V" D $end
$var reg 1 A Q $end
$upscope $end
$upscope $end
$upscope $end
$scope module DFFSR $end
$var wire 1 L# C $end
$var wire 1 M# D $end
$var wire 1 N# R $end
$var wire 1 O# S $end
$var reg 1 P# Q $end
$upscope $end
$enddefinitions $end
#0
$dumpvars
xP#
zO#
zN#
zM#
zL#
xK#
xJ#
xI#
xH#
xG#
xF#
xE#
xD#
xC#
xB#
xA#
x@#
x?#
x>#
x=#
x<#
x;#
x:#
x9#
x8#
x7#
x6#
x5#
x4#
x3#
x2#
x1#
x0#
x/#
x.#
x-#
x,#
x+#
x*#
x)#
x(#
x'#
x&#
x%#
x$#
x##
x"#
x!#
x~"
x}"
x|"
x{"
xz"
xy"
xx"
xw"
xv"
xu"
xt"
xs"
xr"
xq"
xp"
xo"
xn"
xm"
xl"
xk"
xj"
xi"
xh"
xg"
xf"
xe"
xd"
xc"
xb"
xa"
x`"
x_"
x^"
x]"
x\"
x["
xZ"
xY"
bx X"
bx W"
xV"
xU"
xT"
xS"
xR"
xQ"
xP"
xO"
xN"
xM"
xL"
xK"
xJ"
xI"
xH"
xG"
xF"
xE"
xD"
xC"
xB"
xA"
x@"
x?"
x>"
x="
x<"
x;"
x:"
x9"
x8"
x7"
x6"
x5"
x4"
x3"
x2"
x1"
x0"
x/"
x."
x-"
x,"
x+"
x*"
x)"
x("
x'"
x&"
x%"
x$"
x#"
x""
x!"
x~
x}
x|
x{
xz
xy
xx
xw
xv
xu
xt
xs
xr
xq
xp
xo
xn
xm
xl
xk
xj
xi
xh
xg
xf
xe
xd
xc
xb
xa
x`
x_
x^
x]
x\
x[
xZ
xY
xX
xW
xV
xU
xT
xS
xR
xQ
xP
xO
xN
xM
xL
xK
xJ
xI
xH
xG
xF
xE
xD
xC
xB
xA
bx @
bx ?
x>
bx =
x<
x;
x:
x9
bx 8
bx 7
bx 6
bx 5
bx 4
x3
x2
bx 1
bx 0
bx /
0.
bx -
bx ,
bx +
bx *
bx )
x(
x'
x&
x%
x$
x#
z"
z!
$end
#250
1("
1}
07"
0H
0@"
1k
1h
0f
1d
1b
0`
1^
1\
0m
0Y"
0["
1]"
0_"
0a"
1c"
0e"
0g"
0i"
0k"
1m"
0o"
0q"
1s"
0u"
0w"
b0 +
b0 1
b0 5
b0 ,
b0 0
b0 4
0#
0$
02
03
1'
b100100 -
b100100 /
b100100 8
b100100 =
0<#
0J"
0>#
0I"
0@#
0H"
0B#
0G"
0D#
0F"
0F#
0E"
0H#
0D"
0J#
0C"
0,#
0R"
0.#
0Q"
00#
0P"
02#
0O"
04#
0N"
06#
0M"
08#
0L"
0:#
0K"
0j"
0l"
0n"
0p"
0r"
0t"
0v"
b0 W"
0y"
0{"
0}"
0!#
0##
0%#
0'#
0)#
b0 X"
0+#
0:
0U"
0<
0S"
0;
0T"
09
0V"
1X
1M
1J
1G
1D
1B"
1?"
1<"
12"
1,"
1)"
1&"
1#"
1~
1{
1x
1u
1l
0(
1.
#500
0.
#750
18"
0-"
0+"
0*"
0'"
0%"
0$"
0""
0!"
0|
0z
0y
0v
0n
0O
0L
0K
0I
0F
0E
0C
0B
0A"
0>"
0="
09"
0s
1/"
0<#
0J"
0>#
0I"
0@#
0H"
0B#
0G"
0D#
0F"
0F#
0E"
0H#
0D"
0J#
0C"
1,#
1R"
0.#
0Q"
00#
0P"
02#
0O"
04#
0N"
06#
0M"
08#
0L"
1:#
1K"
04"
1P
1p
1S
13"
11"
0j"
0l"
0n"
0p"
0r"
0t"
0v"
b0 W"
0y"
1{"
0}"
0!#
0##
0%#
0'#
0)#
b10000001 X"
1+#
1."
0("
0}
17"
1w
00"
0;"
0Q
0q
1:
1U"
0<
0S"
1;
1T"
19
1V"
0N
0H
0@"
0:"
05"
0T
0r
0V
0U
0t
0o
0X
1M
1J
1G
1D
1B"
1?"
1<"
02"
0,"
1)"
1&"
1#"
1~
1{
1x
0u
0k
1f
1`
0\
16"
1R
1[
1]
1_
1a
1c
1e
1g
1j
1W
0l
1Y"
0]"
0c"
1g"
1i"
0m"
0s"
1w"
1i
0x"
0h"
0f"
0d"
0b"
0`"
0^"
0\"
0Z"
0*#
0(#
0&#
0$#
0"#
0~"
0|"
0z"
1Z
1Y
1(
b10000001 -
b10000001 /
b10000001 8
b10000001 =
0A
0K#
0I#
0G#
0E#
0C#
0A#
0?#
b0 )
b0 6
b0 ?
0=#
0;#
09#
07#
05#
03#
01#
0/#
b0 *
b0 7
b0 @
0-#
0>
0%
0&
1.
#1000
0.
#1250
0.#
0Q"
00#
0P"
04#
0N"
06#
0M"
08#
0L"
0<#
0J"
0>#
0I"
0@#
0H"
0B#
0G"
0D#
0F"
0F#
0E"
0H#
0D"
0}"
0!#
0%#
0'#
0)#
0j"
0l"
0n"
0p"
0r"
0t"
b0 W"
0v"
1)"
1&"
1~
1{
1x
1;
1T"
08"
1M
1J
1G
1D
1B"
1?"
1<"
12#
1O"
0:#
0K"
0+"
0*"
0("
0'"
0$"
0""
0!"
0}
0|
0z
0y
1##
b1001 X"
0+#
12"
0n
19"
0O
0L
0K
0I
0H
0F
0C
0B
0A"
0@"
0>"
0="
0<
0S"
1:
1U"
1/"
0#"
1u
03"
0S
1P
1p
0s
14"
00"
1%"
0w
0o
1V
1U
1t
0T
1r
0:"
0W
01"
07"
0R
0d
1\
0Y
0Z
1z"
1*#
0i
1_"
0g"
1o"
0w"
13
12
1$
b10000001 ,
b10000001 0
b10000001 4
1&
1>
1-#
b10000001 *
b10000001 7
b10000001 @
1;#
1A
b1001 -
b1001 /
b1001 8
b1001 =
1.
#1500
0.
#1750
1.#
1Q"
02#
0O"
16#
1M"
18#
1L"
1}"
0##
1'#
b1100011 X"
1)#
0)"
1#"
0{
0x
1+"
0%"
1}
1z
0h
1d
0`
0^
1["
0_"
1c"
1e"
1k"
0o"
1s"
1u"
0*#
1"#
b1100011 -
b1100011 /
b1100011 8
b1100011 =
0;#
b1001 *
b1001 7
b1001 @
13#
b1001 ,
b1001 0
b1001 4
1.
#2000
0.
#2250
0.#
0Q"
10#
1P"
12#
1O"
06#
0M"
08#
0L"
0}"
1!#
1##
0'#
b1101 X"
0)#
1)"
0&"
0#"
1{
1x
0+"
1("
1%"
0}
0z
1h
0f
0d
1`
1^
1|"
0"#
1&#
1(#
0["
1]"
1_"
0c"
0e"
0k"
1m"
1o"
0s"
0u"
b1100011 ,
b1100011 0
b1100011 4
1/#
03#
17#
b1100011 *
b1100011 7
b1100011 @
19#
b1101 -
b1101 /
b1101 8
b1101 =
1.
#2500
0.
#2750
0)"
0~
0{
0x
0;
0T"
0J#
0C"
18"
b0 W"
0y"
1+"
1*"
1""
1!"
1}
1|
1z
1y
1v
1n
0:#
0K"
b1101 X"
0+#
09"
02"
0/"
0u
1S
13"
10"
1w
09
0V"
0V
1X
1W
0\
1m
1g"
1w"
0(#
0&#
1"#
1~"
0|"
0'
b10001101 -
b10001101 /
b10001101 8
b10001101 =
09#
07#
13#
11#
b1101 *
b1101 7
b1101 @
0/#
b1101 ,
b1101 0
b1101 4
1.
#3000
0.
#3250
14"
0r
1:"
07"
1d
0`
0^
1\
1Y
1i
0_"
1c"
1e"
0g"
0o"
1s"
1u"
0w"
0$
02
0&
0A
b1100101 -
b1100101 /
b1100101 8
b1100101 =
1.
#3500
0.
#3750
1k
0h
1f
0b
1`
1^
0Y"
1["
0]"
1a"
0c"
0e"
0i"
1k"
0m"
1q"
0s"
0u"
b10010 -
b10010 /
b10010 8
b10010 =
1.
#4000
0.
#4250
1<#
1J"
b1 W"
1j"
0M
0J
0G
0D
0B"
0?"
0<"
0:
0U"
08"
1O
1L
1K
1I
1H
1F
1E
1C
1B
1A"
1@"
1>"
1="
1<
1S"
1s
19"
12"
0P
0p
0t
0S
0:"
03"
00"
1Q
1q
1R
19
1V"
1V
0X
0W
0k
1h
1b
0m
1Y"
0["
0a"
1i"
0k"
0q"
1'
b1 -
b1 /
b1 8
b1 =
1.
#4500
0.
#4750
0J#
0C"
0>#
0I"
0D#
0F"
0F#
0E"
0H#
0D"
0.#
0Q"
04#
0N"
06#
0M"
08#
0L"
0:#
0K"
18"
0y"
0J
0l"
0G
0D
0B"
0r"
0?"
0t"
0<"
0v"
0)"
0}"
0~
0%#
0{
0'#
0x
0)#
0u
b1101 X"
0+#
0;
0T"
09"
02"
1@#
1H"
1B#
1G"
1L
1K
1I
1F
1C
1B
1A"
1@"
1>"
1="
1+"
1*"
1""
1!"
1}
1|
1z
1y
1w
1v
1n
1n"
b1101 W"
1p"
0S
1:"
13"
1T
0P
0/"
10"
0q
0H
0E
0V
0U
0f
0d
0Q
0R
0j
1W
1]"
1_"
1m"
1o"
0i
1Z"
1Z
b1101 -
b1101 /
b1101 8
b1101 =
1A
b1 )
b1 6
b1 ?
1=#
0>
1%
12
03
1#
b1 +
b1 1
b1 5
1.
#5000
0.
#5250
0<#
0J"
1>#
1I"
0B#
0G"
1D#
1F"
1F#
1E"
1H#
1D"
0j"
1l"
0p"
1r"
1t"
b1110110 W"
1v"
1N
0K
1E
0B
0@"
0="
0e
0c
1k
0h
1d
0b
0`
0^
1^"
1`"
0Y"
1["
0_"
1a"
1c"
1e"
0i"
1k"
0o"
1q"
1s"
1u"
b1101 +
b1101 1
b1101 5
1A#
b1101 )
b1101 6
b1101 ?
1C#
b1110110 -
b1110110 /
b1110110 8
b1110110 =
1.
#5500
0.
