phy_final/phy_rx/byteUnstriping/unstriping.vcd
$date
	Sat Jun  1 08:19:52 2019
$end
$version
	Icarus Verilog
$end
$timescale
	100ps
$end
$scope module BUF $end
$var wire 1 ! A $end
$var wire 1 " Y $end
$upscope $end
$scope module BancoPruebas $end
$var wire 1 # valid_out_synth $end
$var wire 1 $ valid_out $end
$var wire 1 % valid_1 $end
$var wire 1 & valid_0 $end
$var wire 1 ' reset $end
$var wire 8 ( lane_1 [7:0] $end
$var wire 8 ) lane_0 [7:0] $end
$var wire 8 * data_out_synth [7:0] $end
$var wire 8 + data_out [7:0] $end
$var wire 1 , clk_f $end
$var wire 1 - clk_2f $end
$scope module probador $end
$var wire 1 # valid_out_synth $end
$var wire 1 $ valid_out $end
$var wire 8 . data_out_synth [7:0] $end
$var wire 8 / data_out [7:0] $end
$var reg 1 - clk_2f $end
$var reg 1 , clk_f $end
$var reg 8 0 lane_0 [7:0] $end
$var reg 8 1 lane_1 [7:0] $end
$var reg 1 ' reset $end
$var reg 1 & valid_0 $end
$var reg 1 % valid_1 $end
$upscope $end
$scope module synth $end
$var wire 1 2 _011_ $end
$var wire 1 3 _012_ $end
$var wire 1 - clk_2f $end
$var wire 1 , clk_f $end
$var wire 1 4 contador $end
$var wire 8 5 lane_0 [7:0] $end
$var wire 8 6 lane_1 [7:0] $end
$var wire 1 ' reset $end
$var wire 1 & valid_0 $end
$var wire 1 % valid_1 $end
$var wire 1 # valid_out_synth $end
$var wire 1 7 selector $end
$var wire 8 8 data_out_synth [7:0] $end
$var wire 1 9 _072_ $end
$var wire 1 : _071_ $end
$var wire 1 ; _070_ $end
$var wire 1 < _069_ $end
$var wire 1 = _068_ $end
$var wire 1 > _067_ $end
$var wire 1 ? _066_ $end
$var wire 1 @ _065_ $end
$var wire 1 A _064_ $end
$var wire 1 B _063_ $end
$var wire 1 C _062_ $end
$var wire 1 D _061_ $end
$var wire 1 E _060_ $end
$var wire 1 F _059_ $end
$var wire 1 G _058_ $end
$var wire 1 H _057_ $end
$var wire 1 I _056_ $end
$var wire 1 J _055_ $end
$var wire 1 K _054_ $end
$var wire 1 L _053_ $end
$var wire 1 M _052_ $end
$var wire 1 N _051_ $end
$var wire 1 O _050_ $end
$var wire 1 P _049_ $end
$var wire 1 Q _048_ $end
$var wire 1 R _047_ $end
$var wire 1 S _046_ $end
$var wire 1 T _045_ $end
$var wire 1 U _044_ $end
$var wire 1 V _043_ $end
$var wire 1 W _042_ $end
$var wire 1 X _041_ $end
$var wire 1 Y _040_ $end
$var wire 1 Z _039_ $end
$var wire 1 [ _038_ $end
$var wire 1 \ _037_ $end
$var wire 1 ] _036_ $end
$var wire 1 ^ _035_ $end
$var wire 1 _ _034_ $end
$var wire 1 ` _033_ $end
$var wire 1 a _032_ $end
$var wire 1 b _031_ $end
$var wire 1 c _030_ $end
$var wire 1 d _029_ $end
$var wire 1 e _028_ $end
$var wire 1 f _027_ $end
$var wire 1 g _026_ $end
$var wire 1 h _025_ $end
$var wire 1 i _024_ $end
$var wire 1 j _023_ $end
$var wire 1 k _022_ $end
$var wire 1 l _021_ $end
$var wire 1 m _020_ $end
$var wire 1 n _019_ $end
$var wire 1 o _018_ $end
$var wire 1 p _017_ $end
$var wire 1 q _016_ $end
$var wire 1 r _015_ $end
$var wire 1 s _014_ $end
$var wire 1 t _013_ $end
$var wire 1 u _010_ $end
$var wire 1 v _009_ $end
$var wire 1 w _008_ $end
$var wire 1 x _007_ $end
$var wire 1 y _006_ $end
$var wire 1 z _005_ $end
$var wire 1 { _004_ $end
$var wire 1 | _003_ $end
$var wire 1 } _002_ $end
$var wire 1 ~ _001_ $end
$var wire 8 !" _000_ [7:0] $end
$scope module _073_ $end
$var wire 1 "" A $end
$var wire 1 m Y $end
$upscope $end
$scope module _074_ $end
$var wire 1 % A $end
$var wire 1 l Y $end
$upscope $end
$scope module _075_ $end
$var wire 1 #" A $end
$var wire 1 k Y $end
$upscope $end
$scope module _076_ $end
$var wire 1 $" A $end
$var wire 1 j Y $end
$upscope $end
$scope module _077_ $end
$var wire 1 %" A $end
$var wire 1 i Y $end
$upscope $end
$scope module _078_ $end
$var wire 1 &" A $end
$var wire 1 h Y $end
$upscope $end
$scope module _079_ $end
$var wire 1 '" A $end
$var wire 1 g Y $end
$upscope $end
$scope module _080_ $end
$var wire 1 (" A $end
$var wire 1 f Y $end
$upscope $end
$scope module _081_ $end
$var wire 1 )" A $end
$var wire 1 e Y $end
$upscope $end
$scope module _082_ $end
$var wire 1 & A $end
$var wire 1 d Y $end
$upscope $end
$scope module _083_ $end
$var wire 1 c Y $end
$var wire 1 7 A $end
$upscope $end
$scope module _084_ $end
$var wire 1 ' A $end
$var wire 1 b Y $end
$upscope $end
$scope module _085_ $end
$var wire 1 d A $end
$var wire 1 a Y $end
$var wire 1 7 B $end
$upscope $end
$scope module _086_ $end
$var wire 1 & A $end
$var wire 1 c B $end
$var wire 1 ` Y $end
$upscope $end
$scope module _087_ $end
$var wire 1 l A $end
$var wire 1 c B $end
$var wire 1 _ Y $end
$upscope $end
$scope module _088_ $end
$var wire 1 % A $end
$var wire 1 ^ Y $end
$var wire 1 7 B $end
$upscope $end
$scope module _089_ $end
$var wire 1 ` A $end
$var wire 1 ^ B $end
$var wire 1 ] Y $end
$upscope $end
$scope module _090_ $end
$var wire 1 ' A $end
$var wire 1 ] B $end
$var wire 1 \ Y $end
$upscope $end
$scope module _091_ $end
$var wire 1 \ A $end
$var wire 1 } Y $end
$upscope $end
$scope module _092_ $end
$var wire 1 & A $end
$var wire 1 [ Y $end
$var wire 1 7 B $end
$upscope $end
$scope module _093_ $end
$var wire 1 ' A $end
$var wire 1 ^ B $end
$var wire 1 Z Y $end
$upscope $end
$scope module _094_ $end
$var wire 1 [ A $end
$var wire 1 Z B $end
$var wire 1 ~ Y $end
$upscope $end
$scope module _095_ $end
$var wire 1 m A $end
$var wire 1 ] B $end
$var wire 1 Y Y $end
$upscope $end
$scope module _096_ $end
$var wire 1 *" A $end
$var wire 1 _ B $end
$var wire 1 X Y $end
$upscope $end
$scope module _097_ $end
$var wire 1 +" A $end
$var wire 1 a B $end
$var wire 1 W Y $end
$upscope $end
$scope module _098_ $end
$var wire 1 X A $end
$var wire 1 W B $end
$var wire 1 V Y $end
$upscope $end
$scope module _099_ $end
$var wire 1 Y A $end
$var wire 1 V B $end
$var wire 1 U Y $end
$upscope $end
$scope module _100_ $end
$var wire 1 b A $end
$var wire 1 U B $end
$var wire 1 ," Y $end
$upscope $end
$scope module _101_ $end
$var wire 1 k A $end
$var wire 1 ] B $end
$var wire 1 T Y $end
$upscope $end
$scope module _102_ $end
$var wire 1 -" A $end
$var wire 1 _ B $end
$var wire 1 S Y $end
$upscope $end
$scope module _103_ $end
$var wire 1 ." A $end
$var wire 1 a B $end
$var wire 1 R Y $end
$upscope $end
$scope module _104_ $end
$var wire 1 S A $end
$var wire 1 R B $end
$var wire 1 Q Y $end
$upscope $end
$scope module _105_ $end
$var wire 1 T A $end
$var wire 1 Q B $end
$var wire 1 P Y $end
$upscope $end
$scope module _106_ $end
$var wire 1 b A $end
$var wire 1 P B $end
$var wire 1 /" Y $end
$upscope $end
$scope module _107_ $end
$var wire 1 j A $end
$var wire 1 ] B $end
$var wire 1 O Y $end
$upscope $end
$scope module _108_ $end
$var wire 1 0" A $end
$var wire 1 _ B $end
$var wire 1 N Y $end
$upscope $end
$scope module _109_ $end
$var wire 1 1" A $end
$var wire 1 a B $end
$var wire 1 M Y $end
$upscope $end
$scope module _110_ $end
$var wire 1 N A $end
$var wire 1 M B $end
$var wire 1 L Y $end
$upscope $end
$scope module _111_ $end
$var wire 1 O A $end
$var wire 1 L B $end
$var wire 1 K Y $end
$upscope $end
$scope module _112_ $end
$var wire 1 b A $end
$var wire 1 K B $end
$var wire 1 2" Y $end
$upscope $end
$scope module _113_ $end
$var wire 1 i A $end
$var wire 1 ] B $end
$var wire 1 J Y $end
$upscope $end
$scope module _114_ $end
$var wire 1 3" A $end
$var wire 1 _ B $end
$var wire 1 I Y $end
$upscope $end
$scope module _115_ $end
$var wire 1 4" A $end
$var wire 1 a B $end
$var wire 1 H Y $end
$upscope $end
$scope module _116_ $end
$var wire 1 I A $end
$var wire 1 H B $end
$var wire 1 G Y $end
$upscope $end
$scope module _117_ $end
$var wire 1 J A $end
$var wire 1 G B $end
$var wire 1 F Y $end
$upscope $end
$scope module _118_ $end
$var wire 1 b A $end
$var wire 1 F B $end
$var wire 1 5" Y $end
$upscope $end
$scope module _119_ $end
$var wire 1 h A $end
$var wire 1 ] B $end
$var wire 1 E Y $end
$upscope $end
$scope module _120_ $end
$var wire 1 6" A $end
$var wire 1 _ B $end
$var wire 1 D Y $end
$upscope $end
$scope module _121_ $end
$var wire 1 7" A $end
$var wire 1 a B $end
$var wire 1 C Y $end
$upscope $end
$scope module _122_ $end
$var wire 1 D A $end
$var wire 1 C B $end
$var wire 1 B Y $end
$upscope $end
$scope module _123_ $end
$var wire 1 E A $end
$var wire 1 B B $end
$var wire 1 A Y $end
$upscope $end
$scope module _124_ $end
$var wire 1 b A $end
$var wire 1 A B $end
$var wire 1 8" Y $end
$upscope $end
$scope module _125_ $end
$var wire 1 g A $end
$var wire 1 ] B $end
$var wire 1 @ Y $end
$upscope $end
$scope module _126_ $end
$var wire 1 9" A $end
$var wire 1 _ B $end
$var wire 1 ? Y $end
$upscope $end
$scope module _127_ $end
$var wire 1 :" A $end
$var wire 1 a B $end
$var wire 1 > Y $end
$upscope $end
$scope module _128_ $end
$var wire 1 ? A $end
$var wire 1 > B $end
$var wire 1 = Y $end
$upscope $end
$scope module _129_ $end
$var wire 1 @ A $end
$var wire 1 = B $end
$var wire 1 < Y $end
$upscope $end
$scope module _130_ $end
$var wire 1 b A $end
$var wire 1 < B $end
$var wire 1 ;" Y $end
$upscope $end
$scope module _131_ $end
$var wire 1 f A $end
$var wire 1 ] B $end
$var wire 1 ; Y $end
$upscope $end
$scope module _132_ $end
$var wire 1 <" A $end
$var wire 1 _ B $end
$var wire 1 : Y $end
$upscope $end
$scope module _133_ $end
$var wire 1 =" A $end
$var wire 1 a B $end
$var wire 1 9 Y $end
$upscope $end
$scope module _134_ $end
$var wire 1 : A $end
$var wire 1 9 B $end
$var wire 1 t Y $end
$upscope $end
$scope module _135_ $end
$var wire 1 ; A $end
$var wire 1 t B $end
$var wire 1 s Y $end
$upscope $end
$scope module _136_ $end
$var wire 1 b A $end
$var wire 1 s B $end
$var wire 1 >" Y $end
$upscope $end
$scope module _137_ $end
$var wire 1 e A $end
$var wire 1 ] B $end
$var wire 1 r Y $end
$upscope $end
$scope module _138_ $end
$var wire 1 ?" A $end
$var wire 1 _ B $end
$var wire 1 q Y $end
$upscope $end
$scope module _139_ $end
$var wire 1 @" A $end
$var wire 1 a B $end
$var wire 1 p Y $end
$upscope $end
$scope module _140_ $end
$var wire 1 q A $end
$var wire 1 p B $end
$var wire 1 o Y $end
$upscope $end
$scope module _141_ $end
$var wire 1 r A $end
$var wire 1 o B $end
$var wire 1 n Y $end
$upscope $end
$scope module _142_ $end
$var wire 1 b A $end
$var wire 1 n B $end
$var wire 1 A" Y $end
$upscope $end
$scope module _143_ $end
$var wire 1 - C $end
$var wire 1 B" D $end
$var reg 1 C" Q $end
$upscope $end
$scope module _144_ $end
$var wire 1 - C $end
$var wire 1 D" D $end
$var reg 1 E" Q $end
$upscope $end
$scope module _145_ $end
$var wire 1 - C $end
$var wire 1 F" D $end
$var reg 1 G" Q $end
$upscope $end
$scope module _146_ $end
$var wire 1 - C $end
$var wire 1 H" D $end
$var reg 1 I" Q $end
$upscope $end
$scope module _147_ $end
$var wire 1 - C $end
$var wire 1 J" D $end
$var reg 1 K" Q $end
$upscope $end
$scope module _148_ $end
$var wire 1 - C $end
$var wire 1 L" D $end
$var reg 1 M" Q $end
$upscope $end
$scope module _149_ $end
$var wire 1 - C $end
$var wire 1 N" D $end
$var reg 1 O" Q $end
$upscope $end
$scope module _150_ $end
$var wire 1 - C $end
$var wire 1 P" D $end
$var reg 1 Q" Q $end
$upscope $end
$scope module _151_ $end
$var wire 1 - C $end
$var wire 1 } D $end
$var reg 1 # Q $end
$upscope $end
$scope module _152_ $end
$var wire 1 - C $end
$var wire 1 ~ D $end
$var reg 1 7 Q $end
$upscope $end
$upscope $end
$scope module unstriping $end
$var wire 1 - clk_2f $end
$var wire 1 , clk_f $end
$var wire 8 R" lane_0 [7:0] $end
$var wire 8 S" lane_1 [7:0] $end
$var wire 1 ' reset $end
$var wire 1 & valid_0 $end
$var wire 1 % valid_1 $end
$var reg 1 T" contador $end
$var reg 8 U" data_out [7:0] $end
$var reg 1 V" selector $end
$var reg 1 $ valid_out $end
$upscope $end
$upscope $end
$scope module DFFSR $end
$var wire 1 W" C $end
$var wire 1 X" D $end
$var wire 1 Y" R $end
$var wire 1 Z" S $end
$var reg 1 [" Q $end
$upscope $end
$enddefinitions $end
#0
$dumpvars
x["
zZ"
zY"
zX"
zW"
xV"
bx U"
xT"
b0 S"
b0 R"
xQ"
0P"
xO"
0N"
xM"
0L"
xK"
0J"
xI"
0H"
xG"
0F"
xE"
0D"
xC"
0B"
0A"
0@"
0?"
0>"
0="
0<"
0;"
0:"
09"
08"
07"
06"
05"
04"
03"
02"
01"
00"
0/"
0."
0-"
0,"
0+"
0*"
x)"
x("
x'"
x&"
x%"
x$"
x#"
x""
b0 !"
0~
0}
0|
0{
0z
0y
0x
0w
0v
0u
0t
xs
xr
1q
1p
0o
xn
xm
1l
xk
xj
xi
xh
xg
xf
xe
1d
xc
1b
0a
1`
0_
1^
0]
1\
x[
1Z
xY
1X
1W
0V
xU
xT
1S
1R
0Q
xP
xO
1N
1M
0L
xK
xJ
1I
1H
0G
xF
xE
1D
1C
0B
xA
x@
1?
1>
0=
x<
x;
1:
19
bx 8
x7
b0 6
b0 5
04
03
02
b0 1
b0 0
bx /
bx .
1-
0,
bx +
bx *
b0 )
b0 (
0'
0&
0%
0$
x#
z"
z!
$end
#10
0-
#20
1V
1Q
1L
1G
1B
1=
1t
1o
13
1}
0\
0n
0s
0<
0A
0F
0K
0P
0U
0W
0R
0M
0H
0C
0>
09
0p
1B"
1|
1D"
1{
1F"
1z
1H"
1y
1J"
1x
1L"
1w
1N"
1v
1P"
1u
1]
12
1~
0r
0;
0@
0E
0J
0O
0T
0Y
1,"
1/"
12"
15"
18"
1;"
1>"
b11111111 !"
1A"
1a
0Z
0`
0[
1e
1f
1g
1h
1i
1j
1k
1m
0b
0d
10"
19"
1+"
1."
11"
14"
17"
1:"
1="
1@"
1c
0)"
0("
0'"
0&"
0%"
0$"
0#"
0""
1'
1&
b100100 (
b100100 1
b100100 6
b100100 S"
b11111111 )
b11111111 0
b11111111 5
b11111111 R"
07
0#
0Q"
0O"
0M"
0K"
0I"
0G"
0E"
b0 *
b0 .
b0 8
0C"
0V"
0T"
b0 +
b0 /
b0 U"
1-
1,
#30
0-
#40
0B"
0|
0J"
0x
0,"
b11101110 !"
08"
1U
1A
0V
0B
02
0~
0S
0N
0I
0?
0:
0q
1W
1R
1M
1H
1C
1>
19
1p
1Z
1`
1_
0m
0k
0j
0i
0h
0g
0f
0e
0a
0^
1""
1#"
1$"
1%"
1&"
1'"
1("
1)"
0c
0l
1-"
13"
1<"
1?"
1C"
1E"
1G"
1I"
1K"
1M"
1O"
b11111111 *
b11111111 .
b11111111 8
1Q"
1#
17
1%
b11101110 (
b11101110 1
b11101110 6
b11101110 S"
1$
1V"
b11111111 +
b11111111 /
b11111111 U"
1-
0,
#50
0-
#60
0D"
0{
0L"
0w
1B"
1|
1J"
1x
0/"
0;"
1,"
b11011101 !"
18"
1P
1<
0U
0A
0Q
0=
12
1~
1V
1B
1S
1N
1I
1?
1:
1q
0Z
0W
0M
0H
0C
09
0p
0`
0_
1^
1a
1h
1m
0."
0:"
1c
0&"
0""
b11011101 )
b11011101 0
b11011101 5
b11011101 R"
07
0K"
b11101110 *
b11101110 .
b11101110 8
0C"
0V"
b11101110 +
b11101110 /
b11101110 U"
1-
1,
#70
0-
#80
0B"
0|
0J"
0x
0,"
b11001100 !"
08"
1U
1A
02
0~
0V
0B
0N
0I
0:
0q
1Z
1W
1M
1H
1C
19
1p
1`
1_
0m
1k
0h
1g
0^
0a
1""
0#"
1&"
0'"
0c
0-"
09"
1C"
0E"
1K"
b11011101 *
b11011101 .
b11011101 8
0M"
17
b11001100 (
b11001100 1
b11001100 6
b11001100 S"
1V"
b11011101 +
b11011101 /
b11011101 U"
1-
0,
#90
0-
#100
0B"
0|
b11001100 !"
0,"
1U
0o
03
0}
0L
0G
0t
1\
1O
1J
1;
1r
0V
1N
1I
1:
1q
0]
0Z
1W
1p
0_
1[
1^
0a
1h
1m
1d
01"
04"
07"
0="
1c
0&"
0""
0&
b10000001 )
b10000001 0
b10000001 5
b10000001 R"
07
0K"
b11001100 *
b11001100 .
b11001100 8
0C"
0V"
b11001100 +
b11001100 /
b11001100 U"
1-
1,
#110
0-
#120
1l
1*"
00"
0<"
0?"
0#
0%
b1001 (
b1001 1
b1001 6
b1001 S"
0$
1-
0,
#130
0-
#140
1B"
1|
1D"
1{
1,"
1/"
0F"
0z
0H"
0y
0N"
0v
0P"
0u
02"
05"
0>"
b11 !"
0A"
0U
0P
1K
1F
1s
1n
1V
1Q
13
1}
0\
0O
0J
0;
0r
0W
0R
1]
12
1~
1a
0`
0[
0d
1."
0@"
1&
b11 )
b11 0
b11 5
b11 R"
1-
1,
#150
0-
#160
1F"
1z
0B"
0|
0D"
0{
12"
0,"
b100 !"
0/"
0K
1U
1P
1L
0V
0Q
02
0~
0N
1W
1R
1Z
1`
1_
0m
0k
1j
1i
1f
1e
0a
0^
1""
1#"
0$"
0%"
0("
0)"
0c
0l
0*"
10"
03"
1C"
1E"
0G"
0I"
0O"
b11 *
b11 .
b11 8
0Q"
1#
17
1%
b100 (
b100 1
b100 6
b100 S"
1$
1V"
b11 +
b11 /
b11 U"
1-
0,
#170
0-
#180
0B"
0|
0D"
0{
0L"
0w
0N"
0v
0,"
0/"
0;"
b100 !"
0>"
1U
1P
1<
1s
03
0}
0L
1\
1O
0V
0Q
0=
0t
1N
0]
0Z
1W
1R
1>
19
0_
1[
1^
0a
0j
1k
1m
1d
1:"
1="
1c
1$"
0#"
0""
0&
b1100011 )
b1100011 0
b1100011 5
b1100011 R"
07
1G"
0E"
b100 *
b100 .
b100 8
0C"
0V"
b100 +
b100 /
b100 U"
1-
1,
#190
0-
#200
1l
1*"
13"
0#
0%
b1101 (
b1101 1
b1101 6
b1101 S"
0$
1-
0,
#210
0-
#220
1D"
1{
1H"
1y
1L"
1w
1P"
1u
1/"
15"
1;"
1A"
0F"
0z
b10101010 !"
02"
0P
0F
0<
0n
1K
1Q
1G
1=
1o
13
1}
0\
0O
0R
0H
0>
0p
1]
12
1~
1a
0`
0[
0d
0+"
14"
0="
1@"
1&
b10101010 )
b10101010 0
b10101010 5
b10101010 R"
1-
1,
#230
0-
#240
1B"
1|
1J"
1x
0D"
0{
0L"
0w
1,"
18"
0/"
b10011001 !"
0;"
0U
0A
1P
1<
1V
1B
0Q
0=
02
0~
0X
0I
0D
0q
1R
1H
1>
1p
1Z
1`
1_
0k
1j
0i
0g
0e
0a
0^
1#"
0$"
1%"
1'"
1)"
0c
0l
00"
16"
1?"
1E"
0G"
1I"
1M"
b10101010 *
b10101010 .
b10101010 8
1Q"
1#
17
1%
b10011001 (
b10011001 1
b10011001 6
b10011001 S"
1$
1V"
b10101010 +
b10101010 /
b10101010 U"
1-
0,
#250
0-
#260
0F"
0z
b10011001 !"
02"
0G
0o
1K
03
0}
0V
0B
1\
1Y
1J
1E
1r
0L
1X
1I
1D
1q
0]
0Z
1H
1p
1W
1M
0_
1[
1^
0a
1g
0h
1k
0m
1d
1+"
0."
11"
0:"
1c
0'"
1&"
0#"
1""
0&
b10001101 )
b10001101 0
b10001101 5
b10001101 R"
07
0M"
1K"
0E"
b10011001 *
b10011001 .
b10011001 8
1C"
0V"
b10011001 +
b10011001 /
b10011001 U"
1-
1,
#270
0-
#280
1l
10"
03"
06"
19"
1<"
0?"
0#
0%
b1100101 (
b1100101 1
b1100101 6
b1100101 S"
0$
1-
0,
